Name,time,Position
mouse_head_joint,0.0,0.0
mouse_head_joint,0.02,0.0
mouse_head_joint,0.04,0.0
mouse_head_joint,0.06,0.0
mouse_head_joint,0.08,0.0
mouse_head_joint,0.1,0.0
mouse_head_joint,0.12000000000000001,0.0
mouse_head_joint,0.14,0.0
mouse_head_joint,0.16,0.0
mouse_head_joint,0.18,0.0
mouse_head_joint,0.19999999999999998,0.0
mouse_head_joint,0.21999999999999997,-0.0018201135557998072
mouse_head_joint,0.23999999999999996,-0.00017512005050246415
mouse_head_joint,0.25999999999999995,2.7684641790592934e-05
mouse_head_joint,0.27999999999999997,7.04142522689466e-06
mouse_head_joint,0.3,6.526700548903364e-06
mouse_head_joint,0.32,-6.79851977380963e-06
mouse_head_joint,0.34,-7.425495728519138e-06
mouse_head_joint,0.36000000000000004,-8.531858064486642e-06
mouse_head_joint,0.38000000000000006,-9.791941016246142e-06
mouse_head_joint,0.4000000000000001,-1.1259087242976307e-05
mouse_head_joint,0.4200000000000001,-1.2514430316024061e-05
mouse_head_joint,0.4400000000000001,-1.41457232620823e-05
mouse_head_joint,0.46000000000000013,-1.592259072324964e-05
mouse_head_joint,0.48000000000000015,-1.763545362543084e-05
mouse_head_joint,0.5000000000000001,-1.9283988572205146e-05
mouse_head_joint,0.5200000000000001,-2.1040204377875682e-05
mouse_head_joint,0.5400000000000001,-2.284332571811376e-05
mouse_head_joint,0.5600000000000002,-2.4600070667624152e-05
mouse_head_joint,0.5800000000000002,-2.6420931687809457e-05
mouse_head_joint,0.6000000000000002,-2.8200650428189533e-05
mouse_head_joint,0.6200000000000002,-3.021949562764803e-05
mouse_head_joint,0.6400000000000002,-3.200396040803355e-05
mouse_head_joint,0.6600000000000003,-3.358456254431985e-05
mouse_head_joint,0.6800000000000003,-3.537321641733371e-05
mouse_head_joint,0.7000000000000003,-3.690995933514074e-05
mouse_head_joint,0.7200000000000003,-3.8691610722452197e-05
mouse_head_joint,0.7400000000000003,-4.050923114728988e-05
mouse_head_joint,0.7600000000000003,-4.2144406356747766e-05
mouse_head_joint,0.7800000000000004,-4.377006868683253e-05
mouse_head_joint,0.8000000000000004,-4.5573324112702096e-05
mouse_head_joint,0.8200000000000004,-4.754179314314655e-05
mouse_head_joint,0.8400000000000004,-4.896338040261128e-05
mouse_head_joint,0.8600000000000004,-5.054544931404337e-05
mouse_head_joint,0.8800000000000004,-5.22899411423694e-05
mouse_head_joint,0.9000000000000005,-5.386639536908433e-05
mouse_head_joint,0.9200000000000005,-5.5587192524519935e-05
mouse_head_joint,0.9400000000000005,-5.744115063244237e-05
mouse_head_joint,0.9600000000000005,-5.88335032922771e-05
mouse_head_joint,0.9800000000000005,-6.0413930717651e-05
mouse_head_joint,1.0000000000000004,-6.19174424336677e-05
mouse_head_joint,1.0200000000000005,-6.373176096818867e-05
mouse_head_joint,1.0400000000000005,-6.507988478698934e-05
mouse_head_joint,1.0600000000000005,-6.668370304119264e-05
mouse_head_joint,1.0800000000000005,-6.837872268317113e-05
mouse_head_joint,1.1000000000000005,-6.966860991219903e-05
mouse_head_joint,1.1200000000000006,-7.126157744341555e-05
mouse_head_joint,1.1400000000000006,-7.266708151476564e-05
mouse_head_joint,1.1600000000000006,-7.424919309251266e-05
mouse_head_joint,1.1800000000000006,-7.581246101473482e-05
mouse_head_joint,1.2000000000000006,-7.702794528174906e-05
mouse_head_joint,1.2200000000000006,-7.857123678256528e-05
mouse_head_joint,1.2400000000000007,-8.010462267549201e-05
mouse_head_joint,1.2600000000000007,-8.147080462261869e-05
mouse_head_joint,1.2800000000000007,-8.297939337964522e-05
mouse_head_joint,1.3000000000000007,-8.431385700546912e-05
mouse_head_joint,1.3200000000000007,-8.562428253178211e-05
mouse_head_joint,1.3400000000000007,-8.72506691278474e-05
mouse_head_joint,1.3600000000000008,-8.85526689335947e-05
mouse_head_joint,1.3800000000000008,-8.972639912130376e-05
mouse_head_joint,1.4000000000000008,-9.127224574800863e-05
mouse_head_joint,1.4200000000000008,-9.258450481919311e-05
mouse_head_joint,1.4400000000000008,-9.384281445168341e-05
mouse_head_joint,1.4600000000000009,-9.504527712866917e-05
mouse_head_joint,1.4800000000000009,-9.641924375358712e-05
mouse_head_joint,1.5000000000000009,-9.759629164562966e-05
mouse_head_joint,1.520000000000001,-9.892328005900453e-05
mouse_head_joint,1.540000000000001,-0.00010012825555349991
mouse_head_joint,1.560000000000001,-0.00010162270439728616
mouse_head_joint,1.580000000000001,-0.00010294939201926923
mouse_head_joint,1.600000000000001,-0.00010398019392976465
mouse_head_joint,1.620000000000001,-0.000105114403851303
mouse_head_joint,1.640000000000001,-0.00010643834043833067
mouse_head_joint,1.660000000000001,-0.00010772282333970651
mouse_head_joint,1.680000000000001,-0.0001088267358442252
mouse_head_joint,1.700000000000001,-0.00011011676530525705
mouse_head_joint,1.720000000000001,-0.00011131224874016965
mouse_head_joint,1.740000000000001,-0.00011241485329094303
mouse_head_joint,1.7600000000000011,-0.00011358595042310071
mouse_head_joint,1.7800000000000011,-0.00011466848397212459
mouse_head_joint,1.8000000000000012,-0.00011574170606820644
mouse_head_joint,1.8200000000000012,-0.00011693278267621565
mouse_head_joint,1.8400000000000012,-0.00011792984378988791
mouse_head_joint,1.8600000000000012,-0.0001191062122494202
mouse_head_joint,1.8800000000000012,-0.00012022203697803491
mouse_head_joint,1.9000000000000012,-0.00012119095259066626
mouse_head_joint,1.9200000000000013,-0.00012220654104844186
mouse_head_joint,1.9400000000000013,-0.00012336920470890078
mouse_head_joint,1.9600000000000013,-0.00012448022301647654
mouse_head_joint,1.9800000000000013,-0.0001254247615030124
mouse_head_joint,2.0000000000000013,-0.00012656706654734506
mouse_head_joint,2.0200000000000014,-0.0001274949023191141
mouse_head_joint,2.0400000000000014,-0.0001284546181095081
mouse_head_joint,2.0600000000000014,-0.00012968850348915595
mouse_head_joint,2.0800000000000014,-0.0001306297565726311
mouse_head_joint,2.1000000000000014,-0.00013156246387513448
mouse_head_joint,2.1200000000000014,-0.00013255349112384351
mouse_head_joint,2.1400000000000015,-0.0001334685050347062
mouse_head_joint,2.1600000000000015,-0.00013442870243363103
mouse_head_joint,2.1800000000000015,-0.00013544727568515214
mouse_head_joint,2.2000000000000015,-0.00013633587662198465
mouse_head_joint,2.2200000000000015,-0.00013714876200587867
mouse_head_joint,2.2400000000000015,-0.00013814592288685645
mouse_head_joint,2.2600000000000016,-0.000138932586541074
mouse_head_joint,2.2800000000000016,-0.000139924803110425
mouse_head_joint,2.3000000000000016,-0.0001408510141525099
mouse_head_joint,2.3200000000000016,-0.0001418893975824176
mouse_head_joint,2.3400000000000016,-0.00014261253810232688
mouse_head_joint,2.3600000000000017,-0.00014343303527031281
mouse_head_joint,2.3800000000000017,-0.00014434838576704578
mouse_head_joint,2.4000000000000017,-0.00014525743367332922
mouse_head_joint,2.4200000000000017,-0.00014605282455448787
mouse_head_joint,2.4400000000000017,-0.00014678822468550123
mouse_head_joint,2.4600000000000017,-0.00014756774366908587
mouse_head_joint,2.4800000000000018,-0.00014849414737927447
mouse_head_joint,2.5000000000000018,-0.00014931048118516088
mouse_head_joint,2.520000000000002,-0.00014995111047788612
mouse_head_joint,2.540000000000002,-0.00015069887436069962
mouse_head_joint,2.560000000000002,-0.00015158860485797732
mouse_head_joint,2.580000000000002,-0.000152360228907078
mouse_head_joint,2.600000000000002,-0.00015308470222041848
mouse_head_joint,2.620000000000002,-0.0001538351782146563
mouse_head_joint,2.640000000000002,-0.0001546754264403205
mouse_head_joint,2.660000000000002,-0.0001552984753310227
mouse_head_joint,2.680000000000002,-0.00015613462959862545
mouse_head_joint,2.700000000000002,-0.00015675147491744923
mouse_head_joint,2.720000000000002,-0.00015751593640711548
mouse_head_joint,2.740000000000002,-0.0001582507998536542
mouse_head_joint,2.760000000000002,-0.00015900230311505226
mouse_head_joint,2.780000000000002,-0.00015974882914981947
mouse_head_joint,2.800000000000002,-0.00016024766023559067
mouse_head_joint,2.820000000000002,-0.0001611283248399431
mouse_head_joint,2.840000000000002,-0.0001617632415022996
mouse_head_joint,2.860000000000002,-0.00016239138480944604
mouse_head_joint,2.880000000000002,-0.0001630517290998057
mouse_head_joint,2.900000000000002,-0.00016366580887439142
mouse_head_joint,2.920000000000002,-0.0001642907353307521
mouse_head_joint,2.940000000000002,-0.0001648907873628147
mouse_head_joint,2.960000000000002,-0.00016559332076582223
mouse_head_joint,2.980000000000002,-0.00016620968230895983
mouse_head_joint,3.000000000000002,-0.00016681987282485267
mouse_head_joint,3.0200000000000022,-0.00016739229271323097
mouse_head_joint,3.0400000000000023,-0.00016795831628790836
mouse_head_joint,3.0600000000000023,-0.00016848879911357528
mouse_head_joint,3.0800000000000023,-0.00016904107258319812
mouse_head_joint,3.1000000000000023,-0.00016965825082060348
mouse_head_joint,3.1200000000000023,-0.00017019734948053866
mouse_head_joint,3.1400000000000023,-0.0001707302566620328
mouse_head_joint,3.1600000000000024,-0.00017133266947055859
mouse_head_joint,3.1800000000000024,-0.00017219100793131048
mouse_head_joint,3.2000000000000024,-0.0001725109041021966
mouse_head_joint,3.2200000000000024,-0.0001731200951695655
mouse_head_joint,3.2400000000000024,-0.00017359316113196854
mouse_head_joint,3.2600000000000025,-0.00017420593778894045
mouse_head_joint,3.2800000000000025,-0.00017447103422885135
mouse_head_joint,3.3000000000000025,-0.00017495331607264575
mouse_head_joint,3.3200000000000025,-0.00017566923255429856
mouse_head_joint,3.3400000000000025,-0.00017615729361963872
mouse_head_joint,3.3600000000000025,-0.00017662102180882044
mouse_head_joint,3.3800000000000026,-0.0001770790248194487
mouse_head_joint,3.4000000000000026,-0.0001774293662917259
mouse_head_joint,3.4200000000000026,-0.00017794596004971908
mouse_head_joint,3.4400000000000026,-0.00017834011474349154
mouse_head_joint,3.4600000000000026,-0.00017890442541279583
mouse_head_joint,3.4800000000000026,-0.0001793846688915579
mouse_head_joint,3.5000000000000027,-0.0001798072893191005
mouse_head_joint,3.5200000000000027,-0.00018028499091116146
mouse_head_joint,3.5400000000000027,-0.00018062037866783953
mouse_head_joint,3.5600000000000027,-0.000181165071214906
mouse_head_joint,3.5800000000000027,-0.00018156490456711083
mouse_head_joint,3.6000000000000028,-0.0001820212842913449
mouse_head_joint,3.6200000000000028,-0.00018240995774654323
mouse_head_joint,3.640000000000003,-0.00018280918045832095
mouse_head_joint,3.660000000000003,-0.0001831868726656083
mouse_head_joint,3.680000000000003,-0.00018364921192670636
mouse_head_joint,3.700000000000003,-0.00018401576634730077
mouse_head_joint,3.720000000000003,-0.000184384184112929
mouse_head_joint,3.740000000000003,-0.00018463244463085005
mouse_head_joint,3.760000000000003,-0.00018509085498585875
mouse_head_joint,3.780000000000003,-0.00018532849109220706
mouse_head_joint,3.800000000000003,-0.00018580705650794727
mouse_head_joint,3.820000000000003,-0.00018601700793663412
mouse_head_joint,3.840000000000003,-0.0001864718213067107
mouse_head_joint,3.860000000000003,-0.00018670546884624883
mouse_head_joint,3.880000000000003,-0.00018720724145993017
mouse_head_joint,3.900000000000003,-0.00018738708006171834
mouse_head_joint,3.920000000000003,-0.00018783126247257087
mouse_head_joint,3.940000000000003,-0.00018818873506187828
mouse_head_joint,3.960000000000003,-0.00018854038312987598
mouse_head_joint,3.980000000000003,-0.00018870207448973275
mouse_head_joint,4.000000000000003,-0.0001889869008619982
mouse_head_joint,4.020000000000002,-0.00018941612357981086
mouse_head_joint,4.040000000000002,-0.0001896963737486601
mouse_head_joint,4.060000000000001,-0.00018994573964992156
mouse_head_joint,4.080000000000001,-0.00019022262067558415
mouse_head_joint,4.1000000000000005,-0.00019058315319053776
mouse_head_joint,4.12,-0.0001907284342719251
mouse_head_joint,4.14,-0.00019098871255973648
mouse_head_joint,4.159999999999999,-0.00019123691949740618
mouse_head_joint,4.179999999999999,-0.0001914875211284084
mouse_head_joint,4.199999999999998,-0.00019175458350506602
mouse_head_joint,4.219999999999998,-0.00019199273765213576
mouse_head_joint,4.2399999999999975,-0.00019222663075968427
mouse_head_joint,4.259999999999997,-0.00019258341453198824
mouse_head_joint,4.279999999999997,-0.0001927625751481088
mouse_head_joint,4.299999999999996,-0.00019306953810538374
mouse_head_joint,4.319999999999996,-0.0001933293323732599
mouse_head_joint,4.339999999999995,-0.0001934552754709884
mouse_head_joint,4.359999999999995,-0.00019379149651221894
mouse_head_joint,4.379999999999995,-0.00019409922632984689
mouse_head_joint,4.399999999999994,-0.00019429838953488598
mouse_head_joint,4.419999999999994,-0.0001943865759024277
mouse_head_joint,4.439999999999993,-0.00019442748837850132
mouse_head_joint,4.459999999999993,-0.00019473471309083834
mouse_head_joint,4.479999999999992,-0.0001950078239145725
mouse_head_joint,4.499999999999992,-0.0001951746416377631
mouse_head_joint,4.519999999999992,-0.0001953490315784734
mouse_head_joint,4.539999999999991,-0.00019540148621466358
mouse_head_joint,4.559999999999991,-0.00019556226074790573
mouse_head_joint,4.57999999999999,-0.00019574021039669987
mouse_head_joint,4.59999999999999,-0.0001959992956175327
mouse_head_joint,4.6199999999999894,-0.0001961763295019736
mouse_head_joint,4.639999999999989,-0.00019623294100057365
mouse_head_joint,4.659999999999989,-0.00019654195599638768
mouse_head_joint,4.679999999999988,-0.00019659474845745706
mouse_head_joint,4.699999999999988,-0.00019669730340332592
mouse_head_joint,4.719999999999987,-0.00019695898991312077
mouse_head_joint,4.739999999999987,-0.00019712527638837685
mouse_head_joint,4.7599999999999865,-0.00019724338098026095
mouse_head_joint,4.779999999999986,-0.000197213670909413
mouse_head_joint,4.799999999999986,-0.00019745105234569849
mouse_head_joint,4.819999999999985,-0.000197567888712058
mouse_head_joint,4.839999999999985,-0.00019765877444122282
mouse_head_joint,4.859999999999984,-0.00019787827583606088
mouse_head_joint,4.879999999999984,-0.00019796542454830757
mouse_head_joint,4.8999999999999835,-0.00019804778542464874
mouse_head_joint,4.919999999999983,-0.00019814566192355443
mouse_head_joint,4.939999999999983,-0.0001982427504909623
mouse_head_joint,4.959999999999982,-0.00019822075599851274
mouse_head_joint,4.979999999999982,-0.0001983176947062404
mouse_head_joint,4.999999999999981,-0.0001985231131396148
mouse_head_joint,5.019999999999981,-0.00019860534635096627
mouse_head_joint,5.0399999999999805,-0.00019858645994474955
mouse_head_joint,5.05999999999998,-0.00019878484555846399
mouse_head_joint,5.07999999999998,-0.00019888551614055672
mouse_head_joint,5.099999999999979,-0.0001989545665015413
mouse_head_joint,5.119999999999979,-0.00019892659125542167
mouse_head_joint,5.139999999999978,-0.00019909407984464167
mouse_head_joint,5.159999999999978,-0.0001991533563892034
mouse_head_joint,5.1799999999999775,-0.0001992096343288452
mouse_head_joint,5.199999999999977,-0.00019910522005872622
mouse_head_joint,5.219999999999977,-0.00019935270219662016
mouse_head_joint,5.239999999999976,-0.00019928647494094065
mouse_head_joint,5.259999999999976,-0.00019933037554231703
mouse_head_joint,5.279999999999975,-0.00019945867931880912
mouse_head_joint,5.299999999999975,-0.0001993712984580398
mouse_head_joint,5.3199999999999745,-0.00019950422164249915
mouse_head_joint,5.339999999999974,-0.0001994201652610883
mouse_head_joint,5.359999999999974,-0.00019944897708956688
mouse_head_joint,5.379999999999973,-0.0001994750198752726
mouse_head_joint,5.399999999999973,-0.00019951398109707696
mouse_head_joint,5.419999999999972,-0.00019965403488697575
mouse_head_joint,5.439999999999972,-0.00019969390567808887
mouse_head_joint,5.4599999999999715,-0.00019958848218948333
mouse_head_joint,5.479999999999971,-0.0001997420418371476
mouse_head_joint,5.499999999999971,-0.00019963240266829274
mouse_head_joint,5.51999999999997,-0.00019975722563270182
mouse_head_joint,5.53999999999997,-0.00019973819260687975
mouse_head_joint,5.559999999999969,-0.00019968917018609034
mouse_head_joint,5.579999999999969,-0.0001996529099352884
mouse_head_joint,5.599999999999969,-0.00019976408202282414
mouse_head_joint,5.619999999999968,-0.00019972559717285066
mouse_head_joint,5.639999999999968,-0.00019971569609378292
mouse_head_joint,5.659999999999967,-0.0001995752462322642
mouse_head_joint,5.679999999999967,-0.00019965556928536188
mouse_head_joint,5.699999999999966,-0.0001996380609794457
mouse_head_joint,5.719999999999966,-0.00019949754881398718
mouse_head_joint,5.739999999999966,-0.0001995817371494013
mouse_head_joint,5.759999999999965,-0.00019944608817556997
mouse_head_joint,5.779999999999965,-0.00019942904133785078
mouse_head_joint,5.799999999999964,-0.00019939906923216455
mouse_head_joint,5.819999999999964,-0.00019948379952605677
mouse_head_joint,5.839999999999963,-0.0001994660830897388
mouse_head_joint,5.859999999999963,-0.00019932950095391533
mouse_head_joint,5.879999999999963,-0.00019940590865719088
mouse_head_joint,5.899999999999962,-0.00019945592255687927
mouse_head_joint,5.919999999999962,-0.00019941167281167793
mouse_head_joint,5.939999999999961,-0.0001991907561897932
mouse_head_joint,5.959999999999961,-0.00019903375514029875
mouse_head_joint,5.9799999999999605,-0.00019909069187828976
mouse_head_joint,5.99999999999996,-0.00019911643829484404
mouse_head_joint,6.01999999999996,-0.00019894233024331243
mouse_head_joint,6.039999999999959,-0.000198836186907414
mouse_head_joint,6.059999999999959,-0.00019877620043562416
mouse_head_joint,6.079999999999958,-0.00019880689536044827
mouse_head_joint,6.099999999999958,-0.0001986198137187145
mouse_head_joint,6.1199999999999575,-0.00019865676080410566
mouse_head_joint,6.139999999999957,-0.0001984763520717081
mouse_head_joint,6.159999999999957,-0.00019841165372813663
mouse_head_joint,6.179999999999956,-0.00019845377215244042
mouse_head_joint,6.199999999999956,-0.00019837898622476757
mouse_head_joint,6.219999999999955,-0.00019819980646840207
mouse_head_joint,6.239999999999955,-0.00019823599820778526
mouse_head_joint,6.2599999999999545,-0.00019805365872560543
mouse_head_joint,6.279999999999954,-0.00019817425575485714
mouse_head_joint,6.299999999999954,-0.00019790908075112412
mouse_head_joint,6.319999999999953,-0.0001977160862756122
mouse_head_joint,6.339999999999953,-0.00019762741018958252
mouse_head_joint,6.359999999999952,-0.00019764278033296279
mouse_head_joint,6.379999999999952,-0.00019754569166519076
mouse_head_joint,6.3999999999999515,-0.00019749240792332756
mouse_head_joint,6.419999999999951,-0.0001972637606444394
mouse_head_joint,6.439999999999951,-0.00019723443252139816
mouse_head_joint,6.45999999999995,-0.0001970198442942106
mouse_head_joint,6.47999999999995,-0.00019693020998357014
mouse_head_joint,6.499999999999949,-0.000196814385025057
mouse_head_joint,6.519999999999949,-0.00019671135929133499
mouse_head_joint,6.5399999999999485,-0.0001966042499805809
mouse_head_joint,6.559999999999948,-0.0001964954868336477
mouse_head_joint,6.579999999999948,-0.00019649785813591336
mouse_head_joint,6.599999999999947,-0.00019628154482820293
mouse_head_joint,6.619999999999947,-0.00019628073269828406
mouse_head_joint,6.639999999999946,-0.00019626156950014462
mouse_head_joint,6.659999999999946,-0.00019614424900815663
mouse_head_joint,6.6799999999999455,-0.00019602536758167588
mouse_head_joint,6.699999999999945,-0.0001956149135926566
mouse_head_joint,6.719999999999945,-0.0001954928058243155
mouse_head_joint,6.739999999999944,-0.0001954265073420558
mouse_head_joint,6.759999999999944,-0.0001953011468032173
mouse_head_joint,6.779999999999943,-0.00019525234778416944
mouse_head_joint,6.799999999999943,-0.00019512394193466065
mouse_head_joint,6.8199999999999426,-0.00019486000116675228
mouse_head_joint,6.839999999999942,-0.00019481752352312753
mouse_head_joint,6.859999999999942,-0.00019465902010740166
mouse_head_joint,6.879999999999941,-0.00019440843689455534
mouse_head_joint,6.899999999999941,-0.00019427252721015975
mouse_head_joint,6.91999999999994,-0.0001942431816122081
mouse_head_joint,6.93999999999994,-0.00019399535856479133
mouse_head_joint,6.95999999999994,-0.00019396628079171307
mouse_head_joint,6.979999999999939,-0.000193725965526248
mouse_head_joint,6.999999999999939,-0.00019368745156445044
mouse_head_joint,7.019999999999938,-0.00019343841979679866
mouse_head_joint,7.039999999999938,-0.0001934887541956698
mouse_head_joint,7.059999999999937,-0.0001933415773267555
mouse_head_joint,7.079999999999937,-0.0001930681882802432
mouse_head_joint,7.099999999999937,-0.0001929274356582411
mouse_head_joint,7.119999999999936,-0.00019270223603307102
mouse_head_joint,7.139999999999936,-0.00019262378359918841
mouse_head_joint,7.159999999999935,-0.00019242274456399144
mouse_head_joint,7.179999999999935,-0.0001921324699711846
mouse_head_joint,7.1999999999999345,-0.00019197620796518322
mouse_head_joint,7.219999999999934,-0.00019177881976251143
mouse_head_joint,7.239999999999934,-0.0001916019953345227
mouse_head_joint,7.259999999999933,-0.00019155925659308792
mouse_head_joint,7.279999999999933,-0.00019128083603803248
mouse_head_joint,7.299999999999932,-0.00019111492957346599
mouse_head_joint,7.319999999999932,-0.0001910611261752848
mouse_head_joint,7.3399999999999315,-0.00019078982360998253
mouse_head_joint,7.359999999999931,-0.00019073394591373471
mouse_head_joint,7.379999999999931,-0.0001905669677988442
mouse_head_joint,7.39999999999993,-0.00019048648642172594
mouse_head_joint,7.41999999999993,-0.00019023270134077563
mouse_head_joint,7.439999999999929,-0.00018985223375711513
mouse_head_joint,7.459999999999929,-0.00018968077911107883
mouse_head_joint,7.4799999999999285,-0.00018960987587934852
mouse_head_joint,7.499999999999928,-0.0001895091198349519
mouse_head_joint,7.519999999999928,-0.00018914859097574066
mouse_head_joint,7.539999999999927,-0.00018903404971659654
mouse_head_joint,7.559999999999927,-0.0001887961467632593
mouse_head_joint,7.579999999999926,-0.00018870463688536177
mouse_head_joint,7.599999999999926,-0.00018839775613788134
mouse_head_joint,7.6199999999999255,-0.0001882180974321912
mouse_head_joint,7.639999999999925,-0.0001880172289068227
mouse_head_joint,7.659999999999925,-0.0001879409656542208
mouse_head_joint,7.679999999999924,-0.00018775840592155646
mouse_head_joint,7.699999999999924,-0.00018746396955293676
mouse_head_joint,7.719999999999923,-0.00018728059671424546
mouse_head_joint,7.739999999999923,-0.00018709525943272354
mouse_head_joint,7.7599999999999225,-0.00018701772441787057
mouse_head_joint,7.779999999999922,-0.0001869148641624463
mouse_head_joint,7.799999999999922,-0.00018659984566671284
mouse_head_joint,7.819999999999921,-0.00018641428168386653
mouse_head_joint,7.839999999999921,-0.00018605184707798372
mouse_head_joint,7.85999999999992,-0.00018596184852004427
mouse_head_joint,7.87999999999992,-0.0001856535020747785
mouse_head_joint,7.8999999999999195,-0.0001855979362765936
mouse_head_joint,7.919999999999919,-0.0001854047652907198
mouse_head_joint,7.939999999999919,-0.00018521082673128575
mouse_head_joint,7.959999999999918,-0.00018496425954150908
mouse_head_joint,7.979999999999918,-0.00018463993513062604
mouse_head_joint,7.999999999999917,-0.000184443651680688
mouse_head_joint,8.019999999999918,-0.00018422475043244901
mouse_head_joint,8.039999999999917,-0.0001841312497496972
mouse_head_joint,8.059999999999917,-0.00018392866862271262
mouse_head_joint,8.079999999999917,-0.0001836219089215163
mouse_head_joint,8.099999999999916,-0.00018352933714638198
mouse_head_joint,8.119999999999916,-0.00018332832328926685
mouse_head_joint,8.139999999999915,-0.0001832085444277709
mouse_head_joint,8.159999999999915,-0.00018292422657495422
mouse_head_joint,8.179999999999914,-0.0001827214201943761
mouse_head_joint,8.199999999999914,-0.00018230273555897014
mouse_head_joint,8.219999999999914,-0.00018209856206752306
mouse_head_joint,8.239999999999913,-0.00018199365051074778
mouse_head_joint,8.259999999999913,-0.00018185914811841286
mouse_head_joint,8.279999999999912,-0.0001815463552894414
mouse_head_joint,8.299999999999912,-0.00018131994319414702
mouse_head_joint,8.319999999999911,-0.00018118530868971305
mouse_head_joint,8.339999999999911,-0.00018083999762463776
mouse_head_joint,8.35999999999991,-0.00018068246928582
mouse_head_joint,8.37999999999991,-0.00018047331439952075
mouse_head_joint,8.39999999999991,-0.00018014458105675146
mouse_head_joint,8.41999999999991,-0.00018003775860986337
mouse_head_joint,8.439999999999909,-0.00017982692812168466
mouse_head_joint,8.459999999999908,-0.00017950370909325386
mouse_head_joint,8.479999999999908,-0.0001793983512472508
mouse_head_joint,8.499999999999908,-0.00017907705544217833
mouse_head_joint,8.519999999999907,-0.00017897140807932033
mouse_head_joint,8.539999999999907,-0.00017875615228657438
mouse_head_joint,8.559999999999906,-0.00017862320942718668
mouse_head_joint,8.579999999999906,-0.00017840868343910188
mouse_head_joint,8.599999999999905,-0.000178065497222768
mouse_head_joint,8.619999999999905,-0.00017768031757903202
mouse_head_joint,8.639999999999905,-0.0001775789555438223
mouse_head_joint,8.659999999999904,-0.00017741753690980744
mouse_head_joint,8.679999999999904,-0.00017700794147579302
mouse_head_joint,8.699999999999903,-0.0001769282222694457
mouse_head_joint,8.719999999999903,-0.0001765728285487711
mouse_head_joint,8.739999999999903,-0.00017630871015850147
mouse_head_joint,8.759999999999902,-0.00017616899240735506
mouse_head_joint,8.779999999999902,-0.0001759499151834376
mouse_head_joint,8.799999999999901,-0.000175730451140943
mouse_head_joint,8.8199999999999,-0.00017551060760734316
mouse_head_joint,8.8399999999999,-0.00017517840028880016
mouse_head_joint,8.8599999999999,-0.00017506362122166053
mouse_head_joint,8.8799999999999,-0.0001748402449193165
mouse_head_joint,8.899999999999899,-0.00017469654213453367
mouse_head_joint,8.919999999999899,-0.00017439452721923487
mouse_head_joint,8.939999999999898,-0.00017417245400963566
mouse_head_joint,8.959999999999898,-0.0001740302069839217
mouse_head_joint,8.979999999999897,-0.00017367891608000008
mouse_head_joint,8.999999999999897,-0.00017328621190770832
mouse_head_joint,9.019999999999897,-0.0001732314386364564
mouse_head_joint,9.039999999999896,-0.0001729515469666154
mouse_head_joint,9.059999999999896,-0.00017272747595420412
mouse_head_joint,9.079999999999895,-0.00017250311867123003
mouse_head_joint,9.099999999999895,-0.00017214078939620236
mouse_head_joint,9.119999999999894,-0.00017196408625252957
mouse_head_joint,9.139999999999894,-0.00017173886377541692
mouse_head_joint,9.159999999999894,-0.0001713942628445153
mouse_head_joint,9.179999999999893,-0.00017116853478693628
mouse_head_joint,9.199999999999893,-0.00017093272978385698
mouse_head_joint,9.219999999999892,-0.0001708117279344279
mouse_head_joint,9.239999999999892,-0.0001705852333646618
mouse_head_joint,9.259999999999891,-0.00017035233302920005
mouse_head_joint,9.279999999999891,-0.00017012856637155238
mouse_head_joint,9.29999999999989,-0.00016979394374061485
mouse_head_joint,9.31999999999989,-0.00016967073365492524
mouse_head_joint,9.33999999999989,-0.00016952251916624306
mouse_head_joint,9.35999999999989,-0.0001689966087052852
mouse_head_joint,9.379999999999889,-0.0001688672626389831
mouse_head_joint,9.399999999999888,-0.0001686390493489398
mouse_head_joint,9.419999999999888,-0.00016835252268965206
mouse_head_joint,9.439999999999888,-0.00016819427902881046
mouse_head_joint,9.459999999999887,-0.00016782789965930078
mouse_head_joint,9.479999999999887,-0.0001675989664029487
mouse_head_joint,9.499999999999886,-0.0001674521598555856
mouse_head_joint,9.519999999999886,-0.0001671880613214327
mouse_head_joint,9.539999999999885,-0.00016695865605953486
mouse_head_joint,9.559999999999885,-0.00016671189067096748
mouse_head_joint,9.579999999999885,-0.00016648221198245494
mouse_head_joint,9.599999999999884,-0.00016613716647473353
mouse_head_joint,9.619999999999884,-0.0001660121844162532
mouse_head_joint,9.639999999999883,-0.00016567721574300975
mouse_head_joint,9.659999999999883,-0.0001655519647822956
mouse_head_joint,9.679999999999882,-0.00016509913677431598
mouse_head_joint,9.699999999999882,-0.00016508774062984344
mouse_head_joint,9.719999999999882,-0.0001648072297149028
mouse_head_joint,9.739999999999881,-0.00016457664407187877
mouse_head_joint,9.75999999999988,-0.00016427561578691297
mouse_head_joint,9.77999999999988,-0.00016411382337722102
mouse_head_joint,9.79999999999988,-0.0001637555923617029
mouse_head_joint,9.81999999999988,-0.00016359447866687304
mouse_head_joint,9.839999999999879,-0.00016322616172637083
mouse_head_joint,9.859999999999879,-0.00016299516213091891
mouse_head_joint,9.879999999999878,-0.00016284599705951308
mouse_head_joint,9.899999999999878,-0.00016258003219604689
mouse_head_joint,9.919999999999877,-0.00016232457103537712
mouse_head_joint,9.939999999999877,-0.00016198902634734225
mouse_head_joint,9.959999999999877,-0.00016175783597738302
mouse_head_joint,9.979999999999876,-0.0001615230257216993
mouse_head_joint,9.999999999999876,-0.00016129179000223814
mouse_head_joint,10.019999999999875,-0.00016116501932561533
mouse_head_joint,10.039999999999875,-0.0001609337367929342
mouse_head_joint,10.059999999999874,-0.00016059551516445225
mouse_head_joint,10.079999999999874,-0.00016046744987985306
mouse_head_joint,10.099999999999874,-0.00016031428972684836
mouse_head_joint,10.119999999999873,-0.000159785905979426
mouse_head_joint,10.139999999999873,-0.0001596531528988976
mouse_head_joint,10.159999999999872,-0.0001594905787110079
mouse_head_joint,10.179999999999872,-0.0001591458591452266
mouse_head_joint,10.199999999999871,-0.00015897003511167185
mouse_head_joint,10.219999999999871,-0.0001587388362196407
mouse_head_joint,10.23999999999987,-0.00015845228706279357
mouse_head_joint,10.25999999999987,-0.00015818650201637752
mouse_head_joint,10.27999999999987,-0.0001578373268085187
mouse_head_joint,10.29999999999987,-0.00015772442364614392
mouse_head_joint,10.319999999999869,-0.00015737539942328738
mouse_head_joint,10.339999999999868,-0.0001571345554225445
mouse_head_joint,10.359999999999868,-0.00015690374460408663
mouse_head_joint,10.379999999999868,-0.00015666952014203872
mouse_head_joint,10.399999999999867,-0.0001565429715890687
mouse_head_joint,10.419999999999867,-0.00015620583641329233
mouse_head_joint,10.439999999999866,-0.0001559753214781523
mouse_head_joint,10.459999999999866,-0.0001556290191739862
mouse_head_joint,10.479999999999865,-0.00015569494436373787
mouse_head_joint,10.499999999999865,-0.00015516841007823245
mouse_head_joint,10.519999999999865,-0.0001551052974475553
mouse_head_joint,10.539999999999864,-0.00015480674121626237
mouse_head_joint,10.559999999999864,-0.0001545868805052919
mouse_head_joint,10.579999999999863,-0.00015428819003648897
mouse_head_joint,10.599999999999863,-0.00015412721344709723
mouse_head_joint,10.619999999999862,-0.00015376105286435404
mouse_head_joint,10.639999999999862,-0.00015346099695090487
mouse_head_joint,10.659999999999862,-0.00015334916002984755
mouse_head_joint,10.679999999999861,-0.00015300237873017153
mouse_head_joint,10.69999999999986,-0.00015287402999053512
mouse_head_joint,10.71999999999986,-0.00015264502410872183
mouse_head_joint,10.73999999999986,-0.00015230579480451922
mouse_head_joint,10.75999999999986,-0.00015218080427903402
mouse_head_joint,10.779999999999859,-0.00015194915953387067
mouse_head_joint,10.799999999999859,-0.00015161474610803083
mouse_head_joint,10.819999999999858,-0.0001514890313902839
mouse_head_joint,10.839999999999858,-0.0001513380392390573
mouse_head_joint,10.859999999999857,-0.00015111005103474184
mouse_head_joint,10.879999999999857,-0.00015068572825338578
mouse_head_joint,10.899999999999856,-0.00015035941122931717
mouse_head_joint,10.919999999999856,-0.00015017205914436005
mouse_head_joint,10.939999999999856,-0.00014994478398921984
mouse_head_joint,10.959999999999855,-0.00014971767689253568
mouse_head_joint,10.979999999999855,-0.0001493772526126591
mouse_head_joint,10.999999999999854,-0.00014924379741731997
mouse_head_joint,11.019999999999854,-0.00014892398605326207
mouse_head_joint,11.039999999999853,-0.00014867401951956793
mouse_head_joint,11.059999999999853,-0.0001484478687974189
mouse_head_joint,11.079999999999853,-0.000148322506011489
mouse_head_joint,11.099999999999852,-0.00014798417565042854
mouse_head_joint,11.119999999999852,-0.00014786495458629645
mouse_head_joint,11.139999999999851,-0.00014753330848726876
mouse_head_joint,11.159999999999851,-0.000147411739547465
mouse_head_joint,11.17999999999985,-0.00014718369756305805
mouse_head_joint,11.19999999999985,-0.00014695897324745744
mouse_head_joint,11.21999999999985,-0.00014673445552659814
mouse_head_joint,11.23999999999985,-0.00014658679263135355
mouse_head_joint,11.259999999999849,-0.00014616758791152762
mouse_head_joint,11.279999999999848,-0.0001459437593727131
mouse_head_joint,11.299999999999848,-0.00014578838926304627
mouse_head_joint,11.319999999999848,-0.00014543838023950428
mouse_head_joint,11.339999999999847,-0.00014528327756835324
mouse_head_joint,11.359999999999847,-0.00014506033127936746
mouse_head_joint,11.379999999999846,-0.00014478336980960904
mouse_head_joint,11.399999999999846,-0.00014443465300306713
mouse_head_joint,11.419999999999845,-0.0001442124667319078
mouse_head_joint,11.439999999999845,-0.00014396760789381347
mouse_head_joint,11.459999999999845,-0.00014384072847306584
mouse_head_joint,11.479999999999844,-0.00014361931712603138
mouse_head_joint,11.499999999999844,-0.00014339814882013968
mouse_head_joint,11.519999999999843,-0.00014317502786198588
mouse_head_joint,11.539999999999843,-0.00014295438003486538
mouse_head_joint,11.559999999999842,-0.00014273134516074037
mouse_head_joint,11.579999999999842,-0.00014251122504393976
mouse_head_joint,11.599999999999842,-0.00014229135960519557
mouse_head_joint,11.619999999999841,-0.00014214796854261635
mouse_head_joint,11.63999999999984,-0.0001416359627661734
mouse_head_joint,11.65999999999984,-0.00014151608802315252
mouse_head_joint,11.67999999999984,-0.00014129732703693776
mouse_head_joint,11.69999999999984,-0.00014114700490885923
mouse_head_joint,11.719999999999839,-0.00014080256183568451
mouse_head_joint,11.739999999999839,-0.0001405177682798353
mouse_head_joint,11.759999999999838,-0.00014030012314858453
mouse_head_joint,11.779999999999838,-0.000140131330656601
mouse_head_joint,11.799999999999837,-0.00013982118240196684
mouse_head_joint,11.819999999999837,-0.00013968265031749638
mouse_head_joint,11.839999999999836,-0.0001394661905465
mouse_head_joint,11.859999999999836,-0.0001391418312577386
mouse_head_joint,11.879999999999836,-0.00013902917274410953
mouse_head_joint,11.899999999999835,-0.0001388136014872643
mouse_head_joint,11.919999999999835,-0.0001385967461953186
mouse_head_joint,11.939999999999834,-0.0001382778668208573
mouse_head_joint,11.959999999999834,-0.0001381650571312676
mouse_head_joint,11.979999999999833,-0.00013795071171607276
mouse_head_joint,11.999999999999833,-0.00013768517607903874
mouse_head_joint,12.019999999999833,-0.0001373075320705297
mouse_head_joint,12.039999999999832,-0.00013719359870467684
mouse_head_joint,12.059999999999832,-0.00013698051906541053
mouse_head_joint,12.079999999999831,-0.00013677751023788431
mouse_head_joint,12.099999999999831,-0.00013656504452708162
mouse_head_joint,12.11999999999983,-0.00013629994518726818
mouse_head_joint,12.13999999999983,-0.0001360881314589335
mouse_head_joint,12.15999999999983,-0.00013575210803828952
mouse_head_joint,12.17999999999983,-0.00013563401794147723
mouse_head_joint,12.199999999999829,-0.00013530885416468408
mouse_head_joint,12.219999999999828,-0.00013509838072423008
mouse_head_joint,12.239999999999828,-0.000134984289374529
mouse_head_joint,12.259999999999827,-0.00013477448619791943
mouse_head_joint,12.279999999999827,-0.00013456500249020564
mouse_head_joint,12.299999999999827,-0.0001342519375153728
mouse_head_joint,12.319999999999826,-0.00013422014216679656
mouse_head_joint,12.339999999999826,-0.00013393622358393031
mouse_head_joint,12.359999999999825,-0.0001337281009199387
mouse_head_joint,12.379999999999825,-0.00013346886736176344
mouse_head_joint,12.399999999999824,-0.00013319841607817295
mouse_head_joint,12.419999999999824,-0.0001329340886080388
mouse_head_joint,12.439999999999824,-0.00013285274037677652
mouse_head_joint,12.459999999999823,-0.00013264634425969035
mouse_head_joint,12.479999999999823,-0.00013238211018773427
mouse_head_joint,12.499999999999822,-0.00013200057299300738
mouse_head_joint,12.519999999999822,-0.0001317952824289037
mouse_head_joint,12.539999999999822,-0.0001315903299117238
mouse_head_joint,12.559999999999821,-0.00013138571667070664
mouse_head_joint,12.57999999999982,-0.0001311548673443852
mouse_head_joint,12.59999999999982,-0.0001309572196639408
mouse_head_joint,12.61999999999982,-0.00013074753396846717
mouse_head_joint,12.63999999999982,-0.00013064735127699123
mouse_head_joint,12.659999999999819,-0.00013044454108346315
mouse_head_joint,12.679999999999819,-0.00013013906078018778
mouse_head_joint,12.699999999999818,-0.00013003983942461161
mouse_head_joint,12.719999999999818,-0.0001298373617641957
mouse_head_joint,12.739999999999817,-0.00012971105892667367
mouse_head_joint,12.759999999999817,-0.00012951004749783834
mouse_head_joint,12.779999999999816,-0.00012918304128373137
mouse_head_joint,12.799999999999816,-0.0001289213911412901
mouse_head_joint,12.819999999999816,-0.00012866478933215575
mouse_head_joint,12.839999999999815,-0.00012859014961641435
mouse_head_joint,12.859999999999815,-0.00012833306988646598
mouse_head_joint,12.879999999999814,-0.00012800224220210765
mouse_head_joint,12.899999999999814,-0.00012785504793910718
mouse_head_joint,12.919999999999813,-0.00012756404860247983
mouse_head_joint,12.939999999999813,-0.00012736645517996692
mouse_head_joint,12.959999999999813,-0.00012726226984050015
mouse_head_joint,12.979999999999812,-0.0001269530533702934
mouse_head_joint,12.999999999999812,-0.0001268568207191123
mouse_head_joint,13.019999999999811,-0.00012665820323665145
mouse_head_joint,13.03999999999981,-0.0001264631038990771
mouse_head_joint,13.05999999999981,-0.0001262678272277995
mouse_head_joint,13.07999999999981,-0.0001260729175980302
mouse_head_joint,13.09999999999981,-0.00012577706639138597
mouse_head_joint,13.11999999999981,-0.00012547248329131122
mouse_head_joint,13.139999999999809,-0.00012556508622107998
mouse_head_joint,13.159999999999808,-0.00012524582783957072
mouse_head_joint,13.179999999999808,-0.00012487208405076444
mouse_head_joint,13.199999999999807,-0.0001247442533953702
mouse_head_joint,13.219999999999807,-0.00012455208805750573
mouse_head_joint,13.239999999999807,-0.00012429568670757618
mouse_head_joint,13.259999999999806,-0.00012410430173925846
mouse_head_joint,13.279999999999806,-0.00012391329170302612
mouse_head_joint,13.299999999999805,-0.00012368183378708153
mouse_head_joint,13.319999999999805,-0.00012347325694594957
mouse_head_joint,13.339999999999804,-0.0001232834795237281
mouse_head_joint,13.359999999999804,-0.0001230940798198077
mouse_head_joint,13.379999999999804,-0.0001230035854868916
mouse_head_joint,13.399999999999803,-0.00012281498774147082
mouse_head_joint,13.419999999999803,-0.00012262676962571106
mouse_head_joint,13.439999999999802,-0.00012244037509745453
mouse_head_joint,13.459999999999802,-0.0001222529597093569
mouse_head_joint,13.479999999999801,-0.00012196554111998381
mouse_head_joint,13.499999999999801,-0.00012195431600670048
mouse_head_joint,13.5199999999998,-0.0001217680657275011
mouse_head_joint,13.5399999999998,-0.00012129776443892126
mouse_head_joint,13.5599999999998,-0.00012128140900102835
mouse_head_joint,13.5799999999998,-0.00012097264665644758
mouse_head_joint,13.599999999999799,-0.00012091181553408603
mouse_head_joint,13.619999999999798,-0.00012060387897161462
mouse_head_joint,13.639999999999798,-0.00012048637198436296
mouse_head_joint,13.659999999999798,-0.0001201727788391338
mouse_head_joint,13.679999999999797,-0.00011994999360886993
mouse_head_joint,13.699999999999797,-0.00011976743435049286
mouse_head_joint,13.719999999999796,-0.00011966818757169762
mouse_head_joint,13.739999999999796,-0.0001193862816508684
mouse_head_joint,13.759999999999796,-0.0001192016620787939
mouse_head_joint,13.779999999999795,-0.00011912346652920291
mouse_head_joint,13.799999999999795,-0.00011894294899850166
mouse_head_joint,13.819999999999794,-0.00011876510882924407
mouse_head_joint,13.839999999999794,-0.00011848592814533987
mouse_head_joint,13.859999999999793,-0.00011840763506310026
mouse_head_joint,13.879999999999793,-0.000118228760351613
mouse_head_joint,13.899999999999793,-0.00011784141823767413
mouse_head_joint,13.919999999999792,-0.0001178212274997037
mouse_head_joint,13.939999999999792,-0.00011758712906484448
mouse_head_joint,13.959999999999791,-0.0001174779978505569
mouse_head_joint,13.97999999999979,-0.000117177993685047
mouse_head_joint,13.99999999999979,-0.00011706762856622532
mouse_head_joint,14.01999999999979,-0.00011676235700175397
mouse_head_joint,14.03999999999979,-0.0001166674509933685
mouse_head_joint,14.059999999999789,-0.0001164659558092751
mouse_head_joint,14.079999999999789,-0.00011628205331781771
mouse_head_joint,14.099999999999788,-0.00011611686717039049
mouse_head_joint,14.119999999999788,-0.00011593385774766318
mouse_head_joint,14.139999999999787,-0.00011576035124249984
mouse_head_joint,14.159999999999787,-0.00011558749208351315
mouse_head_joint,14.179999999999787,-0.00011541792666314166
mouse_head_joint,14.199999999999786,-0.00011514338010165659
mouse_head_joint,14.219999999999786,-0.00011497533526227954
mouse_head_joint,14.239999999999785,-0.00011490474141950813
mouse_head_joint,14.259999999999785,-0.00011468322693541921
mouse_head_joint,14.279999999999784,-0.00011446500143286187
mouse_head_joint,14.299999999999784,-0.0001142352083665088
mouse_head_joint,14.319999999999784,-0.00011414527165154453
mouse_head_joint,14.339999999999783,-0.00011392081524519426
mouse_head_joint,14.359999999999783,-0.00011374919674445039
mouse_head_joint,14.379999999999782,-0.00011368408293144228
mouse_head_joint,14.399999999999782,-0.00011339792508202606
mouse_head_joint,14.419999999999781,-0.00011319560480060886
mouse_head_joint,14.439999999999781,-0.00011295769763375318
mouse_head_joint,14.45999999999978,-0.00011287800045245433
mouse_head_joint,14.47999999999978,-0.00011259877090274983
mouse_head_joint,14.49999999999978,-0.0001124397867435789
mouse_head_joint,14.51999999999978,-0.00011247414104786913
mouse_head_joint,14.539999999999779,-0.00011214063793474338
mouse_head_joint,14.559999999999778,-0.00011205383469903296
mouse_head_joint,14.579999999999778,-0.00011182063921388874
mouse_head_joint,14.599999999999778,-0.00011154901783250182
mouse_head_joint,14.619999999999777,-0.00011150636793910707
mouse_head_joint,14.639999999999777,-0.00011142482296566669
mouse_head_joint,14.659999999999776,-0.00011111176776612552
mouse_head_joint,14.679999999999776,-0.00011100907994521236
mouse_head_joint,14.699999999999775,-0.00011070077742303397
mouse_head_joint,14.719999999999775,-0.00011053695996920965
mouse_head_joint,14.739999999999775,-0.00011037321245499498
mouse_head_joint,14.759999999999774,-0.0001103379232905155
mouse_head_joint,14.779999999999774,-0.00011013283533589657
mouse_head_joint,14.799999999999773,-0.00010988903857267474
mouse_head_joint,14.819999999999773,-0.00010981267532450545
mouse_head_joint,14.839999999999772,-0.00010952429131627639
mouse_head_joint,14.859999999999772,-0.00010938065745058623
mouse_head_joint,14.879999999999772,-0.00010932673594776787
mouse_head_joint,14.899999999999771,-0.00010913786101518497
mouse_head_joint,14.91999999999977,-0.00010899484157445016
mouse_head_joint,14.93999999999977,-0.00010868656293805401
mouse_head_joint,14.95999999999977,-0.00010856017107840898
mouse_head_joint,14.97999999999977,-0.0001084868174991982
mouse_head_joint,14.999999999999769,-0.0001082513879708813
mouse_head_joint,15.019999999999769,-0.000108269685998863
mouse_head_joint,15.039999999999768,-0.0001079035237987469
mouse_head_joint,15.059999999999768,-0.00010775478083768775
mouse_head_joint,15.079999999999767,-0.00010764488828574059
mouse_head_joint,15.099999999999767,-0.00010743136024693456
mouse_head_joint,15.119999999999767,-0.00010736949556111597
mouse_head_joint,15.139999999999766,-0.0001071900764841871
mouse_head_joint,15.159999999999766,-0.00010693414447082716
mouse_head_joint,15.179999999999765,-0.00010674292923606998
mouse_head_joint,15.199999999999765,-0.00010669914228422783
mouse_head_joint,15.219999999999764,-0.00010654291563749752
mouse_head_joint,15.239999999999764,-0.00010645022797906023
mouse_head_joint,15.259999999999764,-0.0001062465104011423
mouse_head_joint,15.279999999999763,-0.00010600695876394894
mouse_head_joint,15.299999999999763,-0.00010581341657278642
mouse_head_joint,15.319999999999762,-0.00010573205770736394
mouse_head_joint,15.339999999999762,-0.0001055521715311869
mouse_head_joint,15.359999999999761,-0.00010549956077987588
mouse_head_joint,15.379999999999761,-0.00010533365768861103
mouse_head_joint,15.39999999999976,-0.00010502192133543531
mouse_head_joint,15.41999999999976,-0.00010496648219948668
mouse_head_joint,15.43999999999976,-0.00010485249152836218
mouse_head_joint,15.45999999999976,-0.0001046063277465592
mouse_head_joint,15.479999999999759,-0.0001045414061691119
mouse_head_joint,15.499999999999758,-0.00010436869988872388
mouse_head_joint,15.519999999999758,-0.00010417724860634081
mouse_head_joint,15.539999999999758,-0.00010398277304979331
mouse_head_joint,15.559999999999757,-0.00010392869873232513
mouse_head_joint,15.579999999999757,-0.00010361999472863204
mouse_head_joint,15.599999999999756,-0.00010358318190739624
mouse_head_joint,15.619999999999756,-0.00010353181206479434
mouse_head_joint,15.639999999999755,-0.00010332620113562285
mouse_head_joint,15.659999999999755,-0.00010316766138807054
mouse_head_joint,15.679999999999755,-0.00010295417314942767
mouse_head_joint,15.699999999999754,-0.0001029921972541814
mouse_head_joint,15.719999999999754,-0.00010271340195711076
mouse_head_joint,15.739999999999753,-0.0001025320449370426
mouse_head_joint,15.759999999999753,-0.00010243816106569881
mouse_head_joint,15.779999999999752,-0.0001022027417283411
mouse_head_joint,15.799999999999752,-0.00010207193785838342
mouse_head_joint,15.819999999999752,-0.00010201694876510459
mouse_head_joint,15.839999999999751,-0.00010186144437351885
mouse_head_joint,15.85999999999975,-0.00010174218284753067
mouse_head_joint,15.87999999999975,-0.0001014722547498792
mouse_head_joint,15.89999999999975,-0.0001013376815581779
mouse_head_joint,15.91999999999975,-0.0001013360228609983
mouse_head_joint,15.939999999999749,-0.00010100150991831924
mouse_head_joint,15.959999999999749,-0.0001009498803199449
mouse_head_joint,15.979999999999748,-0.00010074148294769714
mouse_head_joint,15.999999999999748,-0.00010060690404056771
mouse_head_joint,16.019999999999747,-0.00010060941210898733
mouse_head_joint,16.039999999999747,-0.00010047790716427585
mouse_head_joint,16.059999999999746,-0.00010035094003768563
mouse_head_joint,16.079999999999746,-0.00010005594132955764
mouse_head_joint,16.099999999999746,-0.00010001324556885294
mouse_head_joint,16.119999999999745,-9.979879581134554e-05
mouse_head_joint,16.139999999999745,-9.976221533669616e-05
mouse_head_joint,16.159999999999744,-9.974201479412415e-05
mouse_head_joint,16.179999999999744,-9.946803550064942e-05
mouse_head_joint,16.199999999999743,-9.935386391379808e-05
mouse_head_joint,16.219999999999743,-9.909970391408507e-05
mouse_head_joint,16.239999999999743,-9.896377500417941e-05
mouse_head_joint,16.259999999999742,-9.897604956066175e-05
mouse_head_joint,16.279999999999742,-9.864918871294037e-05
mouse_head_joint,16.29999999999974,-9.871824851437339e-05
mouse_head_joint,16.31999999999974,-9.851751862033353e-05
mouse_head_joint,16.33999999999974,-9.827754285396395e-05
mouse_head_joint,16.35999999999974,-9.828485300467094e-05
mouse_head_joint,16.37999999999974,-9.823341589054735e-05
mouse_head_joint,16.39999999999974,-9.797212666473598e-05
mouse_head_joint,16.41999999999974,-9.779866751102873e-05
mouse_head_joint,16.43999999999974,-9.760712922890491e-05
mouse_head_joint,16.459999999999738,-9.751062505625185e-05
mouse_head_joint,16.479999999999738,-9.748891274252713e-05
mouse_head_joint,16.499999999999737,-9.746573176361295e-05
mouse_head_joint,16.519999999999737,-9.724302300551102e-05
mouse_head_joint,16.539999999999736,-9.70942830349486e-05
mouse_head_joint,16.559999999999736,-9.684588552172357e-05
mouse_head_joint,16.579999999999735,-9.681289705465446e-05
mouse_head_joint,16.599999999999735,-9.680676069212524e-05
mouse_head_joint,16.619999999999735,-9.641762722800706e-05
mouse_head_joint,16.639999999999734,-9.649439960934814e-05
mouse_head_joint,16.659999999999734,-9.629877467887127e-05
mouse_head_joint,16.679999999999733,-9.606339761170091e-05
mouse_head_joint,16.699999999999733,-9.598954597223042e-05
mouse_head_joint,16.719999999999732,-9.59167402747596e-05
mouse_head_joint,16.739999999999732,-9.578360672524155e-05
mouse_head_joint,16.75999999999973,-9.557216745648134e-05
mouse_head_joint,16.77999999999973,-9.55237080058069e-05
mouse_head_joint,16.79999999999973,-9.543641103526568e-05
mouse_head_joint,16.81999999999973,-9.52274492176386e-05
mouse_head_joint,16.83999999999973,-9.519067317143026e-05
mouse_head_joint,16.85999999999973,-9.503214013140138e-05
mouse_head_joint,16.87999999999973,-9.495201523712637e-05
mouse_head_joint,16.89999999999973,-9.480673494444147e-05
mouse_head_joint,16.919999999999728,-9.468569345294497e-05
mouse_head_joint,16.939999999999728,-9.451831045304004e-05
mouse_head_joint,16.959999999999727,-9.444946806080878e-05
mouse_head_joint,16.979999999999727,-9.42698393187058e-05
mouse_head_joint,16.999999999999726,-9.411465380182449e-05
mouse_head_joint,17.019999999999726,-9.397137528743826e-05
mouse_head_joint,17.039999999999726,-9.399594823555901e-05
mouse_head_joint,17.059999999999725,-9.39568176017147e-05
mouse_head_joint,17.079999999999725,-9.372290422593466e-05
mouse_head_joint,17.099999999999724,-9.361998491019818e-05
mouse_head_joint,17.119999999999724,-9.337329581882159e-05
mouse_head_joint,17.139999999999723,-9.329253596579434e-05
mouse_head_joint,17.159999999999723,-9.328343282977158e-05
mouse_head_joint,17.179999999999723,-9.32713129140339e-05
mouse_head_joint,17.199999999999722,-9.306321159829878e-05
mouse_head_joint,17.21999999999972,-9.292639233571265e-05
mouse_head_joint,17.23999999999972,-9.269390451382975e-05
mouse_head_joint,17.25999999999972,-9.26741117721619e-05
mouse_head_joint,17.27999999999972,-9.251396987419724e-05
mouse_head_joint,17.29999999999972,-9.245072570784885e-05
mouse_head_joint,17.31999999999972,-9.227861812544091e-05
mouse_head_joint,17.33999999999972,-9.212954999604506e-05
mouse_head_joint,17.35999999999972,-9.199385559721662e-05
mouse_head_joint,17.37999999999972,-9.192461375828742e-05
mouse_head_joint,17.399999999999718,-9.191977745537372e-05
mouse_head_joint,17.419999999999717,-9.164929580940395e-05
mouse_head_joint,17.439999999999717,-9.159776628742122e-05
mouse_head_joint,17.459999999999717,-9.142848484522403e-05
mouse_head_joint,17.479999999999716,-9.14464181915875e-05
mouse_head_joint,17.499999999999716,-9.12520715381504e-05
mouse_head_joint,17.519999999999715,-9.1345092686268e-05
mouse_head_joint,17.539999999999715,-9.1144120754727e-05
mouse_head_joint,17.559999999999715,-9.101302226977026e-05
mouse_head_joint,17.579999999999714,-9.088250908462214e-05
mouse_head_joint,17.599999999999714,-9.077447080496626e-05
mouse_head_joint,17.619999999999713,-9.062153110495075e-05
mouse_head_joint,17.639999999999713,-9.05636273831334e-05
mouse_head_joint,17.659999999999712,-9.051462193010451e-05
mouse_head_joint,17.679999999999712,-9.03397162161923e-05
mouse_head_joint,17.69999999999971,-9.022472155439942e-05
mouse_head_joint,17.71999999999971,-9.016416417662043e-05
mouse_head_joint,17.73999999999971,-9.0065312363663e-05
mouse_head_joint,17.75999999999971,-8.980141435444011e-05
mouse_head_joint,17.77999999999971,-8.982537496216025e-05
mouse_head_joint,17.79999999999971,-8.970022669529953e-05
mouse_head_joint,17.81999999999971,-8.961759837067262e-05
mouse_head_joint,17.83999999999971,-8.943020558227488e-05
mouse_head_joint,17.859999999999708,-8.952791251282122e-05
mouse_head_joint,17.879999999999708,-8.927225991595122e-05
mouse_head_joint,17.899999999999707,-8.909107057508692e-05
mouse_head_joint,17.919999999999707,-8.899041339560654e-05
mouse_head_joint,17.939999999999706,-8.889223090324805e-05
mouse_head_joint,17.959999999999706,-8.89353985629171e-05
mouse_head_joint,17.979999999999706,-8.87842513570547e-05
mouse_head_joint,17.999999999999705,-8.874156729365978e-05
mouse_head_joint,18.019999999999705,-8.8572939752396e-05
mouse_head_joint,18.039999999999704,-8.836758576347137e-05
mouse_head_joint,18.059999999999704,-8.831070841797128e-05
mouse_head_joint,18.079999999999703,-8.831743127224456e-05
mouse_head_joint,18.099999999999703,-8.816515535858827e-05
mouse_head_joint,18.119999999999703,-8.801994858576023e-05
mouse_head_joint,18.139999999999702,-8.78643156196901e-05
mouse_head_joint,18.1599999999997,-8.77953535738385e-05
mouse_head_joint,18.1799999999997,-8.771376246219376e-05
mouse_head_joint,18.1999999999997,-8.769787612639135e-05
mouse_head_joint,18.2199999999997,-8.758849649392886e-05
mouse_head_joint,18.2399999999997,-8.736563881406312e-05
mouse_head_joint,18.2599999999997,-8.739184646078257e-05
mouse_head_joint,18.2799999999997,-8.72959281741359e-05
mouse_head_joint,18.2999999999997,-8.72547159467274e-05
mouse_head_joint,18.3199999999997,-8.710873257022911e-05
mouse_head_joint,18.339999999999698,-8.695707669659214e-05
mouse_head_joint,18.359999999999697,-8.69095267352904e-05
mouse_head_joint,18.379999999999697,-8.67110951725536e-05
mouse_head_joint,18.399999999999697,-8.666005424995404e-05
mouse_head_joint,18.419999999999696,-8.674271221309482e-05
mouse_head_joint,18.439999999999696,-8.652634756423083e-05
mouse_head_joint,18.459999999999695,-8.643006565733913e-05
mouse_head_joint,18.479999999999695,-8.623713906175112e-05
mouse_head_joint,18.499999999999694,-8.627299045205206e-05
mouse_head_joint,18.519999999999694,-8.618566252938109e-05
mouse_head_joint,18.539999999999694,-8.59485333810639e-05
mouse_head_joint,18.559999999999693,-8.596364272595025e-05
mouse_head_joint,18.579999999999693,-8.57938423308724e-05
mouse_head_joint,18.599999999999692,-8.579932750762964e-05
mouse_head_joint,18.619999999999692,-8.57201193067425e-05
mouse_head_joint,18.63999999999969,-8.557614768722743e-05
mouse_head_joint,18.65999999999969,-8.539486545533492e-05
mouse_head_joint,18.67999999999969,-8.538774576205554e-05
mouse_head_joint,18.69999999999969,-8.524624082006937e-05
mouse_head_joint,18.71999999999969,-8.52484959086297e-05
mouse_head_joint,18.73999999999969,-8.510828598584652e-05
mouse_head_joint,18.75999999999969,-8.507924586709237e-05
mouse_head_joint,18.77999999999969,-8.498595409367482e-05
mouse_head_joint,18.799999999999688,-8.481123128678547e-05
mouse_head_joint,18.819999999999688,-8.481183987019136e-05
mouse_head_joint,18.839999999999687,-8.465042829186586e-05
mouse_head_joint,18.859999999999687,-8.4633934992695e-05
mouse_head_joint,18.879999999999686,-8.45746614723808e-05
mouse_head_joint,18.899999999999686,-8.445684471602988e-05
mouse_head_joint,18.919999999999686,-8.43712937435015e-05
mouse_head_joint,18.939999999999685,-8.42117949035881e-05
mouse_head_joint,18.959999999999685,-8.421863114183026e-05
mouse_head_joint,18.979999999999684,-8.409179811152967e-05
mouse_head_joint,18.999999999999684,-8.405324505389444e-05
mouse_head_joint,19.019999999999683,-8.402803300988637e-05
mouse_head_joint,19.039999999999683,-8.3872751212688e-05
mouse_head_joint,19.059999999999683,-8.369145054576421e-05
mouse_head_joint,19.079999999999682,-8.375054188647368e-05
mouse_head_joint,19.09999999999968,-8.374348394291076e-05
mouse_head_joint,19.11999999999968,-8.34339982072052e-05
mouse_head_joint,19.13999999999968,-8.337046403639192e-05
mouse_head_joint,19.15999999999968,-8.337561458304776e-05
mouse_head_joint,19.17999999999968,-8.322048573550234e-05
mouse_head_joint,19.19999999999968,-8.325605133752134e-05
mouse_head_joint,19.21999999999968,-8.315488002708094e-05
mouse_head_joint,19.23999999999968,-8.304300170003387e-05
mouse_head_joint,19.25999999999968,-8.288364697328632e-05
mouse_head_joint,19.279999999999678,-8.280562009144177e-05
mouse_head_joint,19.299999999999677,-8.283264907493759e-05
mouse_head_joint,19.319999999999677,-8.279694464796705e-05
mouse_head_joint,19.339999999999677,-8.252920692530807e-05
mouse_head_joint,19.359999999999676,-8.253175683581304e-05
mouse_head_joint,19.379999999999676,-8.24994205217422e-05
mouse_head_joint,19.399999999999675,-8.241326397051552e-05
mouse_head_joint,19.419999999999675,-8.238424967821345e-05
mouse_head_joint,19.439999999999674,-8.213040868998434e-05
mouse_head_joint,19.459999999999674,-8.207809229432428e-05
mouse_head_joint,19.479999999999674,-8.201978600030913e-05
mouse_head_joint,19.499999999999673,-8.201879405866919e-05
mouse_head_joint,19.519999999999673,-8.189253337764768e-05
mouse_head_joint,19.539999999999672,-8.182247962462696e-05
mouse_head_joint,19.559999999999672,-8.194078122780724e-05
mouse_head_joint,19.57999999999967,-8.173802929878349e-05
mouse_head_joint,19.59999999999967,-8.156358678057529e-05
mouse_head_joint,19.61999999999967,-8.149063240558974e-05
mouse_head_joint,19.63999999999967,-8.142366668550949e-05
mouse_head_joint,19.65999999999967,-8.139504217208327e-05
mouse_head_joint,19.67999999999967,-8.122997024440082e-05
mouse_head_joint,19.69999999999967,-8.135013801968682e-05
mouse_head_joint,19.71999999999967,-8.120930126054304e-05
mouse_head_joint,19.739999999999668,-8.103597889785874e-05
mouse_head_joint,19.759999999999668,-8.100592809423546e-05
mouse_head_joint,19.779999999999667,-8.09641193537658e-05
mouse_head_joint,19.799999999999667,-8.091484809824578e-05
mouse_head_joint,19.819999999999666,-8.079337780930729e-05
mouse_head_joint,19.839999999999666,-8.07688019284214e-05
mouse_head_joint,19.859999999999665,-8.062544266795868e-05
mouse_head_joint,19.879999999999665,-8.065693044034816e-05
mouse_head_joint,19.899999999999665,-8.057878545830732e-05
mouse_head_joint,19.919999999999664,-8.053737728985766e-05
mouse_head_joint,19.939999999999664,-8.040680670351463e-05
mouse_head_joint,19.959999999999663,-8.035410098550244e-05
mouse_head_joint,19.979999999999663,-8.0214341831919e-05
mouse_head_joint,19.999999999999662,-8.027165450386065e-05
mouse_head_joint,20.019999999999662,-8.014837233982774e-05
mouse_head_joint,20.03999999999966,-8.008559482775013e-05
mouse_head_joint,20.05999999999966,-7.991901847148597e-05
mouse_head_joint,20.07999999999966,-7.992621263408495e-05
mouse_head_joint,20.09999999999966,-7.99079999262986e-05
mouse_head_joint,20.11999999999966,-7.979914866496074e-05
mouse_head_joint,20.13999999999966,-7.972776744491483e-05
mouse_head_joint,20.15999999999966,-7.957264310576306e-05
mouse_head_joint,20.17999999999966,-7.959021129888555e-05
mouse_head_joint,20.19999999999966,-7.94523414864301e-05
mouse_head_joint,20.219999999999658,-7.940510635506826e-05
mouse_head_joint,20.239999999999657,-7.953029307472548e-05
mouse_head_joint,20.259999999999657,-7.931893371004861e-05
mouse_head_joint,20.279999999999657,-7.915172955463845e-05
mouse_head_joint,20.299999999999656,-7.920392802240883e-05
mouse_head_joint,20.319999999999656,-7.915291588034279e-05
mouse_head_joint,20.339999999999655,-7.913098120138073e-05
mouse_head_joint,20.359999999999655,-7.898639692527354e-05
mouse_head_joint,20.379999999999654,-7.900632952040354e-05
mouse_head_joint,20.399999999999654,-7.887492879898872e-05
mouse_head_joint,20.419999999999654,-7.880330578746708e-05
