Name,time,Position
mouse_head_joint,0.0,0.0
mouse_head_joint,0.02,0.0
mouse_head_joint,0.04,0.0
mouse_head_joint,0.06,0.0
mouse_head_joint,0.08,0.0
mouse_head_joint,0.1,0.0
mouse_head_joint,0.12000000000000001,0.0
mouse_head_joint,0.14,0.0
mouse_head_joint,0.16,0.0
mouse_head_joint,0.18,0.0
mouse_head_joint,0.19999999999999998,0.0
mouse_head_joint,0.21999999999999997,-0.001882434036820868
mouse_head_joint,0.23999999999999996,-0.00022180075501321284
mouse_head_joint,0.25999999999999995,2.7684641790592934e-05
mouse_head_joint,0.27999999999999997,7.099926217613017e-06
mouse_head_joint,0.3,6.495466912781467e-06
mouse_head_joint,0.32,-6.901645672741097e-06
mouse_head_joint,0.34,-7.425495728519138e-06
mouse_head_joint,0.36000000000000004,-8.531858064486642e-06
mouse_head_joint,0.38000000000000006,-9.757387898545744e-06
mouse_head_joint,0.4000000000000001,-1.1259087242976307e-05
mouse_head_joint,0.4200000000000001,-1.2729474419437281e-05
mouse_head_joint,0.4400000000000001,-1.4233680885489264e-05
mouse_head_joint,0.46000000000000013,-1.580810959644907e-05
mouse_head_joint,0.48000000000000015,-1.7528585315673695e-05
mouse_head_joint,0.5000000000000001,-1.9375649544350892e-05
mouse_head_joint,0.5200000000000001,-2.1040204377875682e-05
mouse_head_joint,0.5400000000000001,-2.291601324522219e-05
mouse_head_joint,0.5600000000000002,-2.4728116025052316e-05
mouse_head_joint,0.5800000000000002,-2.6420931687809457e-05
mouse_head_joint,0.6000000000000002,-2.8187979240534844e-05
mouse_head_joint,0.6200000000000002,-2.9882257669200385e-05
mouse_head_joint,0.6400000000000002,-3.158938401259803e-05
mouse_head_joint,0.6600000000000003,-3.34666350649826e-05
mouse_head_joint,0.6800000000000003,-3.537321641733371e-05
mouse_head_joint,0.7000000000000003,-3.702622420842516e-05
mouse_head_joint,0.7200000000000003,-3.868407713270017e-05
mouse_head_joint,0.7400000000000003,-4.048848855742193e-05
mouse_head_joint,0.7600000000000003,-4.212652774793213e-05
mouse_head_joint,0.7800000000000004,-4.377006868683253e-05
mouse_head_joint,0.8000000000000004,-4.555284374863078e-05
mouse_head_joint,0.8200000000000004,-4.734909409886967e-05
mouse_head_joint,0.8400000000000004,-4.894363781282607e-05
mouse_head_joint,0.8600000000000004,-5.0736191932188035e-05
mouse_head_joint,0.8800000000000004,-5.247691697807255e-05
mouse_head_joint,0.9000000000000005,-5.4051114894093644e-05
mouse_head_joint,0.9200000000000005,-5.5768294186187006e-05
mouse_head_joint,0.9400000000000005,-5.713670466356291e-05
mouse_head_joint,0.9600000000000005,-5.88335032922771e-05
mouse_head_joint,0.9800000000000005,-6.04544660411932e-05
mouse_head_joint,1.0000000000000004,-6.223945964656252e-05
mouse_head_joint,1.0200000000000005,-6.373176096818867e-05
mouse_head_joint,1.0400000000000005,-6.518334118776892e-05
mouse_head_joint,1.0600000000000005,-6.665305426079016e-05
mouse_head_joint,1.0800000000000005,-6.824897339718916e-05
mouse_head_joint,1.1000000000000005,-6.969718751381748e-05
mouse_head_joint,1.1200000000000006,-7.126157744341555e-05
mouse_head_joint,1.1400000000000006,-7.266708151476564e-05
mouse_head_joint,1.1600000000000006,-7.424919309251266e-05
mouse_head_joint,1.1800000000000006,-7.563783452546602e-05
mouse_head_joint,1.2000000000000006,-7.720242622166751e-05
mouse_head_joint,1.2200000000000006,-7.874670986218746e-05
mouse_head_joint,1.2400000000000007,-8.011407132979542e-05
mouse_head_joint,1.2600000000000007,-8.147080462261869e-05
mouse_head_joint,1.2800000000000007,-8.280543394434403e-05
mouse_head_joint,1.3000000000000007,-8.431385700546912e-05
mouse_head_joint,1.3200000000000007,-8.562428253178211e-05
mouse_head_joint,1.3400000000000007,-8.713631879153638e-05
mouse_head_joint,1.3600000000000008,-8.850671591709158e-05
mouse_head_joint,1.3800000000000008,-8.972639912130376e-05
mouse_head_joint,1.4000000000000008,-9.10059353245174e-05
mouse_head_joint,1.4200000000000008,-9.245218677644829e-05
mouse_head_joint,1.4400000000000008,-9.379780105245317e-05
mouse_head_joint,1.4600000000000009,-9.513378954295604e-05
mouse_head_joint,1.4800000000000009,-9.637008457197282e-05
mouse_head_joint,1.5000000000000009,-9.759629164562966e-05
mouse_head_joint,1.520000000000001,-9.892328005900453e-05
mouse_head_joint,1.540000000000001,-0.00010012825555349991
mouse_head_joint,1.560000000000001,-0.00010162270439728616
mouse_head_joint,1.580000000000001,-0.00010263702975255029
mouse_head_joint,1.600000000000001,-0.00010398019392976465
mouse_head_joint,1.620000000000001,-0.000105114403851303
mouse_head_joint,1.640000000000001,-0.00010643834043833067
mouse_head_joint,1.660000000000001,-0.00010772282333970651
mouse_head_joint,1.680000000000001,-0.0001088267358442252
mouse_head_joint,1.700000000000001,-0.00011025667707809106
mouse_head_joint,1.720000000000001,-0.00011122959336518079
mouse_head_joint,1.740000000000001,-0.00011232576164221797
mouse_head_joint,1.7600000000000011,-0.00011341814608201162
mouse_head_joint,1.7800000000000011,-0.00011466848397212459
mouse_head_joint,1.8000000000000012,-0.000115869110620892
mouse_head_joint,1.8200000000000012,-0.00011693278267621565
mouse_head_joint,1.8400000000000012,-0.00011792984378988791
mouse_head_joint,1.8600000000000012,-0.0001191062122494202
mouse_head_joint,1.8800000000000012,-0.00012007681502090861
mouse_head_joint,1.9000000000000012,-0.00012119095259066626
mouse_head_joint,1.9200000000000013,-0.0001223154249361258
mouse_head_joint,1.9400000000000013,-0.00012332103845480447
mouse_head_joint,1.9600000000000013,-0.00012443787367200088
mouse_head_joint,1.9800000000000013,-0.00012546773389399135
mouse_head_joint,2.0000000000000013,-0.00012652649299482732
mouse_head_joint,2.0200000000000014,-0.0001274949023191141
mouse_head_joint,2.0400000000000014,-0.0001285767622727363
mouse_head_joint,2.0600000000000014,-0.00012952692865741966
mouse_head_joint,2.0800000000000014,-0.00013046850216724692
mouse_head_joint,2.1000000000000014,-0.00013163002814842173
mouse_head_joint,2.1200000000000014,-0.00013255349112384351
mouse_head_joint,2.1400000000000015,-0.0001333646327195126
mouse_head_joint,2.1600000000000015,-0.00013442870243363103
mouse_head_joint,2.1800000000000015,-0.0001353259119944994
mouse_head_joint,2.2000000000000015,-0.00013626888325468656
mouse_head_joint,2.2200000000000015,-0.00013727456015111272
mouse_head_joint,2.2400000000000015,-0.00013806991785791922
mouse_head_joint,2.2600000000000016,-0.00013915246852924668
mouse_head_joint,2.2800000000000016,-0.00014000576706330037
mouse_head_joint,2.3000000000000016,-0.0001408510141525099
mouse_head_joint,2.3200000000000016,-0.0001416882557423449
mouse_head_joint,2.3400000000000016,-0.00014261253810232688
mouse_head_joint,2.3600000000000017,-0.00014348556406851287
mouse_head_joint,2.3800000000000017,-0.00014434838576704578
mouse_head_joint,2.4000000000000017,-0.0001451523627213902
mouse_head_joint,2.4200000000000017,-0.00014605282455448787
mouse_head_joint,2.4400000000000017,-0.00014678822468550123
mouse_head_joint,2.4600000000000017,-0.00014785193919131245
mouse_head_joint,2.4800000000000018,-0.00014862322850195397
mouse_head_joint,2.5000000000000018,-0.00014931048118516088
mouse_head_joint,2.520000000000002,-0.00014995111047788612
mouse_head_joint,2.540000000000002,-0.00015088919348116292
mouse_head_joint,2.560000000000002,-0.00015158860485797732
mouse_head_joint,2.580000000000002,-0.00015239507245823347
mouse_head_joint,2.600000000000002,-0.00015308470222041848
mouse_head_joint,2.620000000000002,-0.0001538351782146563
mouse_head_joint,2.640000000000002,-0.0001546754264403205
mouse_head_joint,2.660000000000002,-0.00015546002166288986
mouse_head_joint,2.680000000000002,-0.00015613462959862545
mouse_head_joint,2.700000000000002,-0.00015682113924331276
mouse_head_joint,2.720000000000002,-0.00015743045659633026
mouse_head_joint,2.740000000000002,-0.0001582507998536542
mouse_head_joint,2.760000000000002,-0.00015900230311505226
mouse_head_joint,2.780000000000002,-0.00015959804886556128
mouse_head_joint,2.800000000000002,-0.00016039813462231933
mouse_head_joint,2.820000000000002,-0.00016104058062982318
mouse_head_joint,2.840000000000002,-0.0001617632415022996
mouse_head_joint,2.860000000000002,-0.00016251479459317153
mouse_head_joint,2.880000000000002,-0.0001630517290998057
mouse_head_joint,2.900000000000002,-0.00016354130729645533
mouse_head_joint,2.920000000000002,-0.00016414831055122647
mouse_head_joint,2.940000000000002,-0.0001648907873628147
mouse_head_joint,2.960000000000002,-0.00016562364824590503
mouse_head_joint,2.980000000000002,-0.00016609610677775777
mouse_head_joint,3.000000000000002,-0.00016678923708113302
mouse_head_joint,3.0200000000000022,-0.00016726757728946495
mouse_head_joint,3.0400000000000023,-0.00016795831628790836
mouse_head_joint,3.0600000000000023,-0.00016843054183102169
mouse_head_joint,3.0800000000000023,-0.00016911902224858721
mouse_head_joint,3.1000000000000023,-0.00016965825082060348
mouse_head_joint,3.1200000000000023,-0.00017026906969519473
mouse_head_joint,3.1400000000000023,-0.00017087522524139587
mouse_head_joint,3.1600000000000024,-0.00017140169208751388
mouse_head_joint,3.1800000000000024,-0.0001718526607996651
mouse_head_joint,3.2000000000000024,-0.00017258521061247478
mouse_head_joint,3.2200000000000024,-0.00017321045868357032
mouse_head_joint,3.2400000000000024,-0.00017359316113196854
mouse_head_joint,3.2600000000000025,-0.00017398287541237067
mouse_head_joint,3.2800000000000025,-0.00017460345779607422
mouse_head_joint,3.3000000000000025,-0.00017508920479869516
mouse_head_joint,3.3200000000000025,-0.0001755653401360746
mouse_head_joint,3.3400000000000025,-0.00017605633361661432
mouse_head_joint,3.3600000000000025,-0.00017651972187504583
mouse_head_joint,3.3800000000000026,-0.0001770790248194487
mouse_head_joint,3.4000000000000026,-0.0001774293662917259
mouse_head_joint,3.4200000000000026,-0.00017799432604448384
mouse_head_joint,3.4400000000000026,-0.00017852289134179244
mouse_head_joint,3.4600000000000026,-0.00017881938354857851
mouse_head_joint,3.4800000000000026,-0.0001793846688915579
mouse_head_joint,3.5000000000000027,-0.0001798072893191005
mouse_head_joint,3.5200000000000027,-0.00018034930545240968
mouse_head_joint,3.5400000000000027,-0.00018069613865812073
mouse_head_joint,3.5600000000000027,-0.000181165071214906
mouse_head_joint,3.5800000000000027,-0.00018174082502042666
mouse_head_joint,3.6000000000000028,-0.00018188369233396173
mouse_head_joint,3.6200000000000028,-0.00018240995774654323
mouse_head_joint,3.640000000000003,-0.00018280918045832095
mouse_head_joint,3.660000000000003,-0.0001831868726656083
mouse_head_joint,3.680000000000003,-0.00018341990289982846
mouse_head_joint,3.700000000000003,-0.00018401576634730077
mouse_head_joint,3.720000000000003,-0.0001842809819194713
mouse_head_joint,3.740000000000003,-0.0001847400389198839
mouse_head_joint,3.760000000000003,-0.00018498296984414964
mouse_head_joint,3.780000000000003,-0.00018532849109220706
mouse_head_joint,3.800000000000003,-0.00018578247823963778
mouse_head_joint,3.820000000000003,-0.00018601700793663412
mouse_head_joint,3.840000000000003,-0.0001864718213067107
mouse_head_joint,3.860000000000003,-0.00018670546884624883
mouse_head_joint,3.880000000000003,-0.00018720724145993017
mouse_head_joint,3.900000000000003,-0.00018757521753087758
mouse_head_joint,3.920000000000003,-0.00018783126247257087
mouse_head_joint,3.940000000000003,-0.0001882411853459942
mouse_head_joint,3.960000000000003,-0.00018854038312987598
mouse_head_joint,3.980000000000003,-0.0001888349125165334
mouse_head_joint,4.000000000000003,-0.00018912480431954037
mouse_head_joint,4.020000000000002,-0.00018941612357981086
mouse_head_joint,4.040000000000002,-0.0001895514386802688
mouse_head_joint,4.060000000000001,-0.000189951926157228
mouse_head_joint,4.080000000000001,-0.00019022262067558415
mouse_head_joint,4.1000000000000005,-0.0001904817448723506
mouse_head_joint,4.12,-0.0001908414525857438
mouse_head_joint,4.14,-0.00019109813773621198
mouse_head_joint,4.159999999999999,-0.00019123691949740618
mouse_head_joint,4.179999999999999,-0.00019160801456408194
mouse_head_joint,4.199999999999998,-0.00019173042734266232
mouse_head_joint,4.219999999999998,-0.00019199273765213576
mouse_head_joint,4.2399999999999975,-0.00019226453131793164
mouse_head_joint,4.259999999999997,-0.00019258341453198824
mouse_head_joint,4.279999999999997,-0.00019280866161075494
mouse_head_joint,4.299999999999996,-0.00019306953810538374
mouse_head_joint,4.319999999999996,-0.0001933293323732599
mouse_head_joint,4.339999999999995,-0.00019354127678639088
mouse_head_joint,4.359999999999995,-0.00019364053542059168
mouse_head_joint,4.379999999999995,-0.00019409922632984689
mouse_head_joint,4.399999999999994,-0.00019429838953488598
mouse_head_joint,4.419999999999994,-0.0001943865759024277
mouse_head_joint,4.439999999999993,-0.00019442748837850132
mouse_head_joint,4.459999999999993,-0.00019482529883951827
mouse_head_joint,4.479999999999992,-0.0001950078239145725
mouse_head_joint,4.499999999999992,-0.00019508034358572957
mouse_head_joint,4.519999999999992,-0.0001953490315784734
mouse_head_joint,4.539999999999991,-0.00019550637857612685
mouse_head_joint,4.559999999999991,-0.00019556226074790573
mouse_head_joint,4.57999999999999,-0.00019584084431834015
mouse_head_joint,4.59999999999999,-0.00019589845415346474
mouse_head_joint,4.6199999999999894,-0.0001962090958462781
mouse_head_joint,4.639999999999989,-0.00019623294100057365
mouse_head_joint,4.659999999999989,-0.00019637974063346775
mouse_head_joint,4.679999999999988,-0.00019655811971919235
mouse_head_joint,4.699999999999988,-0.00019669730340332592
mouse_head_joint,4.719999999999987,-0.00019709478835050476
mouse_head_joint,4.739999999999987,-0.00019722611709660498
mouse_head_joint,4.7599999999999865,-0.00019725325717789843
mouse_head_joint,4.779999999999986,-0.00019736750589327556
mouse_head_joint,4.799999999999986,-0.00019748815998799074
mouse_head_joint,4.819999999999985,-0.000197567888712058
mouse_head_joint,4.839999999999985,-0.00019774977708486574
mouse_head_joint,4.859999999999984,-0.00019776845401597853
mouse_head_joint,4.879999999999984,-0.00019784374804654448
mouse_head_joint,4.8999999999999835,-0.0001979463634036449
mouse_head_joint,4.919999999999983,-0.00019814566192355443
mouse_head_joint,4.939999999999983,-0.0001982427504909623
mouse_head_joint,4.959999999999982,-0.00019822075599851274
mouse_head_joint,4.979999999999982,-0.00019842235317213408
mouse_head_joint,4.999999999999981,-0.00019840328418219144
mouse_head_joint,5.019999999999981,-0.00019850756569272932
mouse_head_joint,5.0399999999999805,-0.00019861491913086837
mouse_head_joint,5.05999999999998,-0.0001987199147652774
mouse_head_joint,5.07999999999998,-0.00019876264354845574
mouse_head_joint,5.099999999999979,-0.00019886077622111031
mouse_head_joint,5.119999999999979,-0.0001990480623286217
mouse_head_joint,5.139999999999978,-0.00019909407984464167
mouse_head_joint,5.159999999999978,-0.0001991533563892034
mouse_head_joint,5.1799999999999775,-0.00019905207909864941
mouse_head_joint,5.199999999999977,-0.00019910522005872622
mouse_head_joint,5.219999999999977,-0.0001992686445895231
mouse_head_joint,5.239999999999976,-0.00019928647494094065
mouse_head_joint,5.259999999999976,-0.0001994178127606716
mouse_head_joint,5.279999999999975,-0.00019945867931880912
mouse_head_joint,5.299999999999975,-0.0001993712984580398
mouse_head_joint,5.3199999999999745,-0.0001993865289584562
mouse_head_joint,5.339999999999974,-0.00019941842791393327
mouse_head_joint,5.359999999999974,-0.00019944897708956688
mouse_head_joint,5.379999999999973,-0.0001994750198752726
mouse_head_joint,5.399999999999973,-0.00019961492248476986
mouse_head_joint,5.419999999999972,-0.00019953426266994256
mouse_head_joint,5.439999999999972,-0.00019957386854763115
mouse_head_joint,5.4599999999999715,-0.00019958848218948333
mouse_head_joint,5.479999999999971,-0.00019962336515444434
mouse_head_joint,5.499999999999971,-0.00019975094180235686
mouse_head_joint,5.51999999999997,-0.00019985171536429647
mouse_head_joint,5.53999999999997,-0.00019973819260687975
mouse_head_joint,5.559999999999969,-0.0001995785275283879
mouse_head_joint,5.579999999999969,-0.00019957668291592512
mouse_head_joint,5.599999999999969,-0.00019976408202282414
mouse_head_joint,5.619999999999968,-0.0001996408634274971
mouse_head_joint,5.639999999999968,-0.00019971569609378292
mouse_head_joint,5.659999999999967,-0.0001995752462322642
mouse_head_joint,5.679999999999967,-0.00019965556928536188
mouse_head_joint,5.699999999999966,-0.0001996380609794457
mouse_head_joint,5.719999999999966,-0.0001996042956955435
mouse_head_joint,5.739999999999966,-0.0001994711382611314
mouse_head_joint,5.759999999999965,-0.00019944608817556997
mouse_head_joint,5.779999999999965,-0.00019942904133785078
mouse_head_joint,5.799999999999964,-0.00019939906923216455
mouse_head_joint,5.819999999999964,-0.00019938359611693102
mouse_head_joint,5.839999999999963,-0.0001994660830897388
mouse_head_joint,5.859999999999963,-0.00019932950095391533
mouse_head_joint,5.879999999999963,-0.00019928993312934296
mouse_head_joint,5.899999999999962,-0.00019945592255687927
mouse_head_joint,5.919999999999962,-0.00019941167281167793
mouse_head_joint,5.939999999999961,-0.00019908259626610914
mouse_head_joint,5.959999999999961,-0.00019903375514029875
mouse_head_joint,5.9799999999999605,-0.00019916979049394712
mouse_head_joint,5.99999999999996,-0.00019899791253941146
mouse_head_joint,6.01999999999996,-0.00019894233024331243
mouse_head_joint,6.039999999999959,-0.000198836186907414
mouse_head_joint,6.059999999999959,-0.00019877620043562416
mouse_head_joint,6.079999999999958,-0.002134463254450658
mouse_head_joint,6.099999999999958,-0.0054868676499024716
mouse_head_joint,6.1199999999999575,-0.008742432279489343
mouse_head_joint,6.139999999999957,-0.015193760912205256
mouse_head_joint,6.159999999999957,-0.020951755603626943
mouse_head_joint,6.179999999999956,-0.0226668585069012
mouse_head_joint,6.199999999999956,-0.024197676520812728
mouse_head_joint,6.219999999999955,-0.026286606372450727
mouse_head_joint,6.239999999999955,-0.0288208311538094
mouse_head_joint,6.2599999999999545,-0.029161470493035857
mouse_head_joint,6.279999999999954,-0.029171315990663693
mouse_head_joint,6.299999999999954,-0.030086905564031596
mouse_head_joint,6.319999999999953,-0.03217563001115309
mouse_head_joint,6.339999999999953,-0.03457520240458223
mouse_head_joint,6.359999999999952,-0.03640932608571923
mouse_head_joint,6.379999999999952,-0.03657150449363922
mouse_head_joint,6.3999999999999515,-0.038727762016132594
mouse_head_joint,6.419999999999951,-0.04280965689622729
mouse_head_joint,6.439999999999951,-0.04681404776238285
mouse_head_joint,6.45999999999995,-0.05161993396859632
mouse_head_joint,6.47999999999995,-0.05269032561317655
mouse_head_joint,6.499999999999949,-0.054742850426651835
mouse_head_joint,6.519999999999949,-0.06218349578544302
mouse_head_joint,6.5399999999999485,-0.06808514935665944
mouse_head_joint,6.559999999999948,-0.0708898228067989
mouse_head_joint,6.579999999999948,-0.07587660548113195
mouse_head_joint,6.599999999999947,-0.08260998388037866
mouse_head_joint,6.619999999999947,-0.08760164612948973
mouse_head_joint,6.639999999999946,-0.08803430136741053
mouse_head_joint,6.659999999999946,-0.08900696254741369
mouse_head_joint,6.6799999999999455,-0.09790611715452613
mouse_head_joint,6.699999999999945,-0.10249906139813536
mouse_head_joint,6.719999999999945,-0.10300600944917893
mouse_head_joint,6.739999999999944,-0.10289902399609385
mouse_head_joint,6.759999999999944,-0.10277576083988293
mouse_head_joint,6.779999999999943,-0.10372712680020246
mouse_head_joint,6.799999999999943,-0.10611033437904371
mouse_head_joint,6.8199999999999426,-0.11165262667273712
mouse_head_joint,6.839999999999942,-0.115596319292254
mouse_head_joint,6.859999999999942,-0.11828705496384107
mouse_head_joint,6.879999999999941,-0.12307574012580869
mouse_head_joint,6.899999999999941,-0.12590323244893664
mouse_head_joint,6.91999999999994,-0.12867802618417645
mouse_head_joint,6.93999999999994,-0.1297666279695937
mouse_head_joint,6.95999999999994,-0.13147463678858617
mouse_head_joint,6.979999999999939,-0.13256181452884785
mouse_head_joint,6.999999999999939,-0.1354335090419374
mouse_head_joint,7.019999999999938,-0.13631288806239805
mouse_head_joint,7.039999999999938,-0.13746127491847115
mouse_head_joint,7.059999999999937,-0.14278260130451503
mouse_head_joint,7.079999999999937,-0.147890316440912
mouse_head_joint,7.099999999999937,-0.15251232890858102
mouse_head_joint,7.119999999999936,-0.15536334535478336
mouse_head_joint,7.139999999999936,-0.15705508068110507
mouse_head_joint,7.159999999999935,-0.1581084295995483
mouse_head_joint,7.179999999999935,-0.15811945738712563
mouse_head_joint,7.1999999999999345,-0.1674620898268353
mouse_head_joint,7.219999999999934,-0.17463081778689382
mouse_head_joint,7.239999999999934,-0.18158118310437477
mouse_head_joint,7.259999999999933,-0.18814752363376552
mouse_head_joint,7.279999999999933,-0.18934780750304459
mouse_head_joint,7.299999999999932,-0.19290376165296852
mouse_head_joint,7.319999999999932,-0.19904606415342396
mouse_head_joint,7.3399999999999315,-0.1998461247707235
mouse_head_joint,7.359999999999931,-0.1993437012661925
mouse_head_joint,7.379999999999931,-0.201430777730633
mouse_head_joint,7.39999999999993,-0.20698087360853545
mouse_head_joint,7.41999999999993,-0.21089082086610578
mouse_head_joint,7.439999999999929,-0.21503878376305696
mouse_head_joint,7.459999999999929,-0.21765216559991973
mouse_head_joint,7.4799999999999285,-0.22349222574634897
mouse_head_joint,7.499999999999928,-0.22694853937198012
mouse_head_joint,7.519999999999928,-0.22714989811826936
mouse_head_joint,7.539999999999927,-0.23013594895595357
mouse_head_joint,7.559999999999927,-0.23770251221344463
mouse_head_joint,7.579999999999926,-0.24442427943592637
mouse_head_joint,7.599999999999926,-0.2511523078012372
mouse_head_joint,7.6199999999999255,-0.25464135915841624
mouse_head_joint,7.639999999999925,-0.25624348087051985
mouse_head_joint,7.659999999999925,-0.26079464304462974
mouse_head_joint,7.679999999999924,-0.2648434362229555
mouse_head_joint,7.699999999999924,-0.26271324012324637
mouse_head_joint,7.719999999999923,-0.2602970427715423
mouse_head_joint,7.739999999999923,-0.2604648540239918
mouse_head_joint,7.7599999999999225,-0.26084841479862675
mouse_head_joint,7.779999999999922,-0.2612477142653029
mouse_head_joint,7.799999999999922,-0.2593888281803549
mouse_head_joint,7.819999999999921,-0.26335192383981276
mouse_head_joint,7.839999999999921,-0.2670182607498601
mouse_head_joint,7.85999999999992,-0.26963312936891715
mouse_head_joint,7.87999999999992,-0.27165079855228225
mouse_head_joint,7.8999999999999195,-0.2715726310665776
mouse_head_joint,7.919999999999919,-0.2695732292982296
mouse_head_joint,7.939999999999919,-0.2659964562719299
mouse_head_joint,7.959999999999918,-0.26722142160407714
mouse_head_joint,7.979999999999918,-0.2709997167431366
mouse_head_joint,7.999999999999917,-0.26663255675777364
mouse_head_joint,8.019999999999918,-0.26187777387618993
mouse_head_joint,8.039999999999917,-0.2584357266675408
mouse_head_joint,8.059999999999917,-0.25466940018503337
mouse_head_joint,8.079999999999917,-0.25153839877828954
mouse_head_joint,8.099999999999916,-0.24943431483473066
mouse_head_joint,8.119999999999916,-0.250489924698309
mouse_head_joint,8.139999999999915,-0.24922296251249598
mouse_head_joint,8.159999999999915,-0.24733656724761044
mouse_head_joint,8.179999999999914,-0.25190450493881134
mouse_head_joint,8.199999999999914,-0.25728408891716104
mouse_head_joint,8.219999999999914,-0.2603930636425895
mouse_head_joint,8.239999999999913,-0.2595214092237912
mouse_head_joint,8.259999999999913,-0.25580105400094766
mouse_head_joint,8.279999999999912,-0.2522499195960375
mouse_head_joint,8.299999999999912,-0.2498096072288627
mouse_head_joint,8.319999999999911,-0.249384260027254
mouse_head_joint,8.339999999999911,-0.25376919231361406
mouse_head_joint,8.35999999999991,-0.2569206282366743
mouse_head_joint,8.37999999999991,-0.2569360412386317
mouse_head_joint,8.39999999999991,-0.2570417529428699
mouse_head_joint,8.41999999999991,-0.26256969641168837
mouse_head_joint,8.439999999999909,-0.26864033688729627
mouse_head_joint,8.459999999999908,-0.27376882155190785
mouse_head_joint,8.479999999999908,-0.2757762937208268
mouse_head_joint,8.499999999999908,-0.27114720083739474
mouse_head_joint,8.519999999999907,-0.2699262907590194
mouse_head_joint,8.539999999999907,-0.26929362667840007
mouse_head_joint,8.559999999999906,-0.26874305553154976
mouse_head_joint,8.579999999999906,-0.2682051933518963
mouse_head_joint,8.599999999999905,-0.26762713653885495
mouse_head_joint,8.619999999999905,-0.26708010954840944
mouse_head_joint,8.639999999999905,-0.2665595821118867
mouse_head_joint,8.659999999999904,-0.263678874513281
mouse_head_joint,8.679999999999904,-0.2589338078691048
mouse_head_joint,8.699999999999903,-0.26393797717119494
mouse_head_joint,8.719999999999903,-0.265757321877266
mouse_head_joint,8.739999999999903,-0.2651729161347758
mouse_head_joint,8.759999999999902,-0.26777179047866984
mouse_head_joint,8.779999999999902,-0.27044815035967584
mouse_head_joint,8.799999999999901,-0.26677206488969585
mouse_head_joint,8.8199999999999,-0.2650203344118873
mouse_head_joint,8.8399999999999,-0.2623707853725499
mouse_head_joint,8.8599999999999,-0.2595966451048115
mouse_head_joint,8.8799999999999,-0.25921294023515884
mouse_head_joint,8.899999999999899,-0.2556670239085195
mouse_head_joint,8.919999999999899,-0.25174864686221987
mouse_head_joint,8.939999999999898,-0.25230323943525423
mouse_head_joint,8.959999999999898,-0.25524178033374323
mouse_head_joint,8.979999999999897,-0.2552768058397099
mouse_head_joint,8.999999999999897,-0.25252422103494343
mouse_head_joint,9.019999999999897,-0.2485364111570867
mouse_head_joint,9.039999999999896,-0.25258618042359693
mouse_head_joint,9.059999999999896,-0.25647327901794803
mouse_head_joint,9.079999999999895,-0.2595814638438778
mouse_head_joint,9.099999999999895,-0.2623813881580599
mouse_head_joint,9.119999999999894,-0.26338365309082157
mouse_head_joint,9.139999999999894,-0.2663319697635682
mouse_head_joint,9.159999999999894,-0.2707279040633157
mouse_head_joint,9.179999999999893,-0.2714931438995398
mouse_head_joint,9.199999999999893,-0.2646011730033244
mouse_head_joint,9.219999999999892,-0.2600031950479522
mouse_head_joint,9.239999999999892,-0.2588977618410322
mouse_head_joint,9.259999999999891,-0.25600917938979606
mouse_head_joint,9.279999999999891,-0.2500480010457595
mouse_head_joint,9.29999999999989,-0.2462961607807772
mouse_head_joint,9.31999999999989,-0.24727651791822236
mouse_head_joint,9.33999999999989,-0.25088401778393266
mouse_head_joint,9.35999999999989,-0.2555291726537616
mouse_head_joint,9.379999999999889,-0.2566952607041548
mouse_head_joint,9.399999999999888,-0.25795344689666333
mouse_head_joint,9.419999999999888,-0.2603921523578192
mouse_head_joint,9.439999999999888,-0.26167592356788116
mouse_head_joint,9.459999999999887,-0.2637413191868001
mouse_head_joint,9.479999999999887,-0.26572046186036413
mouse_head_joint,9.499999999999886,-0.2696737398717506
mouse_head_joint,9.519999999999886,-0.27043690506378404
mouse_head_joint,9.539999999999885,-0.27105296369520016
mouse_head_joint,9.559999999999885,-0.2708861673715113
mouse_head_joint,9.579999999999885,-0.2693606921693066
mouse_head_joint,9.599999999999884,-0.2682513835063354
mouse_head_joint,9.619999999999884,-0.2698494163016498
mouse_head_joint,9.639999999999883,-0.2673611452513249
mouse_head_joint,9.659999999999883,-0.2596726105748681
mouse_head_joint,9.679999999999882,-0.25140041557834536
mouse_head_joint,9.699999999999882,-0.24859921834868626
mouse_head_joint,9.719999999999882,-0.2464598741467059
mouse_head_joint,9.739999999999881,-0.23989915037778786
mouse_head_joint,9.75999999999988,-0.2370318330168173
mouse_head_joint,9.77999999999988,-0.23808369245919359
mouse_head_joint,9.79999999999988,-0.23564548417488407
mouse_head_joint,9.81999999999988,-0.23048474288539378
mouse_head_joint,9.839999999999879,-0.22836802269989143
mouse_head_joint,9.859999999999879,-0.2297392534638103
mouse_head_joint,9.879999999999878,-0.23047415314597774
mouse_head_joint,9.899999999999878,-0.22562288429360677
mouse_head_joint,9.919999999999877,-0.22494747059067866
mouse_head_joint,9.939999999999877,-0.23008994751940204
mouse_head_joint,9.959999999999877,-0.23650168565275909
mouse_head_joint,9.979999999999876,-0.2394187293411365
mouse_head_joint,9.999999999999876,-0.2370267586131467
mouse_head_joint,10.019999999999875,-0.23862645689086026
mouse_head_joint,10.039999999999875,-0.24375262302445666
mouse_head_joint,10.059999999999874,-0.24914785217576796
mouse_head_joint,10.079999999999874,-0.2523263623808285
mouse_head_joint,10.099999999999874,-0.2554444688658686
mouse_head_joint,10.119999999999873,-0.2552761005174924
mouse_head_joint,10.139999999999873,-0.2516786450309114
mouse_head_joint,10.159999999999872,-0.2508546280695052
mouse_head_joint,10.179999999999872,-0.25227364085738824
mouse_head_joint,10.199999999999871,-0.254116357763702
mouse_head_joint,10.219999999999871,-0.2592060477063507
mouse_head_joint,10.23999999999987,-0.2652925313132295
mouse_head_joint,10.25999999999987,-0.269132606766858
mouse_head_joint,10.27999999999987,-0.26617774677793005
mouse_head_joint,10.29999999999987,-0.26479361832635373
mouse_head_joint,10.319999999999869,-0.26405372762418367
mouse_head_joint,10.339999999999868,-0.26343461177756033
mouse_head_joint,10.359999999999868,-0.26324832708581525
mouse_head_joint,10.379999999999868,-0.26369700244822525
mouse_head_joint,10.399999999999867,-0.265558706018842
mouse_head_joint,10.419999999999867,-0.27192410833942215
mouse_head_joint,10.439999999999866,-0.26858036762215054
mouse_head_joint,10.459999999999866,-0.2653067604269852
mouse_head_joint,10.479999999999865,-0.2628643657586869
mouse_head_joint,10.499999999999865,-0.25535850975264207
mouse_head_joint,10.519999999999865,-0.24833418327684953
mouse_head_joint,10.539999999999864,-0.24666198494761904
mouse_head_joint,10.559999999999864,-0.2488909962917356
mouse_head_joint,10.579999999999863,-0.25256739853786225
mouse_head_joint,10.599999999999863,-0.2533216448776354
mouse_head_joint,10.619999999999862,-0.2570078975484016
mouse_head_joint,10.639999999999862,-0.26306996715977427
mouse_head_joint,10.659999999999862,-0.2657765124066085
mouse_head_joint,10.679999999999861,-0.26435609263658755
mouse_head_joint,10.69999999999986,-0.2608863766344216
mouse_head_joint,10.71999999999986,-0.2586464418439629
mouse_head_joint,10.73999999999986,-0.26165207792453415
mouse_head_joint,10.75999999999986,-0.2659854834631741
mouse_head_joint,10.779999999999859,-0.2679341905415651
mouse_head_joint,10.799999999999859,-0.26868269883616147
mouse_head_joint,10.819999999999858,-0.2696708135388164
mouse_head_joint,10.839999999999858,-0.2723039741134681
mouse_head_joint,10.859999999999857,-0.2756113249351575
mouse_head_joint,10.879999999999857,-0.2768962618260602
mouse_head_joint,10.899999999999856,-0.276492291550273
mouse_head_joint,10.919999999999856,-0.2748186037935749
mouse_head_joint,10.939999999999856,-0.27142092029846854
mouse_head_joint,10.959999999999855,-0.26851642277558607
mouse_head_joint,10.979999999999855,-0.2674699941862304
mouse_head_joint,10.999999999999854,-0.26674112843429754
mouse_head_joint,11.019999999999854,-0.266913802229789
mouse_head_joint,11.039999999999853,-0.2673991720907152
mouse_head_joint,11.059999999999853,-0.2703836738182064
mouse_head_joint,11.079999999999853,-0.2730782679409849
mouse_head_joint,11.099999999999852,-0.2661034117150285
mouse_head_joint,11.119999999999852,-0.26086200168744256
mouse_head_joint,11.139999999999851,-0.25749843202070366
mouse_head_joint,11.159999999999851,-0.25523906290706844
mouse_head_joint,11.17999999999985,-0.25453936063025573
mouse_head_joint,11.19999999999985,-0.2539496846274467
mouse_head_joint,11.21999999999985,-0.2552957170830563
mouse_head_joint,11.23999999999985,-0.2543088795197299
mouse_head_joint,11.259999999999849,-0.25282058708273514
mouse_head_joint,11.279999999999848,-0.2563124786814299
mouse_head_joint,11.299999999999848,-0.2551472391589984
mouse_head_joint,11.319999999999848,-0.2560102200077923
mouse_head_joint,11.339999999999847,-0.2557117673423406
mouse_head_joint,11.359999999999847,-0.25552338014721077
mouse_head_joint,11.379999999999846,-0.2559606499317404
mouse_head_joint,11.399999999999846,-0.25676437698277166
mouse_head_joint,11.419999999999845,-0.2578383738623131
mouse_head_joint,11.439999999999845,-0.2574058640734789
mouse_head_joint,11.459999999999845,-0.2529952607729049
mouse_head_joint,11.479999999999844,-0.249940550563152
mouse_head_joint,11.499999999999844,-0.2548738804473656
mouse_head_joint,11.519999999999843,-0.25767894656409585
mouse_head_joint,11.539999999999843,-0.25749987093472093
mouse_head_joint,11.559999999999842,-0.25686853152186906
mouse_head_joint,11.579999999999842,-0.25621760805518257
mouse_head_joint,11.599999999999842,-0.2572547636663689
mouse_head_joint,11.619999999999841,-0.25967182381125653
mouse_head_joint,11.63999999999984,-0.2580622120093663
mouse_head_joint,11.65999999999984,-0.2523754385269621
mouse_head_joint,11.67999999999984,-0.24767205104554169
mouse_head_joint,11.69999999999984,-0.24471679124934198
mouse_head_joint,11.719999999999839,-0.24034354693656024
mouse_head_joint,11.739999999999839,-0.23521894883145222
mouse_head_joint,11.759999999999838,-0.23650634687987004
mouse_head_joint,11.779999999999838,-0.23914409990425955
mouse_head_joint,11.799999999999837,-0.2418753834331513
mouse_head_joint,11.819999999999837,-0.2491334524086115
mouse_head_joint,11.839999999999836,-0.253948587397816
mouse_head_joint,11.859999999999836,-0.2543528537671538
mouse_head_joint,11.879999999999836,-0.2583555354761149
mouse_head_joint,11.899999999999835,-0.2589067476216895
mouse_head_joint,11.919999999999835,-0.25538805534492415
mouse_head_joint,11.939999999999834,-0.2509378139606362
mouse_head_joint,11.959999999999834,-0.2488932777245365
mouse_head_joint,11.979999999999833,-0.24762749767005587
mouse_head_joint,11.999999999999833,-0.24590540818930506
mouse_head_joint,12.019999999999833,-0.2440213998411016
mouse_head_joint,12.039999999999832,-0.24370974563679315
mouse_head_joint,12.059999999999832,-0.24652638284312456
mouse_head_joint,12.079999999999831,-0.2508133727366202
mouse_head_joint,12.099999999999831,-0.25265951196189196
mouse_head_joint,12.11999999999983,-0.25587938761267726
mouse_head_joint,12.13999999999983,-0.25657017153662753
mouse_head_joint,12.15999999999983,-0.2546765570684464
mouse_head_joint,12.17999999999983,-0.25538915872148404
mouse_head_joint,12.199999999999829,-0.25514623905207934
mouse_head_joint,12.219999999999828,-0.2537726108253038
mouse_head_joint,12.239999999999828,-0.25202600035708045
mouse_head_joint,12.259999999999827,-0.2533075031062264
mouse_head_joint,12.279999999999827,-0.2564839450000367
mouse_head_joint,12.299999999999827,-0.25843660380408373
mouse_head_joint,12.319999999999826,-0.2621700923537702
mouse_head_joint,12.339999999999826,-0.2643393772872322
mouse_head_joint,12.359999999999825,-0.26571137936844025
mouse_head_joint,12.379999999999825,-0.26588272491307396
mouse_head_joint,12.399999999999824,-0.2599054425619558
mouse_head_joint,12.419999999999824,-0.2559635692029536
mouse_head_joint,12.439999999999824,-0.25593584792049384
mouse_head_joint,12.459999999999823,-0.25581435326944124
mouse_head_joint,12.479999999999823,-0.25366449468001395
mouse_head_joint,12.499999999999822,-0.25154964489979115
mouse_head_joint,12.519999999999822,-0.25055816714523793
mouse_head_joint,12.539999999999822,-0.24988374310062778
mouse_head_joint,12.559999999999821,-0.2476570819669126
mouse_head_joint,12.57999999999982,-0.24400911868572717
mouse_head_joint,12.59999999999982,-0.24112635037816688
mouse_head_joint,12.61999999999982,-0.2406522272419176
mouse_head_joint,12.63999999999982,-0.24177502237494064
mouse_head_joint,12.659999999999819,-0.23883631864576582
mouse_head_joint,12.679999999999819,-0.23587799035304524
mouse_head_joint,12.699999999999818,-0.2394108912855577
mouse_head_joint,12.719999999999818,-0.24318437935129733
mouse_head_joint,12.739999999999817,-0.2489325483856648
mouse_head_joint,12.759999999999817,-0.25060779493970387
mouse_head_joint,12.779999999999816,-0.24907919836426728
mouse_head_joint,12.799999999999816,-0.25482902827017107
mouse_head_joint,12.819999999999816,-0.26263651267001187
mouse_head_joint,12.839999999999815,-0.26170527655401976
mouse_head_joint,12.859999999999815,-0.2543046134816773
mouse_head_joint,12.879999999999814,-0.24618236403334937
mouse_head_joint,12.899999999999814,-0.23976599746222949
mouse_head_joint,12.919999999999813,-0.23968827446256924
mouse_head_joint,12.939999999999813,-0.24167184116478868
mouse_head_joint,12.959999999999813,-0.24129395388244923
mouse_head_joint,12.979999999999812,-0.24259543553689156
mouse_head_joint,12.999999999999812,-0.24498979282595013
mouse_head_joint,13.019999999999811,-0.24471091828294167
mouse_head_joint,13.03999999999981,-0.24545905534284618
mouse_head_joint,13.05999999999981,-0.24897256502859388
mouse_head_joint,13.07999999999981,-0.25422760633971553
mouse_head_joint,13.09999999999981,-0.25734418127582614
mouse_head_joint,13.11999999999981,-0.2547039572508334
mouse_head_joint,13.139999999999809,-0.25453094456934444
mouse_head_joint,13.159999999999808,-0.2603093848749527
mouse_head_joint,13.179999999999808,-0.2683907508404122
mouse_head_joint,13.199999999999807,-0.27214770624671036
mouse_head_joint,13.219999999999807,-0.27513299651836487
mouse_head_joint,13.239999999999807,-0.27896885132293914
mouse_head_joint,13.259999999999806,-0.2779973135172398
mouse_head_joint,13.279999999999806,-0.2723634394345513
mouse_head_joint,13.299999999999805,-0.26415949528185934
mouse_head_joint,13.319999999999805,-0.2619733917560634
mouse_head_joint,13.339999999999804,-0.2645764300092335
mouse_head_joint,13.359999999999804,-0.26500296898155007
mouse_head_joint,13.379999999999804,-0.2647708092084784
mouse_head_joint,13.399999999999803,-0.26517141927617516
mouse_head_joint,13.419999999999803,-0.2640759837075235
mouse_head_joint,13.439999999999802,-0.264031933145632
mouse_head_joint,13.459999999999802,-0.26629211830039523
mouse_head_joint,13.479999999999801,-0.2632204812253862
mouse_head_joint,13.499999999999801,-0.26575697305996204
mouse_head_joint,13.5199999999998,-0.2710660484815852
mouse_head_joint,13.5399999999998,-0.2702108127681617
mouse_head_joint,13.5599999999998,-0.2681797657058187
mouse_head_joint,13.5799999999998,-0.26811108267845274
mouse_head_joint,13.599999999999799,-0.2685440500582805
mouse_head_joint,13.619999999999798,-0.2658293269933205
mouse_head_joint,13.639999999999798,-0.2648483393756731
mouse_head_joint,13.659999999999798,-0.2669871495461793
mouse_head_joint,13.679999999999797,-0.27064069557185366
mouse_head_joint,13.699999999999797,-0.27182991065295514
mouse_head_joint,13.719999999999796,-0.27361041969751465
mouse_head_joint,13.739999999999796,-0.2740914626247788
mouse_head_joint,13.759999999999796,-0.2753330770455049
mouse_head_joint,13.779999999999795,-0.2755756131132303
mouse_head_joint,13.799999999999795,-0.2758280501885668
mouse_head_joint,13.819999999999794,-0.27801558865230547
mouse_head_joint,13.839999999999794,-0.27780139601179865
mouse_head_joint,13.859999999999793,-0.2729918168478358
mouse_head_joint,13.879999999999793,-0.26942309523866115
mouse_head_joint,13.899999999999793,-0.26387694557774033
mouse_head_joint,13.919999999999792,-0.25853258098164833
mouse_head_joint,13.939999999999792,-0.25276482253719834
mouse_head_joint,13.959999999999791,-0.24809794959451104
mouse_head_joint,13.97999999999979,-0.24387042931595282
mouse_head_joint,13.99999999999979,-0.24562860117410068
mouse_head_joint,14.01999999999979,-0.2498119081727701
mouse_head_joint,14.03999999999979,-0.25353049497550195
mouse_head_joint,14.059999999999789,-0.2552544244374193
mouse_head_joint,14.079999999999789,-0.2517044924807763
mouse_head_joint,14.099999999999788,-0.25458964736975886
mouse_head_joint,14.119999999999788,-0.26034218582712043
mouse_head_joint,14.139999999999787,-0.262382067313089
mouse_head_joint,14.159999999999787,-0.2618796530829295
mouse_head_joint,14.179999999999787,-0.26037006594255185
mouse_head_joint,14.199999999999786,-0.25744817704607037
mouse_head_joint,14.219999999999786,-0.25555125610152096
mouse_head_joint,14.239999999999785,-0.25528699239092134
mouse_head_joint,14.259999999999785,-0.2570045687510216
mouse_head_joint,14.279999999999784,-0.25667653001002133
mouse_head_joint,14.299999999999784,-0.2572523774578963
mouse_head_joint,14.319999999999784,-0.26007346787339447
mouse_head_joint,14.339999999999783,-0.2614762136783302
mouse_head_joint,14.359999999999783,-0.25885163403070344
mouse_head_joint,14.379999999999782,-0.25638243579988096
mouse_head_joint,14.399999999999782,-0.2571261895263497
mouse_head_joint,14.419999999999781,-0.25416975743351866
mouse_head_joint,14.439999999999781,-0.25418493109556106
mouse_head_joint,14.45999999999978,-0.25554382588901703
mouse_head_joint,14.47999999999978,-0.2519695264175663
mouse_head_joint,14.49999999999978,-0.25162364899124334
mouse_head_joint,14.51999999999978,-0.2531739219338238
mouse_head_joint,14.539999999999779,-0.2525634215558492
mouse_head_joint,14.559999999999778,-0.24818451442666856
mouse_head_joint,14.579999999999778,-0.24368874263807871
mouse_head_joint,14.599999999999778,-0.24452818663298714
mouse_head_joint,14.619999999999777,-0.24704438659186057
mouse_head_joint,14.639999999999777,-0.24994698681060346
mouse_head_joint,14.659999999999776,-0.2501870562770039
mouse_head_joint,14.679999999999776,-0.24816693998254102
mouse_head_joint,14.699999999999775,-0.2463321377516916
mouse_head_joint,14.719999999999775,-0.24854330401972113
mouse_head_joint,14.739999999999775,-0.2519028371542351
mouse_head_joint,14.759999999999774,-0.25198450171232345
mouse_head_joint,14.779999999999774,-0.2516953274984379
mouse_head_joint,14.799999999999773,-0.2510956088032881
mouse_head_joint,14.819999999999773,-0.25288587567517506
mouse_head_joint,14.839999999999772,-0.25619249806454025
mouse_head_joint,14.859999999999772,-0.2570196669346432
mouse_head_joint,14.879999999999772,-0.2591556210914616
mouse_head_joint,14.899999999999771,-0.26062818427986745
mouse_head_joint,14.91999999999977,-0.2559607675576494
mouse_head_joint,14.93999999999977,-0.24784067251100073
mouse_head_joint,14.95999999999977,-0.24295621527513678
mouse_head_joint,14.97999999999977,-0.2437648803130612
mouse_head_joint,14.999999999999769,-0.24586093852714885
mouse_head_joint,15.019999999999769,-0.24479597721345137
mouse_head_joint,15.039999999999768,-0.24435572770404068
mouse_head_joint,15.059999999999768,-0.2447787320557886
mouse_head_joint,15.079999999999767,-0.24670438178490794
mouse_head_joint,15.099999999999767,-0.24627425293560012
mouse_head_joint,15.119999999999767,-0.2489444922335755
mouse_head_joint,15.139999999999766,-0.25608630158841894
mouse_head_joint,15.159999999999766,-0.26304266926308717
mouse_head_joint,15.179999999999765,-0.26993723531877745
mouse_head_joint,15.199999999999765,-0.27082098921576225
mouse_head_joint,15.219999999999764,-0.26918578280339744
mouse_head_joint,15.239999999999764,-0.27031645429002626
mouse_head_joint,15.259999999999764,-0.27163173263511275
mouse_head_joint,15.279999999999763,-0.27162166901679274
mouse_head_joint,15.299999999999763,-0.2725695557875474
mouse_head_joint,15.319999999999762,-0.2697875832496486
mouse_head_joint,15.339999999999762,-0.2673504800154669
mouse_head_joint,15.359999999999761,-0.2694228275577535
mouse_head_joint,15.379999999999761,-0.2725480372292983
mouse_head_joint,15.39999999999976,-0.26941085682655164
mouse_head_joint,15.41999999999976,-0.26500020017780823
mouse_head_joint,15.43999999999976,-0.26368837465565953
mouse_head_joint,15.45999999999976,-0.262795336051167
mouse_head_joint,15.479999999999759,-0.26443463618753427
mouse_head_joint,15.499999999999758,-0.26710043536729877
mouse_head_joint,15.519999999999758,-0.264914618437726
mouse_head_joint,15.539999999999758,-0.2635215071988304
mouse_head_joint,15.559999999999757,-0.26385080277913175
mouse_head_joint,15.579999999999757,-0.26174040178669866
mouse_head_joint,15.599999999999756,-0.2606708705994878
mouse_head_joint,15.619999999999756,-0.2581271257165776
mouse_head_joint,15.639999999999755,-0.2541277565962856
mouse_head_joint,15.659999999999755,-0.2530762269474369
mouse_head_joint,15.679999999999755,-0.25345660023524186
mouse_head_joint,15.699999999999754,-0.25175113113615044
mouse_head_joint,15.719999999999754,-0.24396128562722108
mouse_head_joint,15.739999999999753,-0.2374327587639815
mouse_head_joint,15.759999999999753,-0.23530620217277942
mouse_head_joint,15.779999999999752,-0.23529576219899173
mouse_head_joint,15.799999999999752,-0.23725724525118785
mouse_head_joint,15.819999999999752,-0.23679905173868931
mouse_head_joint,15.839999999999751,-0.23595134675160612
mouse_head_joint,15.85999999999975,-0.23522239166256664
mouse_head_joint,15.87999999999975,-0.2343702215415222
mouse_head_joint,15.89999999999975,-0.2336393201001732
mouse_head_joint,15.91999999999975,-0.23278752045618578
mouse_head_joint,15.939999999999749,-0.2319363163438215
mouse_head_joint,15.959999999999749,-0.2312081963536814
mouse_head_joint,15.979999999999748,-0.23039964074841723
mouse_head_joint,15.999999999999748,-0.22955109487191994
mouse_head_joint,16.019999999999747,-0.22870453291079773
mouse_head_joint,16.039999999999747,-0.2275152250764494
mouse_head_joint,16.059999999999746,-0.22568652513227772
mouse_head_joint,16.079999999999746,-0.2241278171818859
mouse_head_joint,16.099999999999746,-0.22240455043907126
mouse_head_joint,16.119999999999745,-0.22060576737691928
mouse_head_joint,16.139999999999745,-0.21898714278680487
mouse_head_joint,16.159999999999744,-0.21729241282339906
mouse_head_joint,16.179999999999744,-0.21543917427105885
mouse_head_joint,16.199999999999743,-0.21384765067415046
mouse_head_joint,16.219999999999743,-0.21218155298404273
mouse_head_joint,16.239999999999743,-0.2104419398090247
mouse_head_joint,16.259999999999742,-0.20879479453164151
mouse_head_joint,16.279999999999742,-0.20732011195088074
mouse_head_joint,16.29999999999974,-0.20569027149020247
mouse_head_joint,16.31999999999974,-0.20398879825575555
mouse_head_joint,16.33999999999974,-0.20237749352291257
mouse_head_joint,16.35999999999974,-0.2007752258250166
mouse_head_joint,16.37999999999974,-0.1991023710010884
mouse_head_joint,16.39999999999974,-0.19751838460232296
mouse_head_joint,16.41999999999974,-0.19594332764384514
mouse_head_joint,16.43999999999974,-0.19445531253583415
mouse_head_joint,16.459999999999738,-0.19289743721048058
mouse_head_joint,16.479999999999738,-0.19142547134213306
mouse_head_joint,16.499999999999737,-0.18988465568426882
mouse_head_joint,16.519999999999737,-0.18819978482916433
mouse_head_joint,16.539999999999736,-0.1867531863064178
mouse_head_joint,16.559999999999736,-0.18531413335820712
mouse_head_joint,16.579999999999735,-0.18373283837222054
mouse_head_joint,16.599999999999735,-0.18223550315065307
mouse_head_joint,16.619999999999735,-0.18059820720113162
mouse_head_joint,16.639999999999734,-0.17933992664013143
mouse_head_joint,16.659999999999734,-0.17786748563558685
mouse_head_joint,16.679999999999733,-0.17633057316162315
mouse_head_joint,16.699999999999733,-0.17494773379198403
mouse_head_joint,16.719999999999732,-0.17342826398565236
mouse_head_joint,16.739999999999732,-0.17198951747028524
mouse_head_joint,16.75999999999973,-0.17063023613250028
mouse_head_joint,16.77999999999973,-0.16913669973963064
mouse_head_joint,16.79999999999973,-0.1677929197403838
mouse_head_joint,16.81999999999973,-0.1662462149069528
mouse_head_joint,16.83999999999973,-0.16484862512233356
mouse_head_joint,16.85999999999973,-0.1635284653811242
mouse_head_joint,16.87999999999973,-0.16221527987023077
mouse_head_joint,16.89999999999973,-0.1606355484773756
mouse_head_joint,16.919999999999728,-0.15940643051324876
mouse_head_joint,16.939999999999728,-0.15804824530018458
mouse_head_joint,16.959999999999727,-0.1566978892156179
mouse_head_joint,16.979999999999727,-0.1552883590630838
mouse_head_joint,16.999999999999726,-0.15402063088263596
mouse_head_joint,17.019999999999726,-0.15269364304997435
mouse_head_joint,17.039999999999726,-0.15144001589334977
mouse_head_joint,17.059999999999725,-0.15012802987974005
mouse_head_joint,17.079999999999725,-0.14875874550514734
mouse_head_joint,17.099999999999724,-0.14746237481412994
mouse_head_joint,17.119999999999724,-0.1462377275360245
mouse_head_joint,17.139999999999723,-0.14489228077531635
mouse_head_joint,17.159999999999723,-0.14368190446732498
mouse_head_joint,17.179999999999723,-0.14241519198123065
mouse_head_joint,17.199999999999722,-0.14109327829507556
mouse_head_joint,17.21999999999972,-0.13990408301595725
mouse_head_joint,17.23999999999972,-0.13865956581115757
mouse_head_joint,17.25999999999972,-0.13742236201348934
mouse_head_joint,17.27999999999972,-0.13606987246525382
mouse_head_joint,17.29999999999972,-0.13490899783503352
mouse_head_joint,17.31999999999972,-0.13375441327255544
mouse_head_joint,17.33999999999972,-0.13254621154833846
mouse_head_joint,17.35999999999972,-0.13134513671665715
mouse_head_joint,17.37999999999972,-0.13009178238753094
mouse_head_joint,17.399999999999718,-0.1289642929812187
mouse_head_joint,17.419999999999717,-0.12772582377841335
mouse_head_joint,17.439999999999717,-0.12649482113878552
mouse_head_joint,17.459999999999717,-0.12532973080723053
mouse_head_joint,17.479999999999716,-0.12428704466498974
mouse_head_joint,17.499999999999716,-0.12313515020441379
mouse_head_joint,17.519999999999715,-0.121990127750923
mouse_head_joint,17.539999999999715,-0.12079530409667782
mouse_head_joint,17.559999999999715,-0.119664290141265
mouse_head_joint,17.579999999999714,-0.11854007847190928
mouse_head_joint,17.599999999999714,-0.11708869202996741
mouse_head_joint,17.619999999999713,-0.11636717002679209
mouse_head_joint,17.639999999999713,-0.11509779333576464
mouse_head_joint,17.659999999999712,-0.11411044773997148
mouse_head_joint,17.679999999999712,-0.11301970439652642
mouse_head_joint,17.69999999999971,-0.11193557217396588
mouse_head_joint,17.71999999999971,-0.11091159210701118
mouse_head_joint,17.73999999999971,-0.10978693860467104
mouse_head_joint,17.75999999999971,-0.10877536777773855
mouse_head_joint,17.77999999999971,-0.10766431804205467
mouse_head_joint,17.79999999999971,-0.10666500311651461
mouse_head_joint,17.81999999999971,-0.10561948497637097
mouse_head_joint,17.83999999999971,-0.10452864866110456
mouse_head_joint,17.859999999999708,-0.10354752229874098
mouse_head_joint,17.879999999999708,-0.1024700009237538
mouse_head_joint,17.899999999999707,-0.10145012947009224
mouse_head_joint,17.919999999999707,-0.10043653437875211
mouse_head_joint,17.939999999999706,-0.09942913387502106
mouse_head_joint,17.959999999999706,-0.09842793068950861
mouse_head_joint,17.979999999999706,-0.09748241690298887
mouse_head_joint,17.999999999999705,-0.09649323092761541
mouse_head_joint,18.019999999999705,-0.09551015820357911
mouse_head_joint,18.039999999999704,-0.09448460834272598
mouse_head_joint,18.059999999999704,-0.09346548087891016
mouse_head_joint,18.079999999999703,-0.09254932172914287
mouse_head_joint,18.099999999999703,-0.09154282895213495
mouse_head_joint,18.119999999999703,-0.09063803348542354
mouse_head_joint,18.139999999999702,-0.0896912889079795
mouse_head_joint,18.1599999999997,-0.08879728615523419
mouse_head_joint,18.1799999999997,-0.08776882514467044
mouse_head_joint,18.1999999999997,-0.08693262831864867
mouse_head_joint,18.2199999999997,-0.086009060566
mouse_head_joint,18.2399999999997,-0.08509125092075376
mouse_head_joint,18.2599999999997,-0.08413373691041492
mouse_head_joint,18.2799999999997,-0.08327295728511697
mouse_head_joint,18.2999999999997,-0.08237238294771299
mouse_head_joint,18.3199999999997,-0.0814774963858067
mouse_head_joint,18.339999999999698,-0.0804995756162219
mouse_head_joint,18.359999999999697,-0.07966061155165782
mouse_head_joint,18.379999999999697,-0.0787827832150576
mouse_head_joint,18.399999999999697,-0.07791057284878722
mouse_head_joint,18.419999999999696,-0.07708705607953092
mouse_head_joint,18.439999999999696,-0.07618293182899727
mouse_head_joint,18.459999999999695,-0.07532706243780396
mouse_head_joint,18.479999999999695,-0.07451943043733866
mouse_head_joint,18.499999999999694,-0.07367427805574778
mouse_head_joint,18.519999999999694,-0.07283473344003077
mouse_head_joint,18.539999999999694,-0.0720005242379056
mouse_head_joint,18.559999999999693,-0.07113024183967998
mouse_head_joint,18.579999999999693,-0.07030699389157746
mouse_head_joint,18.599999999999692,-0.06952974969559289
mouse_head_joint,18.619999999999692,-0.06871656950101901
mouse_head_joint,18.63999999999969,-0.06786874307165558
mouse_head_joint,18.65999999999969,-0.06710641371885284
mouse_head_joint,18.67999999999969,-0.06630894691297318
mouse_head_joint,18.69999999999969,-0.06551678686359352
mouse_head_joint,18.71999999999969,-0.06472981458051219
mouse_head_joint,18.73999999999969,-0.06394784067339643
mouse_head_joint,18.75999999999969,-0.06313238064341675
mouse_head_joint,18.77999999999969,-0.06239926049511624
mouse_head_joint,18.799999999999688,-0.061632475332270786
mouse_head_joint,18.819999999999688,-0.060870763386822624
mouse_head_joint,18.839999999999687,-0.06007623580869481
mouse_head_joint,18.859999999999687,-0.05932491374143023
mouse_head_joint,18.879999999999686,-0.05861541128627845
mouse_head_joint,18.899999999999686,-0.05783643756422663
mouse_head_joint,18.919999999999686,-0.05713655842435461
mouse_head_joint,18.939999999999685,-0.05640427749006349
mouse_head_joint,18.959999999999685,-0.05564063390315699
mouse_head_joint,18.979999999999684,-0.05495456836489243
mouse_head_joint,18.999999999999684,-0.05420105988895241
mouse_head_joint,19.019999999999683,-0.053523825456725405
mouse_head_joint,19.039999999999683,-0.05278026683830017
mouse_head_joint,19.059999999999683,-0.05211200086383716
mouse_head_joint,19.079999999999682,-0.0513783893169073
mouse_head_joint,19.09999999999968,-0.050684563296238494
mouse_head_joint,19.11999999999968,-0.049995324787598605
mouse_head_joint,19.13999999999968,-0.04931064139074692
mouse_head_joint,19.15999999999968,-0.048630612008669694
mouse_head_joint,19.17999999999968,-0.04795516180041215
mouse_head_joint,19.19999999999968,-0.0472842350734215
mouse_head_joint,19.21999999999968,-0.04665114381461599
mouse_head_joint,19.23999999999968,-0.0459559581011888
mouse_head_joint,19.25999999999968,-0.04533151164360394
mouse_head_joint,19.279999999999678,-0.0446131605298179
mouse_head_joint,19.299999999999677,-0.04399709335741164
mouse_head_joint,19.319999999999677,-0.04338506094315164
mouse_head_joint,19.339999999999677,-0.04268147406330591
mouse_head_joint,19.359999999999676,-0.04207795444499762
mouse_head_joint,19.379999999999676,-0.04144700831426551
mouse_head_joint,19.399999999999675,-0.04078907206313698
mouse_head_joint,19.419999999999675,-0.04019792799420241
mouse_head_joint,19.439999999999674,-0.0395798652937529
mouse_head_joint,19.459999999999674,-0.038721522582782164
mouse_head_joint,19.479999999999674,-0.03835638215105863
mouse_head_joint,19.499999999999673,-0.03778101416979318
mouse_head_joint,19.519999999999673,-0.03717961061599073
mouse_head_joint,19.539999999999672,-0.036582417030041725
mouse_head_joint,19.559999999999672,-0.03595976372053755
mouse_head_joint,19.57999999999967,-0.03540023994513408
mouse_head_joint,19.59999999999967,-0.03475715162638782
mouse_head_joint,19.61999999999967,-0.03423447395729795
mouse_head_joint,19.63999999999967,-0.033600338101861915
mouse_head_joint,19.65999999999967,-0.0330565179328115
mouse_head_joint,19.67999999999967,-0.032488098809291266
mouse_head_joint,19.69999999999967,-0.03192348503419229
mouse_head_joint,19.71999999999967,-0.03139107807133534
mouse_head_joint,19.739999999999668,-0.030640339470502376
mouse_head_joint,19.759999999999668,-0.03022636446651461
mouse_head_joint,19.779999999999667,-0.02973254081697263
mouse_head_joint,19.799999999999667,-0.029160270262568844
mouse_head_joint,19.819999999999666,-0.028646150384696867
mouse_head_joint,19.839999999999666,-0.028109032388281996
mouse_head_joint,19.859999999999665,-0.027575349138300176
mouse_head_joint,19.879999999999665,-0.02701949445350671
mouse_head_joint,19.899999999999665,-0.026519999405968164
mouse_head_joint,19.919999999999664,-0.02581600360539671
mouse_head_joint,19.939999999999664,-0.025428034194878713
mouse_head_joint,19.959999999999663,-0.02496489596580087
mouse_head_joint,19.979999999999663,-0.024453859926969024
mouse_head_joint,19.999999999999662,-0.02392152610683862
mouse_head_joint,20.019999999999662,-0.02344318414042057
mouse_head_joint,20.03999999999966,-0.022943231411620246
mouse_head_joint,20.05999999999966,-0.022422376262365873
mouse_head_joint,20.07999999999966,-0.02192968613470825
mouse_head_joint,20.09999999999966,-0.021465254948068058
mouse_head_joint,20.11999999999966,-0.020979739904679384
mouse_head_joint,20.13999999999966,-0.020473709150684805
mouse_head_joint,20.15999999999966,-0.0199717757882798
mouse_head_joint,20.17999999999966,-0.019544495946766105
mouse_head_joint,20.19999999999966,-0.019073152940475957
mouse_head_joint,20.219999999999658,-0.01860532805863624
mouse_head_joint,20.239999999999657,-0.018117721057667957
mouse_head_joint,20.259999999999657,-0.01765670984822343
mouse_head_joint,20.279999999999657,-0.017222274703790674
mouse_head_joint,20.299999999999656,-0.016767923445295096
mouse_head_joint,20.319999999999656,-0.01629468435180037
mouse_head_joint,20.339999999999655,-0.015825300680885945
mouse_head_joint,20.359999999999655,-0.01540360104063776
mouse_head_joint,20.379999999999654,-0.014985042404964233
mouse_head_joint,20.399999999999654,-0.014504049254814966
mouse_head_joint,20.419999999999654,-0.014091738406644794
mouse_head_joint,20.439999999999653,-0.01368237664364269
mouse_head_joint,20.459999999999653,-0.013084821281871939
mouse_head_joint,20.479999999999652,-0.012830374893197494
mouse_head_joint,20.499999999999652,-0.012409540753712811
mouse_head_joint,20.51999999999965,-0.011991472933154945
