Name,time,Position
mouse_head_joint,0.0,0.0
mouse_head_joint,0.02,0.0
mouse_head_joint,0.04,0.0
mouse_head_joint,0.06,0.0
mouse_head_joint,0.08,0.0
mouse_head_joint,0.1,0.0
mouse_head_joint,0.12000000000000001,0.0
mouse_head_joint,0.14,0.0
mouse_head_joint,0.16,0.0
mouse_head_joint,0.18,0.0
mouse_head_joint,0.19999999999999998,0.0
mouse_head_joint,0.21999999999999997,-0.0019383634625862456
mouse_head_joint,0.23999999999999996,-0.0001396601626062477
mouse_head_joint,0.25999999999999995,2.39541166182633e-05
mouse_head_joint,0.27999999999999997,7.001972373466003e-06
mouse_head_joint,0.3,6.526700548903364e-06
mouse_head_joint,0.32,-6.7253120654697796e-06
mouse_head_joint,0.34,-7.621832122772787e-06
mouse_head_joint,0.36000000000000004,-8.420688910604213e-06
mouse_head_joint,0.38000000000000006,-9.583923892719781e-06
mouse_head_joint,0.4000000000000001,-1.1090257904911027e-05
mouse_head_joint,0.4200000000000001,-1.2660964858746127e-05
mouse_head_joint,0.4400000000000001,-1.41457232620823e-05
mouse_head_joint,0.46000000000000013,-1.580810959644907e-05
mouse_head_joint,0.48000000000000015,-1.763545362543084e-05
mouse_head_joint,0.5000000000000001,-1.9375649544350892e-05
mouse_head_joint,0.5200000000000001,-2.1159156720962358e-05
mouse_head_joint,0.5400000000000001,-2.291601324522219e-05
mouse_head_joint,0.5600000000000002,0.00018961734835620803
mouse_head_joint,0.5800000000000002,-0.00017998811423769467
mouse_head_joint,0.6000000000000002,-0.0035413347974015963
mouse_head_joint,0.6200000000000002,-0.005574794834678265
mouse_head_joint,0.6400000000000002,-0.004980692788653762
mouse_head_joint,0.6600000000000003,-0.004294980955400263
mouse_head_joint,0.6800000000000003,-0.002638403322174021
mouse_head_joint,0.7000000000000003,-0.0008376990235579029
mouse_head_joint,0.7200000000000003,0.0019402268722199523
mouse_head_joint,0.7400000000000003,0.0038132462067341777
mouse_head_joint,0.7600000000000003,0.0051824218304394876
mouse_head_joint,0.7800000000000004,0.005246115594466083
mouse_head_joint,0.8000000000000004,0.005496852799477203
mouse_head_joint,0.8200000000000004,0.005729000269657725
mouse_head_joint,0.8400000000000004,0.00586477327739221
mouse_head_joint,0.8600000000000004,0.006466876719764869
mouse_head_joint,0.8800000000000004,0.005893923862959838
mouse_head_joint,0.9000000000000005,0.007157865769662486
mouse_head_joint,0.9200000000000005,0.007188667281212702
mouse_head_joint,0.9400000000000005,0.0064193563967256395
mouse_head_joint,0.9600000000000005,0.008972963914425591
mouse_head_joint,0.9800000000000005,0.009477179520472667
mouse_head_joint,1.0000000000000004,0.010302439106291139
mouse_head_joint,1.0200000000000005,0.014052538425818994
mouse_head_joint,1.0400000000000005,0.015476418411357606
mouse_head_joint,1.0600000000000005,0.016220775631364148
mouse_head_joint,1.0800000000000005,0.015993051702001715
mouse_head_joint,1.1000000000000005,0.015470825699293478
mouse_head_joint,1.1200000000000006,0.013994333374623302
mouse_head_joint,1.1400000000000006,0.013214025298931453
mouse_head_joint,1.1600000000000006,0.011965909028804234
mouse_head_joint,1.1800000000000006,0.009480717389310556
mouse_head_joint,1.2000000000000006,0.010268094595208055
mouse_head_joint,1.2200000000000006,0.011628119397061987
mouse_head_joint,1.2400000000000007,0.010193979644909312
mouse_head_joint,1.2600000000000007,0.009842699624785567
mouse_head_joint,1.2800000000000007,0.00935286014390524
mouse_head_joint,1.3000000000000007,0.00786211631673428
mouse_head_joint,1.3200000000000007,0.00642243234936668
mouse_head_joint,1.3400000000000007,0.00567152807582616
mouse_head_joint,1.3600000000000008,0.008750833897258836
mouse_head_joint,1.3800000000000008,0.009697859004499598
mouse_head_joint,1.4000000000000008,0.008850740377259747
mouse_head_joint,1.4200000000000008,0.009527267577990273
mouse_head_joint,1.4400000000000008,0.009444452172439277
mouse_head_joint,1.4600000000000009,0.008150267732916383
mouse_head_joint,1.4800000000000009,0.010452210678308482
mouse_head_joint,1.5000000000000009,0.010139165412692996
mouse_head_joint,1.520000000000001,0.010701829014450936
mouse_head_joint,1.540000000000001,0.010652994013737427
mouse_head_joint,1.560000000000001,0.010498751798090566
mouse_head_joint,1.580000000000001,0.010577408800302557
mouse_head_joint,1.600000000000001,0.01097711227307041
mouse_head_joint,1.620000000000001,0.011589072701297276
mouse_head_joint,1.640000000000001,0.00985322601407912
mouse_head_joint,1.660000000000001,0.007409958048818943
mouse_head_joint,1.680000000000001,0.005601519727666648
mouse_head_joint,1.700000000000001,0.005127337811723365
mouse_head_joint,1.720000000000001,0.005986068463800898
mouse_head_joint,1.740000000000001,0.005438798023995162
mouse_head_joint,1.7600000000000011,0.004894572211537884
mouse_head_joint,1.7800000000000011,0.006015199647767311
mouse_head_joint,1.8000000000000012,0.006213251238006201
mouse_head_joint,1.8200000000000012,0.006105930140155813
mouse_head_joint,1.8400000000000012,0.007137431739400846
mouse_head_joint,1.8600000000000012,0.008945544438357267
mouse_head_joint,1.8800000000000012,0.008619686483815947
mouse_head_joint,1.9000000000000012,0.009225340128644177
mouse_head_joint,1.9200000000000013,0.009144681979990743
mouse_head_joint,1.9400000000000013,0.00850125986533623
mouse_head_joint,1.9600000000000013,0.00831759357458317
mouse_head_joint,1.9800000000000013,0.00882068679208281
mouse_head_joint,2.0000000000000013,0.009907699549010829
mouse_head_joint,2.0200000000000014,0.010965000967749994
mouse_head_joint,2.0400000000000014,0.012339215061112796
mouse_head_joint,2.0600000000000014,0.01337333222008219
mouse_head_joint,2.0800000000000014,0.011653082421858585
mouse_head_joint,2.1000000000000014,0.013057404757228497
mouse_head_joint,2.1200000000000014,0.015279640286274265
mouse_head_joint,2.1400000000000015,0.01632881731013569
mouse_head_joint,2.1600000000000015,0.01726398853983202
mouse_head_joint,2.1800000000000015,0.016823704961413277
mouse_head_joint,2.2000000000000015,0.01548863592390326
mouse_head_joint,2.2200000000000015,0.014314077624724142
mouse_head_joint,2.2400000000000015,0.016589273128059467
mouse_head_joint,2.2600000000000016,0.015779821587104337
mouse_head_joint,2.2800000000000016,0.013417113664113245
mouse_head_joint,2.3000000000000016,0.010506285732189369
mouse_head_joint,2.3200000000000016,0.007713704824588774
mouse_head_joint,2.3400000000000016,0.005055617076960672
mouse_head_joint,2.3600000000000017,0.003554821118749274
mouse_head_joint,2.3800000000000017,0.002294015422201312
mouse_head_joint,2.4000000000000017,0.006874562717217536
mouse_head_joint,2.4200000000000017,0.010165492563267264
mouse_head_joint,2.4400000000000017,0.009281805080542327
mouse_head_joint,2.4600000000000017,0.007543380236921138
mouse_head_joint,2.4800000000000018,0.007022483880565922
mouse_head_joint,2.5000000000000018,0.008964049261797946
mouse_head_joint,2.520000000000002,0.009425228248608697
mouse_head_joint,2.540000000000002,0.010066412661520197
mouse_head_joint,2.560000000000002,0.011683875161019763
mouse_head_joint,2.580000000000002,0.015596291535066698
mouse_head_joint,2.600000000000002,0.02060054468947836
mouse_head_joint,2.620000000000002,0.022688036730721173
mouse_head_joint,2.640000000000002,0.026225331534056373
mouse_head_joint,2.660000000000002,0.02771013489519536
mouse_head_joint,2.680000000000002,0.03042735280452291
mouse_head_joint,2.700000000000002,0.03194197762464679
mouse_head_joint,2.720000000000002,0.03129377855647242
mouse_head_joint,2.740000000000002,0.03291798620104114
mouse_head_joint,2.760000000000002,0.0332897537689778
mouse_head_joint,2.780000000000002,0.03475017575984474
mouse_head_joint,2.800000000000002,0.03623556840392883
mouse_head_joint,2.820000000000002,0.036439618157475984
mouse_head_joint,2.840000000000002,0.03745087802648417
mouse_head_joint,2.860000000000002,0.04110221887011267
mouse_head_joint,2.880000000000002,0.04389497494519201
mouse_head_joint,2.900000000000002,0.042799665328071335
mouse_head_joint,2.920000000000002,0.04119755014969062
mouse_head_joint,2.940000000000002,0.04314142174936553
mouse_head_joint,2.960000000000002,0.046176518219558815
mouse_head_joint,2.980000000000002,0.047712811040169
mouse_head_joint,3.000000000000002,0.047711901880508556
mouse_head_joint,3.0200000000000022,0.04662343959417026
mouse_head_joint,3.0400000000000023,0.04696173435875384
mouse_head_joint,3.0600000000000023,0.047827575838234715
mouse_head_joint,3.0800000000000023,0.04626911500040887
mouse_head_joint,3.1000000000000023,0.04631829502972007
mouse_head_joint,3.1200000000000023,0.0467461370734048
mouse_head_joint,3.1400000000000023,0.04596461083890535
mouse_head_joint,3.1600000000000024,0.04639229884057805
mouse_head_joint,3.1800000000000024,0.04754120987792909
mouse_head_joint,3.2000000000000024,0.04613687559662161
mouse_head_joint,3.2200000000000024,0.04616054885002896
mouse_head_joint,3.2400000000000024,0.04762367712101767
mouse_head_joint,3.2600000000000025,0.04750378323063931
mouse_head_joint,3.2800000000000025,0.048398006047832176
mouse_head_joint,3.3000000000000025,0.04704691303891284
mouse_head_joint,3.3200000000000025,0.0449466558459477
mouse_head_joint,3.3400000000000025,0.04512405924173635
mouse_head_joint,3.3600000000000025,0.042405605007934
mouse_head_joint,3.3800000000000026,0.0410222802384439
mouse_head_joint,3.4000000000000026,0.04011702057427691
mouse_head_joint,3.4200000000000026,0.041059221165785864
mouse_head_joint,3.4400000000000026,0.04291159060625471
mouse_head_joint,3.4600000000000026,0.043094775258940565
mouse_head_joint,3.4800000000000026,0.04098347506832223
mouse_head_joint,3.5000000000000027,0.035802285142341184
mouse_head_joint,3.5200000000000027,0.030542609524847997
mouse_head_joint,3.5400000000000027,0.029042054759021774
mouse_head_joint,3.5600000000000027,0.028812485987284475
mouse_head_joint,3.5800000000000027,0.028211912803202566
mouse_head_joint,3.6000000000000028,0.027722958699158085
mouse_head_joint,3.6200000000000028,0.028383292311500163
mouse_head_joint,3.640000000000003,0.02533946492293193
mouse_head_joint,3.660000000000003,0.023351816963919525
mouse_head_joint,3.680000000000003,0.02334862080116551
mouse_head_joint,3.700000000000003,0.023833413989604146
mouse_head_joint,3.720000000000003,0.024897745868418752
mouse_head_joint,3.740000000000003,0.028551022141313
mouse_head_joint,3.760000000000003,0.029725813723342043
mouse_head_joint,3.780000000000003,0.03008840335789209
mouse_head_joint,3.800000000000003,0.030650902543484904
mouse_head_joint,3.820000000000003,0.030869555472990307
mouse_head_joint,3.840000000000003,0.03030902312337691
mouse_head_joint,3.860000000000003,0.03028397139429817
mouse_head_joint,3.880000000000003,0.03109528140597906
mouse_head_joint,3.900000000000003,0.030974478246407422
mouse_head_joint,3.920000000000003,0.030804707053874836
mouse_head_joint,3.940000000000003,0.03033691150407236
mouse_head_joint,3.960000000000003,0.028288778882249233
mouse_head_joint,3.980000000000003,0.026455831282026665
mouse_head_joint,4.000000000000003,0.02644415519190524
mouse_head_joint,4.020000000000002,0.02586561502161544
mouse_head_joint,4.040000000000002,0.026854344164760846
mouse_head_joint,4.060000000000001,0.025008821905293743
mouse_head_joint,4.080000000000001,0.02230293413771811
mouse_head_joint,4.1000000000000005,0.021870588463201557
mouse_head_joint,4.12,0.02083816979582842
mouse_head_joint,4.14,0.02225061839620235
mouse_head_joint,4.159999999999999,0.025606755484978372
mouse_head_joint,4.179999999999999,0.024826597000564554
mouse_head_joint,4.199999999999998,0.024532288619569798
mouse_head_joint,4.219999999999998,0.02286941925217789
mouse_head_joint,4.2399999999999975,0.0221208666210142
mouse_head_joint,4.259999999999997,0.021709277142519134
mouse_head_joint,4.279999999999997,0.02283930813316548
mouse_head_joint,4.299999999999996,0.023344003637404853
mouse_head_joint,4.319999999999996,0.023789286392564613
mouse_head_joint,4.339999999999995,0.024088273024879925
mouse_head_joint,4.359999999999995,0.022486110434742912
mouse_head_joint,4.379999999999995,0.024343141721085537
mouse_head_joint,4.399999999999994,0.024774655516960564
mouse_head_joint,4.419999999999994,0.023234129928901837
mouse_head_joint,4.439999999999993,0.022730294923801075
mouse_head_joint,4.459999999999993,0.024744367706637682
mouse_head_joint,4.479999999999992,0.024383205823142795
mouse_head_joint,4.499999999999992,0.022313820031581777
mouse_head_joint,4.519999999999992,0.02329772476301528
mouse_head_joint,4.539999999999991,0.021547325529173378
mouse_head_joint,4.559999999999991,0.019972205347387195
mouse_head_joint,4.57999999999999,0.020942640330720685
mouse_head_joint,4.59999999999999,0.02363335761561558
mouse_head_joint,4.6199999999999894,0.024698834885012566
mouse_head_joint,4.639999999999989,0.022710600083201804
mouse_head_joint,4.659999999999989,0.02304506880278634
mouse_head_joint,4.679999999999988,0.022542268204470695
mouse_head_joint,4.699999999999988,0.019549734248613504
mouse_head_joint,4.719999999999987,0.02219587782746224
mouse_head_joint,4.739999999999987,0.022803957482828707
mouse_head_joint,4.7599999999999865,0.0197298990481638
mouse_head_joint,4.779999999999986,0.017598766922203524
mouse_head_joint,4.799999999999986,0.01438138551873891
mouse_head_joint,4.819999999999985,0.016436078799265452
mouse_head_joint,4.839999999999985,0.019678410012657466
mouse_head_joint,4.859999999999984,0.021073503450559805
mouse_head_joint,4.879999999999984,0.022792118379181936
mouse_head_joint,4.8999999999999835,0.021601344053139293
mouse_head_joint,4.919999999999983,0.01934500299003883
mouse_head_joint,4.939999999999983,0.019745083257624252
mouse_head_joint,4.959999999999982,0.022713377117826283
mouse_head_joint,4.979999999999982,0.024045953176103474
mouse_head_joint,4.999999999999981,0.024605716621394436
mouse_head_joint,5.019999999999981,0.0252683822343176
mouse_head_joint,5.0399999999999805,0.025357037500201685
mouse_head_joint,5.05999999999998,0.026047532737265122
mouse_head_joint,5.07999999999998,0.027126704351962516
mouse_head_joint,5.099999999999979,0.02823885922802294
mouse_head_joint,5.119999999999979,0.02865578396165347
mouse_head_joint,5.139999999999978,0.030163283472631086
mouse_head_joint,5.159999999999978,0.03184271180369436
mouse_head_joint,5.1799999999999775,0.02989150079209857
mouse_head_joint,5.199999999999977,0.030998916735898163
mouse_head_joint,5.219999999999977,0.03512874294666446
mouse_head_joint,5.239999999999976,0.0352157175247747
mouse_head_joint,5.259999999999976,0.03541044710213015
mouse_head_joint,5.279999999999975,0.038083681466609676
mouse_head_joint,5.299999999999975,0.03793993842365406
mouse_head_joint,5.3199999999999745,0.035215589105798806
mouse_head_joint,5.339999999999974,0.032871228630320104
mouse_head_joint,5.359999999999974,0.03222588561773421
mouse_head_joint,5.379999999999973,0.03062811308103086
mouse_head_joint,5.399999999999973,0.03084463549253247
mouse_head_joint,5.419999999999972,0.029941987330403208
mouse_head_joint,5.439999999999972,0.025749379940398498
mouse_head_joint,5.4599999999999715,0.0241789809826658
mouse_head_joint,5.479999999999971,0.02572633998536844
mouse_head_joint,5.499999999999971,0.02673976086654406
mouse_head_joint,5.51999999999997,0.02703905727062672
mouse_head_joint,5.53999999999997,0.027062382176441524
mouse_head_joint,5.559999999999969,0.028253526631314863
mouse_head_joint,5.579999999999969,0.028099133712929714
mouse_head_joint,5.599999999999969,0.027894382493017567
mouse_head_joint,5.619999999999968,0.022925265117184956
mouse_head_joint,5.639999999999968,0.01813502343944773
mouse_head_joint,5.659999999999967,0.018929235389792964
mouse_head_joint,5.679999999999967,0.018680141077506818
mouse_head_joint,5.699999999999966,0.01838546919333517
mouse_head_joint,5.719999999999966,0.0188108849837354
mouse_head_joint,5.739999999999966,0.01727889564192342
mouse_head_joint,5.759999999999965,0.01708798007496437
mouse_head_joint,5.779999999999965,0.01886368506067182
mouse_head_joint,5.799999999999964,0.021671812512175315
mouse_head_joint,5.819999999999964,0.022722035206168556
mouse_head_joint,5.839999999999963,0.0201890303485861
mouse_head_joint,5.859999999999963,0.019728971794442884
mouse_head_joint,5.879999999999963,0.02055408046005258
mouse_head_joint,5.899999999999962,0.02008726867888555
mouse_head_joint,5.919999999999962,0.022880423999749766
mouse_head_joint,5.939999999999961,0.022785649606970715
mouse_head_joint,5.959999999999961,0.021251852281908512
mouse_head_joint,5.9799999999999605,0.022409828710908464
mouse_head_joint,5.99999999999996,0.024279531583602854
mouse_head_joint,6.01999999999996,0.02537231043523569
mouse_head_joint,6.039999999999959,0.023601175101822136
mouse_head_joint,6.059999999999959,0.022807464855724824
mouse_head_joint,6.079999999999958,0.022849845375759514
mouse_head_joint,6.099999999999958,0.02250674983646661
mouse_head_joint,6.1199999999999575,0.022201408645508458
mouse_head_joint,6.139999999999957,0.022156472056678034
mouse_head_joint,6.159999999999957,0.02220976454360457
mouse_head_joint,6.179999999999956,0.02200447994411192
mouse_head_joint,6.199999999999956,0.021974628632495552
mouse_head_joint,6.219999999999955,0.023308636043902098
mouse_head_joint,6.239999999999955,0.024178775935085106
mouse_head_joint,6.2599999999999545,0.024600430454229105
mouse_head_joint,6.279999999999954,0.026250046317881193
mouse_head_joint,6.299999999999954,0.027764291729033275
mouse_head_joint,6.319999999999953,0.029511659937448087
mouse_head_joint,6.339999999999953,0.03160163390521831
mouse_head_joint,6.359999999999952,0.032308760513275914
mouse_head_joint,6.379999999999952,0.03186486304938718
mouse_head_joint,6.3999999999999515,0.030955296435168478
mouse_head_joint,6.419999999999951,0.03300814615726644
mouse_head_joint,6.439999999999951,0.037592655165341604
mouse_head_joint,6.45999999999995,0.03891141201366022
mouse_head_joint,6.47999999999995,0.03997430819446279
mouse_head_joint,6.499999999999949,0.04282936160524109
mouse_head_joint,6.519999999999949,0.04570125265845437
mouse_head_joint,6.5399999999999485,0.046598338573718756
mouse_head_joint,6.559999999999948,0.04355612026460687
mouse_head_joint,6.579999999999948,0.04191840672304181
mouse_head_joint,6.599999999999947,0.04330749484358343
mouse_head_joint,6.619999999999947,0.043848749613355054
mouse_head_joint,6.639999999999946,0.043584349846986115
mouse_head_joint,6.659999999999946,0.04525094889525416
mouse_head_joint,6.6799999999999455,0.046246906856406866
mouse_head_joint,6.699999999999945,0.042677743368813026
mouse_head_joint,6.719999999999945,0.03930382266615595
mouse_head_joint,6.739999999999944,0.03872999723143611
mouse_head_joint,6.759999999999944,0.03822112721820581
mouse_head_joint,6.779999999999943,0.039087896848404746
mouse_head_joint,6.799999999999943,0.04095532991601658
mouse_head_joint,6.8199999999999426,0.04169041475674806
mouse_head_joint,6.839999999999942,0.03898965220046069
mouse_head_joint,6.859999999999942,0.03765194529953053
mouse_head_joint,6.879999999999941,0.03910040096360845
mouse_head_joint,6.899999999999941,0.040070766325773555
mouse_head_joint,6.91999999999994,0.03984745701670178
mouse_head_joint,6.93999999999994,0.03929540548319377
mouse_head_joint,6.95999999999994,0.0406404502094615
mouse_head_joint,6.979999999999939,0.04324417063834929
mouse_head_joint,6.999999999999939,0.04578823842026303
mouse_head_joint,7.019999999999938,0.04569496691367547
mouse_head_joint,7.039999999999938,0.04472922345651398
mouse_head_joint,7.059999999999937,0.04521496667498326
mouse_head_joint,7.079999999999937,0.04501783005473481
mouse_head_joint,7.099999999999937,0.04266353917618293
mouse_head_joint,7.119999999999936,0.04041210195882439
mouse_head_joint,7.139999999999936,0.0401520557994095
mouse_head_joint,7.159999999999935,0.0396921290117378
mouse_head_joint,7.179999999999935,0.040451004764951115
mouse_head_joint,7.1999999999999345,0.04236006946603865
mouse_head_joint,7.219999999999934,0.04292767980939427
mouse_head_joint,7.239999999999934,0.04350283388752629
mouse_head_joint,7.259999999999933,0.04419685716416222
mouse_head_joint,7.279999999999933,0.04382951645013122
mouse_head_joint,7.299999999999932,0.04422007457316557
mouse_head_joint,7.319999999999932,0.04363730031168078
mouse_head_joint,7.3399999999999315,0.04286997907828205
mouse_head_joint,7.359999999999931,0.04317855558521888
mouse_head_joint,7.379999999999931,0.04249638210891504
mouse_head_joint,7.39999999999993,0.041121521833787256
mouse_head_joint,7.41999999999993,0.04318963442211299
mouse_head_joint,7.439999999999929,0.04741073469643986
mouse_head_joint,7.459999999999929,0.048390870753782345
mouse_head_joint,7.4799999999999285,0.048595788824747466
mouse_head_joint,7.499999999999928,0.04936059816688143
mouse_head_joint,7.519999999999928,0.047973698163461975
mouse_head_joint,7.539999999999927,0.04699827787317279
mouse_head_joint,7.559999999999927,0.04808377655260099
mouse_head_joint,7.579999999999926,0.04855829360616948
mouse_head_joint,7.599999999999926,0.046114586037514727
mouse_head_joint,7.6199999999999255,0.04188789474042309
mouse_head_joint,7.639999999999925,0.04135806156714583
mouse_head_joint,7.659999999999925,0.04240194399823061
mouse_head_joint,7.679999999999924,0.04267193712513784
mouse_head_joint,7.699999999999924,0.04019634427798824
mouse_head_joint,7.719999999999923,0.0367496334514863
mouse_head_joint,7.739999999999923,0.03663431643576498
mouse_head_joint,7.7599999999999225,0.03952952084118433
mouse_head_joint,7.779999999999922,0.04078649603045292
mouse_head_joint,7.799999999999922,0.04095083913229747
mouse_head_joint,7.819999999999921,0.040611061277645355
mouse_head_joint,7.839999999999921,0.03960560043519745
mouse_head_joint,7.85999999999992,0.04138305043087431
mouse_head_joint,7.87999999999992,0.04438906463859826
mouse_head_joint,7.8999999999999195,0.046276554024246686
mouse_head_joint,7.919999999999919,0.0488937926235975
mouse_head_joint,7.939999999999919,0.04971855626391708
mouse_head_joint,7.959999999999918,0.05049853524877079
mouse_head_joint,7.979999999999918,0.050978205581484026
mouse_head_joint,7.999999999999917,0.04841602549434754
mouse_head_joint,8.019999999999918,0.04307069918876216
mouse_head_joint,8.039999999999917,0.04266364323321081
mouse_head_joint,8.059999999999917,0.0408823315433251
mouse_head_joint,8.079999999999917,0.04176771410861768
mouse_head_joint,8.099999999999916,0.04389514193798316
mouse_head_joint,8.119999999999916,0.044813615212389024
mouse_head_joint,8.139999999999915,0.044949532605182085
mouse_head_joint,8.159999999999915,0.041610580956065846
mouse_head_joint,8.179999999999914,0.03770957126043495
mouse_head_joint,8.199999999999914,0.03882647589648869
mouse_head_joint,8.219999999999914,0.040395663418751226
mouse_head_joint,8.239999999999913,0.04082328809765379
mouse_head_joint,8.259999999999913,0.04039043838839795
mouse_head_joint,8.279999999999912,0.038400369707829896
mouse_head_joint,8.299999999999912,0.03690336607183564
mouse_head_joint,8.319999999999911,0.04070888508392034
mouse_head_joint,8.339999999999911,0.041412754099207305
mouse_head_joint,8.35999999999991,0.04131936015351112
mouse_head_joint,8.37999999999991,0.041377465821219594
mouse_head_joint,8.39999999999991,0.04040638610493463
mouse_head_joint,8.41999999999991,0.04099548851390633
mouse_head_joint,8.439999999999909,0.04206550986068702
mouse_head_joint,8.459999999999908,0.039234541793066846
mouse_head_joint,8.479999999999908,0.0366327902834529
mouse_head_joint,8.499999999999908,0.03707192477957477
mouse_head_joint,8.519999999999907,0.03953301947505761
mouse_head_joint,8.539999999999907,0.04007656960762329
mouse_head_joint,8.559999999999906,0.038066252773277576
mouse_head_joint,8.579999999999906,0.03696993478437438
mouse_head_joint,8.599999999999905,0.03606655571645856
mouse_head_joint,8.619999999999905,0.035578709875070835
mouse_head_joint,8.639999999999905,0.03269345819261549
mouse_head_joint,8.659999999999904,0.0293870868275512
mouse_head_joint,8.679999999999904,0.03118237155495507
mouse_head_joint,8.699999999999903,0.03125374731314512
mouse_head_joint,8.719999999999903,0.03071580615744285
mouse_head_joint,8.739999999999903,0.030588895670928373
mouse_head_joint,8.759999999999902,0.030557031014427416
mouse_head_joint,8.779999999999902,0.030408591029893905
mouse_head_joint,8.799999999999901,0.0307874614979875
mouse_head_joint,8.8199999999999,0.033125178697256175
mouse_head_joint,8.8399999999999,0.03569606540933723
mouse_head_joint,8.8599999999999,0.03795558142608346
mouse_head_joint,8.8799999999999,0.042184406056317236
mouse_head_joint,8.899999999999899,0.04110824146749881
mouse_head_joint,8.919999999999899,0.04368438367040994
mouse_head_joint,8.939999999999898,0.049149722486696135
mouse_head_joint,8.959999999999898,0.053282018615465
mouse_head_joint,8.979999999999897,0.0563917937621321
mouse_head_joint,8.999999999999897,0.05564914009814537
mouse_head_joint,9.019999999999897,0.05631498277183322
mouse_head_joint,9.039999999999896,0.0555790927600146
mouse_head_joint,9.059999999999896,0.05206090593766888
mouse_head_joint,9.079999999999895,0.050554326052250076
mouse_head_joint,9.099999999999895,0.05051323704773836
mouse_head_joint,9.119999999999894,0.04986835337171058
mouse_head_joint,9.139999999999894,0.04613248035954065
mouse_head_joint,9.159999999999894,0.04012850896556586
mouse_head_joint,9.179999999999893,0.03559516792926232
mouse_head_joint,9.199999999999893,0.03634341216590631
mouse_head_joint,9.219999999999892,0.0349121635922609
mouse_head_joint,9.239999999999892,0.03398402149362756
mouse_head_joint,9.259999999999891,0.035357288970165435
mouse_head_joint,9.279999999999891,0.03482625203702483
mouse_head_joint,9.29999999999989,0.029994089136300417
mouse_head_joint,9.31999999999989,0.026053034922318474
mouse_head_joint,9.33999999999989,0.025544293762925996
mouse_head_joint,9.35999999999989,0.02513771902863393
mouse_head_joint,9.379999999999889,0.02424636783876455
mouse_head_joint,9.399999999999888,0.021404531143651262
mouse_head_joint,9.419999999999888,0.019209003171782868
mouse_head_joint,9.439999999999888,0.021953148060052996
mouse_head_joint,9.459999999999887,0.024598835757477566
mouse_head_joint,9.479999999999887,0.02485379633084861
mouse_head_joint,9.499999999999886,0.02547046270180431
mouse_head_joint,9.519999999999886,0.026429951219809844
mouse_head_joint,9.539999999999885,0.025251973565471708
mouse_head_joint,9.559999999999885,0.025310958901030745
mouse_head_joint,9.579999999999885,0.026452326598172426
mouse_head_joint,9.599999999999884,0.027244519256024446
mouse_head_joint,9.619999999999884,0.026506457742139666
mouse_head_joint,9.639999999999883,0.0226594846285062
mouse_head_joint,9.659999999999883,0.021347547267775546
mouse_head_joint,9.679999999999882,0.019680247164134634
mouse_head_joint,9.699999999999882,0.017074026878897364
mouse_head_joint,9.719999999999882,0.017051678127346648
mouse_head_joint,9.739999999999881,0.016765330676905776
mouse_head_joint,9.75999999999988,0.015388893402658255
mouse_head_joint,9.77999999999988,0.013619947092641027
mouse_head_joint,9.79999999999988,0.014859811315487192
mouse_head_joint,9.81999999999988,0.01944423278533325
mouse_head_joint,9.839999999999879,0.022891598245921685
mouse_head_joint,9.859999999999879,0.02321272005969366
mouse_head_joint,9.879999999999878,0.023233661017198592
mouse_head_joint,9.899999999999878,0.024514133197309995
mouse_head_joint,9.919999999999877,0.02264052548627049
mouse_head_joint,9.939999999999877,0.021567323600619304
mouse_head_joint,9.959999999999877,0.024126321168719045
mouse_head_joint,9.979999999999876,0.027572259797576493
mouse_head_joint,9.999999999999876,0.026627011071465034
mouse_head_joint,10.019999999999875,0.026845888736374057
mouse_head_joint,10.039999999999875,0.028656276869064357
mouse_head_joint,10.059999999999874,0.028033690510262943
mouse_head_joint,10.079999999999874,0.028610474216881343
mouse_head_joint,10.099999999999874,0.02935870581007549
mouse_head_joint,10.119999999999873,0.029713336210961394
mouse_head_joint,10.139999999999873,0.03151652307493347
mouse_head_joint,10.159999999999872,0.03083111894539403
mouse_head_joint,10.179999999999872,0.029175671016512972
mouse_head_joint,10.199999999999871,0.029504676617928993
mouse_head_joint,10.219999999999871,0.0298681418251876
mouse_head_joint,10.23999999999987,0.027812278934484347
mouse_head_joint,10.25999999999987,0.026804012195660754
mouse_head_joint,10.27999999999987,0.02645654431254041
mouse_head_joint,10.29999999999987,0.026458580984785485
mouse_head_joint,10.319999999999869,0.025517724083572446
mouse_head_joint,10.339999999999868,0.022522773748889335
mouse_head_joint,10.359999999999868,0.020712756889198047
mouse_head_joint,10.379999999999868,0.020661543194380627
mouse_head_joint,10.399999999999867,0.01971945437566447
mouse_head_joint,10.419999999999867,0.019112570098759996
mouse_head_joint,10.439999999999866,0.019586963135092006
mouse_head_joint,10.459999999999866,0.01940457849751276
mouse_head_joint,10.479999999999865,0.018833240067893442
mouse_head_joint,10.499999999999865,0.017028760572454615
mouse_head_joint,10.519999999999865,0.017129470351139098
mouse_head_joint,10.539999999999864,0.01822499264264721
mouse_head_joint,10.559999999999864,0.015250120293343272
mouse_head_joint,10.579999999999863,0.013336663080815825
mouse_head_joint,10.599999999999863,0.013558162023196374
mouse_head_joint,10.619999999999862,0.015855168169528255
mouse_head_joint,10.639999999999862,0.019209298111292128
mouse_head_joint,10.659999999999862,0.02201653683930349
mouse_head_joint,10.679999999999861,0.024727623359938278
mouse_head_joint,10.69999999999986,0.02541301514075478
mouse_head_joint,10.71999999999986,0.02593973586498155
mouse_head_joint,10.73999999999986,0.026539083577294953
mouse_head_joint,10.75999999999986,0.024811838592646573
mouse_head_joint,10.779999999999859,0.023518691887943532
mouse_head_joint,10.799999999999859,0.02474407965714498
mouse_head_joint,10.819999999999858,0.024517933935612746
mouse_head_joint,10.839999999999858,0.02360460283052568
mouse_head_joint,10.859999999999857,0.02505607031590973
mouse_head_joint,10.879999999999857,0.025252272069744564
mouse_head_joint,10.899999999999856,0.026402662171746805
mouse_head_joint,10.919999999999856,0.029591729485588303
mouse_head_joint,10.939999999999856,0.030458191303770477
mouse_head_joint,10.959999999999855,0.02857920552441584
mouse_head_joint,10.979999999999855,0.03014410350450447
mouse_head_joint,10.999999999999854,0.03434225613017272
mouse_head_joint,11.019999999999854,0.03872589114959002
mouse_head_joint,11.039999999999853,0.040869540461017984
mouse_head_joint,11.059999999999853,0.04207448892666754
mouse_head_joint,11.079999999999853,0.043882043818904926
mouse_head_joint,11.099999999999852,0.04534307465128151
mouse_head_joint,11.119999999999852,0.04406824597174541
mouse_head_joint,11.139999999999851,0.04350267288337761
mouse_head_joint,11.159999999999851,0.04257905721245869
mouse_head_joint,11.17999999999985,0.04235907124118743
mouse_head_joint,11.19999999999985,0.04353131794733933
mouse_head_joint,11.21999999999985,0.04229561243860047
mouse_head_joint,11.23999999999985,0.0388317674599179
mouse_head_joint,11.259999999999849,0.038162201729408096
mouse_head_joint,11.279999999999848,0.03922966665468852
mouse_head_joint,11.299999999999848,0.03867045633637911
mouse_head_joint,11.319999999999848,0.035113371530170134
mouse_head_joint,11.339999999999847,0.03225591528911753
mouse_head_joint,11.359999999999847,0.030977746809740303
mouse_head_joint,11.379999999999846,0.029783857535488956
mouse_head_joint,11.399999999999846,0.029554947163728862
mouse_head_joint,11.419999999999845,0.0315945962886266
mouse_head_joint,11.439999999999845,0.033040748799753494
mouse_head_joint,11.459999999999845,0.032163072516194546
mouse_head_joint,11.479999999999844,0.03319717548473822
mouse_head_joint,11.499999999999844,0.03398858182200826
mouse_head_joint,11.519999999999843,0.034316143149894174
mouse_head_joint,11.539999999999843,0.03352895828036395
mouse_head_joint,11.559999999999842,0.034040436366973736
mouse_head_joint,11.579999999999842,0.03513759533384686
mouse_head_joint,11.599999999999842,0.03539286648459328
mouse_head_joint,11.619999999999841,0.034494229515432906
mouse_head_joint,11.63999999999984,0.032859296936697646
mouse_head_joint,11.65999999999984,0.03344102141615313
mouse_head_joint,11.67999999999984,0.03447939505199127
mouse_head_joint,11.69999999999984,0.03323902480174734
mouse_head_joint,11.719999999999839,0.03128179841087242
mouse_head_joint,11.739999999999839,0.02946927966521251
mouse_head_joint,11.759999999999838,0.029076108676824752
mouse_head_joint,11.779999999999838,0.02842620322187539
mouse_head_joint,11.799999999999837,0.02888075154892711
mouse_head_joint,11.819999999999837,0.029419442811765784
mouse_head_joint,11.839999999999836,0.03112514781217879
mouse_head_joint,11.859999999999836,0.03083765703107133
mouse_head_joint,11.879999999999836,0.031073434685565005
mouse_head_joint,11.899999999999835,0.03329556990174076
mouse_head_joint,11.919999999999835,0.033207992649689544
mouse_head_joint,11.939999999999834,0.034120201488097024
mouse_head_joint,11.959999999999834,0.03446534346762764
mouse_head_joint,11.979999999999833,0.03235655013064953
mouse_head_joint,11.999999999999833,0.03045126831949574
mouse_head_joint,12.019999999999833,0.03194382323885403
mouse_head_joint,12.039999999999832,0.03375801687908986
mouse_head_joint,12.059999999999832,0.03387145028695748
mouse_head_joint,12.079999999999831,0.03464615051492004
mouse_head_joint,12.099999999999831,0.0340598790110338
mouse_head_joint,12.11999999999983,0.033374223015705695
mouse_head_joint,12.13999999999983,0.03446393736830533
mouse_head_joint,12.15999999999983,0.035605006738778755
mouse_head_joint,12.17999999999983,0.0366033314186307
mouse_head_joint,12.199999999999829,0.040342049270130964
mouse_head_joint,12.219999999999828,0.04315522160288143
mouse_head_joint,12.239999999999828,0.041229933227319826
mouse_head_joint,12.259999999999827,0.0397783916813621
mouse_head_joint,12.279999999999827,0.03879017134750118
mouse_head_joint,12.299999999999827,0.04002962373828911
mouse_head_joint,12.319999999999826,0.042079514032757004
mouse_head_joint,12.339999999999826,0.04261020380587244
mouse_head_joint,12.359999999999825,0.04114348364115106
mouse_head_joint,12.379999999999825,0.03935329699389456
mouse_head_joint,12.399999999999824,0.04069627196284742
mouse_head_joint,12.419999999999824,0.04260830523956649
mouse_head_joint,12.439999999999824,0.043731979117816344
mouse_head_joint,12.459999999999823,0.04261262447087777
mouse_head_joint,12.479999999999823,0.04150852446909692
mouse_head_joint,12.499999999999822,0.039786045072044196
mouse_head_joint,12.519999999999822,0.03475162620731442
mouse_head_joint,12.539999999999822,0.03069099911562123
mouse_head_joint,12.559999999999821,0.03183290228817803
mouse_head_joint,12.57999999999982,0.03093455670558498
mouse_head_joint,12.59999999999982,0.03041761287278888
mouse_head_joint,12.61999999999982,0.03244497414844272
mouse_head_joint,12.63999999999982,0.03415480820831096
mouse_head_joint,12.659999999999819,0.03562193410215819
mouse_head_joint,12.679999999999819,0.03816710521347044
mouse_head_joint,12.699999999999818,0.033481853920281246
mouse_head_joint,12.719999999999818,0.02898737562367426
mouse_head_joint,12.739999999999817,0.029205515346196087
mouse_head_joint,12.759999999999817,0.02972033198078705
mouse_head_joint,12.779999999999816,0.0326491202662238
mouse_head_joint,12.799999999999816,0.033205312240213836
mouse_head_joint,12.819999999999816,0.031372353520713325
mouse_head_joint,12.839999999999815,0.03162807149948943
mouse_head_joint,12.859999999999815,0.031621720696246136
mouse_head_joint,12.879999999999814,0.03022152889420493
mouse_head_joint,12.899999999999814,0.03062132450641375
mouse_head_joint,12.919999999999813,0.031854334667094975
mouse_head_joint,12.939999999999813,0.03247048029574451
mouse_head_joint,12.959999999999813,0.03327718534414892
mouse_head_joint,12.979999999999812,0.03204419629646438
mouse_head_joint,12.999999999999812,0.03163498090965433
mouse_head_joint,13.019999999999811,0.033325841454872496
mouse_head_joint,13.03999999999981,0.035652922333096804
mouse_head_joint,13.05999999999981,0.03885090033294425
mouse_head_joint,13.07999999999981,0.042439100129966434
mouse_head_joint,13.09999999999981,0.04772319114354051
mouse_head_joint,13.11999999999981,0.05062107975227459
mouse_head_joint,13.139999999999809,0.05126223810867803
mouse_head_joint,13.159999999999808,0.049775446206512974
mouse_head_joint,13.179999999999808,0.04772560530620229
mouse_head_joint,13.199999999999807,0.04706205971361488
mouse_head_joint,13.219999999999807,0.04687308545396984
mouse_head_joint,13.239999999999807,0.0468078083274408
mouse_head_joint,13.259999999999806,0.04734753807274483
mouse_head_joint,13.279999999999806,0.04727034403863861
mouse_head_joint,13.299999999999805,0.04721462688395306
mouse_head_joint,13.319999999999805,0.04987305071264192
mouse_head_joint,13.339999999999804,0.05249956329787597
mouse_head_joint,13.359999999999804,0.05366704255976451
mouse_head_joint,13.379999999999804,0.05422165127454992
mouse_head_joint,13.399999999999803,0.05304896612827559
mouse_head_joint,13.419999999999803,0.05238502808606338
mouse_head_joint,13.439999999999802,0.05201024818800182
mouse_head_joint,13.459999999999802,0.052951417724067085
mouse_head_joint,13.479999999999801,0.0538164960801808
mouse_head_joint,13.499999999999801,0.0522946397549493
mouse_head_joint,13.5199999999998,0.051738477857400156
mouse_head_joint,13.5399999999998,0.05028353382545525
mouse_head_joint,13.5599999999998,0.0463616306329957
mouse_head_joint,13.5799999999998,0.04581427233445101
mouse_head_joint,13.599999999999799,0.04595607009113678
mouse_head_joint,13.619999999999798,0.04443304510163415
mouse_head_joint,13.639999999999798,0.043102885106526045
mouse_head_joint,13.659999999999798,0.04273355700192916
mouse_head_joint,13.679999999999797,0.04232533040991271
mouse_head_joint,13.699999999999797,0.04176689564264002
mouse_head_joint,13.719999999999796,0.0441433028121736
mouse_head_joint,13.739999999999796,0.045388906481259816
mouse_head_joint,13.759999999999796,0.0463006096514782
mouse_head_joint,13.779999999999795,0.04655020720316827
mouse_head_joint,13.799999999999795,0.04590508541327232
mouse_head_joint,13.819999999999794,0.04527356586729692
mouse_head_joint,13.839999999999794,0.045757282683875466
mouse_head_joint,13.859999999999793,0.04655493670749156
mouse_head_joint,13.879999999999793,0.048181005441444213
mouse_head_joint,13.899999999999793,0.048959354508357755
mouse_head_joint,13.919999999999792,0.051798543634522076
mouse_head_joint,13.939999999999792,0.05464186883573241
mouse_head_joint,13.959999999999791,0.05466071777499515
mouse_head_joint,13.97999999999979,0.05367069953363668
mouse_head_joint,13.99999999999979,0.05210364813676449
mouse_head_joint,14.01999999999979,0.05177125330050458
mouse_head_joint,14.03999999999979,0.051301267573059306
mouse_head_joint,14.059999999999789,0.05032457291676984
mouse_head_joint,14.079999999999789,0.046457760646413604
mouse_head_joint,14.099999999999788,0.041973530384218805
mouse_head_joint,14.119999999999788,0.037838091099704485
mouse_head_joint,14.139999999999787,0.03414781006559586
mouse_head_joint,14.159999999999787,0.030258931850312365
mouse_head_joint,14.179999999999787,0.024997211036872358
mouse_head_joint,14.199999999999786,0.02424021647525798
mouse_head_joint,14.219999999999786,0.02615895153096126
mouse_head_joint,14.239999999999785,0.025013576651542024
mouse_head_joint,14.259999999999785,0.024124658773595264
mouse_head_joint,14.279999999999784,0.0251697191306004
mouse_head_joint,14.299999999999784,0.024500515878211004
mouse_head_joint,14.319999999999784,0.02488534297877898
mouse_head_joint,14.339999999999783,0.02746691049159722
mouse_head_joint,14.359999999999783,0.03134087227306015
mouse_head_joint,14.379999999999782,0.033300552495298064
mouse_head_joint,14.399999999999782,0.033457313386016097
mouse_head_joint,14.419999999999781,0.033299827421529926
mouse_head_joint,14.439999999999781,0.03451212250801028
mouse_head_joint,14.45999999999978,0.03710258809404632
mouse_head_joint,14.47999999999978,0.03731877071811507
mouse_head_joint,14.49999999999978,0.03798525633123173
mouse_head_joint,14.51999999999978,0.03907791349757428
mouse_head_joint,14.539999999999779,0.041078581258445546
mouse_head_joint,14.559999999999778,0.04495557511243842
mouse_head_joint,14.579999999999778,0.044728900411637795
mouse_head_joint,14.599999999999778,0.04326447544960743
mouse_head_joint,14.619999999999777,0.042285580330192474
mouse_head_joint,14.639999999999777,0.03942367998676488
mouse_head_joint,14.659999999999776,0.037676665131479936
mouse_head_joint,14.679999999999776,0.038199099470010545
mouse_head_joint,14.699999999999775,0.036563613859835975
mouse_head_joint,14.719999999999775,0.031996462879479104
mouse_head_joint,14.739999999999775,0.02912580545364296
mouse_head_joint,14.759999999999774,0.02907815313075446
mouse_head_joint,14.779999999999774,0.02952629128036932
mouse_head_joint,14.799999999999773,0.0323062550629718
mouse_head_joint,14.819999999999773,0.03524605011699489
mouse_head_joint,14.839999999999772,0.038195646021007335
mouse_head_joint,14.859999999999772,0.038730926885746086
mouse_head_joint,14.879999999999772,0.03949661339741173
mouse_head_joint,14.899999999999771,0.03969591056348598
mouse_head_joint,14.91999999999977,0.039481302937788065
mouse_head_joint,14.93999999999977,0.039833174917037084
mouse_head_joint,14.95999999999977,0.03984560534418957
mouse_head_joint,14.97999999999977,0.03931960528633649
mouse_head_joint,14.999999999999769,0.03831858882343564
mouse_head_joint,15.019999999999769,0.03738376233317897
mouse_head_joint,15.039999999999768,0.03817601631694423
mouse_head_joint,15.059999999999768,0.03951439387860578
mouse_head_joint,15.079999999999767,0.041673068110222644
mouse_head_joint,15.099999999999767,0.041675730428745617
mouse_head_joint,15.119999999999767,0.0405159121190648
mouse_head_joint,15.139999999999766,0.036913270815399635
mouse_head_joint,15.159999999999766,0.034547640506091604
mouse_head_joint,15.179999999999765,0.032777850963997324
mouse_head_joint,15.199999999999765,0.03284432841963181
mouse_head_joint,15.219999999999764,0.03337631595667112
mouse_head_joint,15.239999999999764,0.0347266359960301
mouse_head_joint,15.259999999999764,0.03492014375318231
mouse_head_joint,15.279999999999763,0.03449339876672486
mouse_head_joint,15.299999999999763,0.034379251164462055
mouse_head_joint,15.319999999999762,0.03417686916425122
mouse_head_joint,15.339999999999762,0.03316877234138094
mouse_head_joint,15.359999999999761,0.03206308446660966
mouse_head_joint,15.379999999999761,0.03255081068819887
mouse_head_joint,15.39999999999976,0.033042033012549155
mouse_head_joint,15.41999999999976,0.0325898697133713
mouse_head_joint,15.43999999999976,0.031194614794555875
mouse_head_joint,15.45999999999976,0.029804873818021882
mouse_head_joint,15.479999999999759,0.031302688529875944
mouse_head_joint,15.499999999999758,0.032867817805057875
mouse_head_joint,15.519999999999758,0.03316326124659508
mouse_head_joint,15.539999999999758,0.03301023911119216
mouse_head_joint,15.559999999999757,0.027363335040956116
mouse_head_joint,15.579999999999757,0.024632066962641197
mouse_head_joint,15.599999999999756,0.02609739535995015
mouse_head_joint,15.619999999999756,0.02754371768318542
mouse_head_joint,15.639999999999755,0.02625574593876223
mouse_head_joint,15.659999999999755,0.02612891025130537
mouse_head_joint,15.679999999999755,0.027038942773065955
mouse_head_joint,15.699999999999754,0.026498779012046114
mouse_head_joint,15.719999999999754,0.0286100517009924
mouse_head_joint,15.739999999999753,0.028409399912981748
mouse_head_joint,15.759999999999753,0.02679005854652683
mouse_head_joint,15.779999999999752,0.02744891460650667
mouse_head_joint,15.799999999999752,0.028061827271637974
mouse_head_joint,15.819999999999752,0.027998773926245946
mouse_head_joint,15.839999999999751,0.025187596726098604
mouse_head_joint,15.85999999999975,0.02331774858195068
mouse_head_joint,15.87999999999975,0.022501492257203992
mouse_head_joint,15.89999999999975,0.021237895471355905
mouse_head_joint,15.91999999999975,0.02104011508037562
mouse_head_joint,15.939999999999749,0.023993919055794066
mouse_head_joint,15.959999999999749,0.028592335445131845
mouse_head_joint,15.979999999999748,0.028388433078403885
mouse_head_joint,15.999999999999748,0.029370644868122575
mouse_head_joint,16.019999999999747,0.02977740039607113
mouse_head_joint,16.039999999999747,0.029443115274579768
mouse_head_joint,16.059999999999746,0.030471341803296248
mouse_head_joint,16.079999999999746,0.029486930382345733
mouse_head_joint,16.099999999999746,0.028811527191896502
mouse_head_joint,16.119999999999745,0.030402937978925237
mouse_head_joint,16.139999999999745,0.03095908194507757
mouse_head_joint,16.159999999999744,0.03051178307060365
mouse_head_joint,16.179999999999744,0.031756120791917475
mouse_head_joint,16.199999999999743,0.03326707212320201
mouse_head_joint,16.219999999999743,0.03325107237457825
mouse_head_joint,16.239999999999743,0.030678754241333372
mouse_head_joint,16.259999999999742,0.028811470368434122
mouse_head_joint,16.279999999999742,0.02848753778550872
mouse_head_joint,16.29999999999974,0.02729297847378387
mouse_head_joint,16.31999999999974,0.02874188546102463
mouse_head_joint,16.33999999999974,0.028891533407751524
mouse_head_joint,16.35999999999974,0.02918842985505421
mouse_head_joint,16.37999999999974,0.028014613909686403
mouse_head_joint,16.39999999999974,0.028475561253923587
mouse_head_joint,16.41999999999974,0.029045915675511402
mouse_head_joint,16.43999999999974,0.029265443478227127
mouse_head_joint,16.459999999999738,0.02898596493224126
mouse_head_joint,16.479999999999738,0.030715302295564406
mouse_head_joint,16.499999999999737,0.03207003608441994
mouse_head_joint,16.519999999999737,0.03404497684247598
mouse_head_joint,16.539999999999736,0.03649161856349448
mouse_head_joint,16.559999999999736,0.0351829159829693
mouse_head_joint,16.579999999999735,0.03637482498776734
mouse_head_joint,16.599999999999735,0.03897002971247954
mouse_head_joint,16.619999999999735,0.03921039973295937
mouse_head_joint,16.639999999999734,0.03854935357290934
mouse_head_joint,16.659999999999734,0.03882224641868692
mouse_head_joint,16.679999999999733,0.037243848532068746
mouse_head_joint,16.699999999999733,0.03421699904091202
mouse_head_joint,16.719999999999732,0.032015968437971054
mouse_head_joint,16.739999999999732,0.030485265367437897
mouse_head_joint,16.75999999999973,0.02948292428538668
mouse_head_joint,16.77999999999973,0.03052464661915888
mouse_head_joint,16.79999999999973,0.030152748915639016
mouse_head_joint,16.81999999999973,0.03013482482325891
mouse_head_joint,16.83999999999973,0.030707186278168486
mouse_head_joint,16.85999999999973,0.029588152130872736
mouse_head_joint,16.87999999999973,0.02971164476826882
mouse_head_joint,16.89999999999973,0.032935052143431065
mouse_head_joint,16.919999999999728,0.032529428641617564
mouse_head_joint,16.939999999999728,0.02776312946211501
mouse_head_joint,16.959999999999727,0.02238461618715437
mouse_head_joint,16.979999999999727,0.01851891807992878
mouse_head_joint,16.999999999999726,0.017807431811494467
mouse_head_joint,17.019999999999726,0.015113074943107208
mouse_head_joint,17.039999999999726,0.012455352045124712
mouse_head_joint,17.059999999999725,0.011723559491700897
mouse_head_joint,17.079999999999725,0.011690935897725296
mouse_head_joint,17.099999999999724,0.013199180663034049
mouse_head_joint,17.119999999999724,0.014189869705819369
mouse_head_joint,17.139999999999723,0.013173531797542104
mouse_head_joint,17.159999999999723,0.009422099715213683
mouse_head_joint,17.179999999999723,0.008753514945840202
mouse_head_joint,17.199999999999722,0.011229292182200368
mouse_head_joint,17.21999999999972,0.01337683060751882
mouse_head_joint,17.23999999999972,0.012425001831882554
mouse_head_joint,17.25999999999972,0.011365654093004274
mouse_head_joint,17.27999999999972,0.011672991010301281
mouse_head_joint,17.29999999999972,0.011286614362931324
mouse_head_joint,17.31999999999972,0.011936744441142899
mouse_head_joint,17.33999999999972,0.011698463014456983
mouse_head_joint,17.35999999999972,0.01133727047638633
mouse_head_joint,17.37999999999972,0.012243119803798663
mouse_head_joint,17.399999999999718,0.01255782355409174
mouse_head_joint,17.419999999999717,0.012698873168898395
mouse_head_joint,17.439999999999717,0.012628936231275922
mouse_head_joint,17.459999999999717,0.012274074011925151
mouse_head_joint,17.479999999999716,0.010165169988455958
mouse_head_joint,17.499999999999716,0.008346106638403405
mouse_head_joint,17.519999999999715,0.00742519430662103
mouse_head_joint,17.539999999999715,0.007487931147676541
mouse_head_joint,17.559999999999715,0.012520968819791811
mouse_head_joint,17.579999999999714,0.01404865883099049
mouse_head_joint,17.599999999999714,0.013573447136378647
mouse_head_joint,17.619999999999713,0.014951718241315248
mouse_head_joint,17.639999999999713,0.01761384109270203
mouse_head_joint,17.659999999999712,0.020639507231214438
mouse_head_joint,17.679999999999712,0.02378169720710499
mouse_head_joint,17.69999999999971,0.025332682476888913
mouse_head_joint,17.71999999999971,0.026305501411323817
mouse_head_joint,17.73999999999971,0.027447813638330487
mouse_head_joint,17.75999999999971,0.029328481583321242
mouse_head_joint,17.77999999999971,0.030309755965125973
mouse_head_joint,17.79999999999971,0.027988264224733328
mouse_head_joint,17.81999999999971,0.027743578948717484
mouse_head_joint,17.83999999999971,0.02817453175233009
mouse_head_joint,17.859999999999708,0.02870239682526332
mouse_head_joint,17.879999999999708,0.026885156607376004
mouse_head_joint,17.899999999999707,0.024525935386563447
mouse_head_joint,17.919999999999707,0.02420954150654442
mouse_head_joint,17.939999999999706,0.024656675809764828
mouse_head_joint,17.959999999999706,0.02598171410608341
mouse_head_joint,17.979999999999706,0.028477706851697704
mouse_head_joint,17.999999999999705,0.026328272404136044
mouse_head_joint,18.019999999999705,0.02049518743360501
mouse_head_joint,18.039999999999704,0.021069072039746395
mouse_head_joint,18.059999999999704,0.0226663356088439
mouse_head_joint,18.079999999999703,0.020529415993652655
mouse_head_joint,18.099999999999703,0.01744454973797538
mouse_head_joint,18.119999999999703,0.017476739482918724
mouse_head_joint,18.139999999999702,0.017146602691664903
mouse_head_joint,18.1599999999997,0.015027810092647975
mouse_head_joint,18.1799999999997,0.013455363984410162
mouse_head_joint,18.1999999999997,0.013381487046860485
mouse_head_joint,18.2199999999997,0.013188008646883631
mouse_head_joint,18.2399999999997,0.014918732800695444
mouse_head_joint,18.2599999999997,0.018661423100498453
mouse_head_joint,18.2799999999997,0.01967697944847302
mouse_head_joint,18.2999999999997,0.017332483336399918
mouse_head_joint,18.3199999999997,0.016436253496576292
mouse_head_joint,18.339999999999698,0.01682975599833547
mouse_head_joint,18.359999999999697,0.014291498807649461
mouse_head_joint,18.379999999999697,0.009276303933125618
mouse_head_joint,18.399999999999697,0.00694496243709164
mouse_head_joint,18.419999999999696,0.009123448465316208
mouse_head_joint,18.439999999999696,0.010549800089027173
mouse_head_joint,18.459999999999695,0.008103432000963195
mouse_head_joint,18.479999999999695,0.007250585390575104
mouse_head_joint,18.499999999999694,0.009893147270858549
mouse_head_joint,18.519999999999694,0.012461001939302108
mouse_head_joint,18.539999999999694,0.015091392248066882
mouse_head_joint,18.559999999999693,0.01778757408898457
mouse_head_joint,18.579999999999693,0.01639841442054557
mouse_head_joint,18.599999999999692,0.015117774735279532
mouse_head_joint,18.619999999999692,0.013994478179469638
mouse_head_joint,18.63999999999969,0.011945532481746568
mouse_head_joint,18.65999999999969,0.012542228797397748
mouse_head_joint,18.67999999999969,0.013551651717402358
mouse_head_joint,18.69999999999969,0.012985284709486677
mouse_head_joint,18.71999999999969,0.01341385571398579
mouse_head_joint,18.73999999999969,0.013306604152166557
mouse_head_joint,18.75999999999969,0.012402412058165169
mouse_head_joint,18.77999999999969,0.01302426426755865
mouse_head_joint,18.799999999999688,0.013304975847764133
mouse_head_joint,18.819999999999688,0.013075616526457168
mouse_head_joint,18.839999999999687,0.014587396986241785
mouse_head_joint,18.859999999999687,0.01604503509213906
mouse_head_joint,18.879999999999686,0.01691686375488821
mouse_head_joint,18.899999999999686,0.015346868775010236
mouse_head_joint,18.919999999999686,0.013550436634234941
mouse_head_joint,18.939999999999685,0.011323736309940102
mouse_head_joint,18.959999999999685,0.007267792852950095
mouse_head_joint,18.979999999999684,0.0055675634784631
mouse_head_joint,18.999999999999684,0.004976205961274793
mouse_head_joint,19.019999999999683,0.004230338227646513
mouse_head_joint,19.039999999999683,9.781567682409786e-05
mouse_head_joint,19.059999999999683,-0.0006035800399022406
mouse_head_joint,19.079999999999682,-0.0010063342192676572
mouse_head_joint,19.09999999999968,-0.002144103308163281
mouse_head_joint,19.11999999999968,-0.003570590609375479
mouse_head_joint,19.13999999999968,-0.006592012671541525
mouse_head_joint,19.15999999999968,-0.012551323902615152
mouse_head_joint,19.17999999999968,-0.014969683182444626
mouse_head_joint,19.19999999999968,-0.014670581912923808
mouse_head_joint,19.21999999999968,-0.014915234241716924
mouse_head_joint,19.23999999999968,-0.013726102706633547
mouse_head_joint,19.25999999999968,-0.01079446059944189
mouse_head_joint,19.279999999999678,-0.011246451063170682
mouse_head_joint,19.299999999999677,-0.014189230314890722
mouse_head_joint,19.319999999999677,-0.01624377460949944
mouse_head_joint,19.339999999999677,-0.015403259267857017
mouse_head_joint,19.359999999999676,-0.013252711748764412
mouse_head_joint,19.379999999999676,-0.013161705206398366
mouse_head_joint,19.399999999999675,-0.01423607911050162
mouse_head_joint,19.419999999999675,-0.014318283203837545
mouse_head_joint,19.439999999999674,-0.014471051563271331
mouse_head_joint,19.459999999999674,-0.01301153647572928
mouse_head_joint,19.479999999999674,-0.009028389325767883
mouse_head_joint,19.499999999999673,-0.006685569233876976
mouse_head_joint,19.519999999999673,-0.004504308072260876
mouse_head_joint,19.539999999999672,-0.00363259655517556
mouse_head_joint,19.559999999999672,-0.004624365083757631
mouse_head_joint,19.57999999999967,-0.00771202841281049
mouse_head_joint,19.59999999999967,-0.010157921101311196
mouse_head_joint,19.61999999999967,-0.008447028375146992
mouse_head_joint,19.63999999999967,-0.007422733993814212
mouse_head_joint,19.65999999999967,-0.007682403299477336
mouse_head_joint,19.67999999999967,-0.00406182338896155
mouse_head_joint,19.69999999999967,-0.0013832962193669474
mouse_head_joint,19.71999999999967,-0.0011619162152349816
mouse_head_joint,19.739999999999668,-0.0013208409756257922
mouse_head_joint,19.759999999999668,-0.004007182609265136
mouse_head_joint,19.779999999999667,-0.004579334277895697
mouse_head_joint,19.799999999999667,-0.0034607419497163505
mouse_head_joint,19.819999999999666,-0.0052400632328097885
mouse_head_joint,19.839999999999666,-0.0075137828685845065
mouse_head_joint,19.859999999999665,-0.006766953352189908
mouse_head_joint,19.879999999999665,-0.006752119784808386
mouse_head_joint,19.899999999999665,-0.00844436365642487
mouse_head_joint,19.919999999999664,-0.007205514711075445
mouse_head_joint,19.939999999999664,-0.006328320674134247
mouse_head_joint,19.959999999999663,-0.007507490401719608
mouse_head_joint,19.979999999999663,-0.007716763806373095
mouse_head_joint,19.999999999999662,-0.007682377610888302
mouse_head_joint,20.019999999999662,-0.0070117273422241055
mouse_head_joint,20.03999999999966,-0.003620574469946014
mouse_head_joint,20.05999999999966,-0.0018821062234275487
mouse_head_joint,20.07999999999966,-0.0010065275557460396
mouse_head_joint,20.09999999999966,0.0005377602672753667
mouse_head_joint,20.11999999999966,0.003364564385176294
mouse_head_joint,20.13999999999966,0.005874914481825755
mouse_head_joint,20.15999999999966,0.00515234726188929
mouse_head_joint,20.17999999999966,0.004258046361927725
mouse_head_joint,20.19999999999966,0.004694487846507833
mouse_head_joint,20.219999999999658,0.007305556981896721
mouse_head_joint,20.239999999999657,0.010472213069824932
mouse_head_joint,20.259999999999657,0.010882470276835754
mouse_head_joint,20.279999999999657,0.011950663047713306
mouse_head_joint,20.299999999999656,0.012969172208948443
mouse_head_joint,20.319999999999656,0.012400673445164934
mouse_head_joint,20.339999999999655,0.011469510538970162
mouse_head_joint,20.359999999999655,0.011412754363283817
mouse_head_joint,20.379999999999654,0.012617890164643875
mouse_head_joint,20.399999999999654,0.011042804523508032
mouse_head_joint,20.419999999999654,0.008359600509002085
mouse_head_joint,20.439999999999653,0.00801763567108793
mouse_head_joint,20.459999999999653,0.0073070365982648156
mouse_head_joint,20.479999999999652,0.0073170944773011115
mouse_head_joint,20.499999999999652,0.008247914326394934
mouse_head_joint,20.51999999999965,0.011497932287891643
mouse_head_joint,20.53999999999965,0.014537419040793864
mouse_head_joint,20.55999999999965,0.014842212826133405
mouse_head_joint,20.57999999999965,0.013309833348326805
mouse_head_joint,20.59999999999965,0.010461213807591463
