Name,time,Position
mouse_head_joint,0.0,0.0
mouse_head_joint,0.02,0.0
mouse_head_joint,0.04,0.0
mouse_head_joint,0.06,0.0
mouse_head_joint,0.08,0.0
mouse_head_joint,0.1,0.0
mouse_head_joint,0.12000000000000001,0.0
mouse_head_joint,0.14,0.0
mouse_head_joint,0.16,0.0
mouse_head_joint,0.18,0.0
mouse_head_joint,0.19999999999999998,8.701780469877463e-05
mouse_head_joint,0.21999999999999997,-0.0019383634625862456
mouse_head_joint,0.23999999999999996,-0.00019618625139283807
mouse_head_joint,0.25999999999999995,2.0536393456005442e-05
mouse_head_joint,0.27999999999999997,7.001972373466003e-06
mouse_head_joint,0.3,6.526700548903364e-06
mouse_head_joint,0.32,-6.7253120654697796e-06
mouse_head_joint,0.34,-7.425495728519138e-06
mouse_head_joint,0.36000000000000004,-8.420688910604213e-06
mouse_head_joint,0.38000000000000006,-9.791941016246142e-06
mouse_head_joint,0.4000000000000001,-1.1037211786302237e-05
mouse_head_joint,0.4200000000000001,-1.2660964858746127e-05
mouse_head_joint,0.4400000000000001,-1.4233680885489264e-05
mouse_head_joint,0.46000000000000013,-1.592259072324964e-05
mouse_head_joint,0.48000000000000015,-1.7528585315673695e-05
mouse_head_joint,0.5000000000000001,-1.9375649544350892e-05
mouse_head_joint,0.5200000000000001,-2.1159156720962358e-05
mouse_head_joint,0.5400000000000001,-2.303756649268962e-05
mouse_head_joint,0.5600000000000002,-2.4600070667624152e-05
mouse_head_joint,0.5800000000000002,-2.6420931687809457e-05
mouse_head_joint,0.6000000000000002,-2.821799446639517e-05
mouse_head_joint,0.6200000000000002,-2.9882257669200385e-05
mouse_head_joint,0.6400000000000002,-3.178936499725893e-05
mouse_head_joint,0.6600000000000003,-3.358456254431985e-05
mouse_head_joint,0.6800000000000003,-3.5246317232839885e-05
mouse_head_joint,0.7000000000000003,-0.0008154353975564632
mouse_head_joint,0.7200000000000003,-0.0020881492903077614
mouse_head_joint,0.7400000000000003,-0.0022830592237363945
mouse_head_joint,0.7600000000000003,-0.0023072004101125643
mouse_head_joint,0.7800000000000004,-0.0023101351365886202
mouse_head_joint,0.8000000000000004,-0.0023109962597667177
mouse_head_joint,0.8200000000000004,-0.0023108372696114543
mouse_head_joint,0.8400000000000004,-0.0023112459986522893
mouse_head_joint,0.8600000000000004,-0.0023113211935079647
mouse_head_joint,0.8800000000000004,-0.0023115376810194377
mouse_head_joint,0.9000000000000005,-0.0023115106361446536
mouse_head_joint,0.9200000000000005,-0.002311583904692327
mouse_head_joint,0.9400000000000005,-0.002307731760353704
mouse_head_joint,0.9600000000000005,-0.0022957684708293513
mouse_head_joint,0.9800000000000005,-0.002285023089324767
mouse_head_joint,1.0000000000000004,-0.0022736257325552955
mouse_head_joint,1.0200000000000005,-0.0022614027741889586
mouse_head_joint,1.0400000000000005,-0.002251227468779149
mouse_head_joint,1.0600000000000005,-0.0022395561706920475
mouse_head_joint,1.0800000000000005,-0.002229031476586485
mouse_head_joint,1.1000000000000005,-0.002217465973439303
mouse_head_joint,1.1200000000000006,-0.0022070283535420288
mouse_head_joint,1.1400000000000006,-0.002196214666673413
mouse_head_joint,1.1600000000000006,-0.002185210710949903
mouse_head_joint,1.1800000000000006,-0.0021744872504383395
mouse_head_joint,1.2000000000000006,-0.0021637892184971363
mouse_head_joint,1.2200000000000006,-0.0021521957081329646
mouse_head_joint,1.2400000000000007,-0.002144213224938518
mouse_head_joint,1.2600000000000007,-0.0021303624631023865
mouse_head_joint,1.2800000000000007,-0.002120917991810245
mouse_head_joint,1.3000000000000007,-0.002110862396627944
mouse_head_joint,1.3200000000000007,-0.002099109250469411
mouse_head_joint,1.3400000000000007,-0.002089139656770378
mouse_head_joint,1.3600000000000008,-0.002078138115978234
mouse_head_joint,1.3800000000000008,-0.002066810598904567
mouse_head_joint,1.4000000000000008,-0.00205736371182752
mouse_head_joint,1.4200000000000008,-0.0020471681710283463
mouse_head_joint,1.4400000000000008,-0.0020374056043213074
mouse_head_joint,1.4600000000000009,-0.002026675099163988
mouse_head_joint,1.4800000000000009,-0.002016377214479448
mouse_head_joint,1.5000000000000009,-0.0020063598140183103
mouse_head_joint,1.520000000000001,-0.0019961492168532047
mouse_head_joint,1.540000000000001,-0.001986590185111936
mouse_head_joint,1.560000000000001,-0.0019763064717528422
mouse_head_joint,1.580000000000001,-0.001966210899309928
mouse_head_joint,1.600000000000001,-0.001955311050093833
mouse_head_joint,1.620000000000001,-0.0019463190459676483
mouse_head_joint,1.640000000000001,-0.0019365594749629622
mouse_head_joint,1.660000000000001,-0.001926632384633642
mouse_head_joint,1.680000000000001,-0.001916337467796403
mouse_head_joint,1.700000000000001,-0.001907721920826333
mouse_head_joint,1.720000000000001,-0.0018978979738006885
mouse_head_joint,1.740000000000001,-0.0018877432213360024
mouse_head_joint,1.7600000000000011,-0.0018782556799408212
mouse_head_joint,1.7800000000000011,-0.0018685731798955274
mouse_head_joint,1.8000000000000012,-0.001859175729979512
mouse_head_joint,1.8200000000000012,-0.0018495827942928145
mouse_head_joint,1.8400000000000012,-0.0018406144369293997
mouse_head_joint,1.8600000000000012,-0.0018313409157446614
mouse_head_joint,1.8800000000000012,-0.0018215333644668874
mouse_head_joint,1.9000000000000012,-0.0018121077762103255
mouse_head_joint,1.9200000000000013,-0.001803292005329027
mouse_head_joint,1.9400000000000013,-0.001794179363875159
mouse_head_joint,1.9600000000000013,-0.0017845083300400688
mouse_head_joint,1.9800000000000013,-0.0017748264581207707
mouse_head_joint,2.0000000000000013,-0.0017657987858843427
mouse_head_joint,2.0200000000000014,-0.0017571727424963157
mouse_head_joint,2.0400000000000014,-0.0017461399578664327
mouse_head_joint,2.0600000000000014,-0.0017391065078289358
mouse_head_joint,2.0800000000000014,-0.0017300050981878812
mouse_head_joint,2.1000000000000014,-0.001721183276469418
mouse_head_joint,2.1200000000000014,-0.0017109516855189355
mouse_head_joint,2.1400000000000015,-0.0017052491298787942
mouse_head_joint,2.1600000000000015,-0.0016945005532784663
mouse_head_joint,2.1800000000000015,-0.0016861667120169344
mouse_head_joint,2.2000000000000015,-0.0016770056301318448
mouse_head_joint,2.2200000000000015,-0.0016670500310160818
mouse_head_joint,2.2400000000000015,-0.0016596715078511792
mouse_head_joint,2.2600000000000016,-0.0016514817236732426
mouse_head_joint,2.2800000000000016,-0.0016421913404105482
mouse_head_joint,2.3000000000000016,-0.0016326095526064677
mouse_head_joint,2.3200000000000016,-0.001625131768840049
mouse_head_joint,2.3400000000000016,-0.0016176276138031298
mouse_head_joint,2.3600000000000017,-0.0016090733330704765
mouse_head_joint,2.3800000000000017,-0.001600499547474321
mouse_head_joint,2.4000000000000017,-0.0015919224014186995
mouse_head_joint,2.4200000000000017,-0.0015834812142960786
mouse_head_joint,2.4400000000000017,-0.0015747409381337008
mouse_head_joint,2.4600000000000017,-0.0015669044575945534
mouse_head_joint,2.4800000000000018,-0.0015591007435302728
mouse_head_joint,2.5000000000000018,-0.0015504853374812555
mouse_head_joint,2.520000000000002,-0.0015419313929925238
mouse_head_joint,2.540000000000002,-0.0015347575081090525
mouse_head_joint,2.560000000000002,-0.0015265652254807804
mouse_head_joint,2.580000000000002,-0.0015178652926222114
mouse_head_joint,2.600000000000002,-0.001510539519096632
mouse_head_joint,2.620000000000002,-0.0015027021321758482
mouse_head_joint,2.640000000000002,-0.0014938954282071037
mouse_head_joint,2.660000000000002,-0.0014847657238155065
mouse_head_joint,2.680000000000002,-0.0014789331741944522
mouse_head_joint,2.700000000000002,-0.0014709547691005298
mouse_head_joint,2.720000000000002,-0.0014630480286186298
mouse_head_joint,2.740000000000002,-0.0014548436099914852
mouse_head_joint,2.760000000000002,-0.0014472176763575817
mouse_head_joint,2.780000000000002,-0.0014394171320271099
mouse_head_joint,2.800000000000002,-0.0014321508481831557
mouse_head_joint,2.820000000000002,-0.0014241148481923815
mouse_head_joint,2.840000000000002,-0.00141742887505103
mouse_head_joint,2.860000000000002,-0.0014094692247939022
mouse_head_joint,2.880000000000002,-0.0014018243838433975
mouse_head_joint,2.900000000000002,-0.001394458903050122
mouse_head_joint,2.920000000000002,-0.0013873842258469438
mouse_head_joint,2.940000000000002,-0.0013798491027650073
mouse_head_joint,2.960000000000002,-0.0013725907938981763
mouse_head_joint,2.980000000000002,-0.0013648910573076378
mouse_head_joint,3.000000000000002,-0.0013579429325840664
mouse_head_joint,3.0200000000000022,-0.0013503183564855803
mouse_head_joint,3.0400000000000023,-0.0013429647998206562
mouse_head_joint,3.0600000000000023,-0.0013361104087046272
mouse_head_joint,3.0800000000000023,-0.001329054937817098
mouse_head_joint,3.1000000000000023,-0.0013210044011247035
mouse_head_joint,3.1200000000000023,-0.0013142442572879887
mouse_head_joint,3.1400000000000023,-0.001307007735856125
mouse_head_joint,3.1600000000000024,-0.0013005700042132418
mouse_head_joint,3.1800000000000024,-0.001291701059599859
mouse_head_joint,3.2000000000000024,-0.0012862782012801333
mouse_head_joint,3.2200000000000024,-0.0012796688148144497
mouse_head_joint,3.2400000000000024,-0.0012723629554107774
mouse_head_joint,3.2600000000000025,-0.0012658137206962294
mouse_head_joint,3.2800000000000025,-0.0012567892969359562
mouse_head_joint,3.3000000000000025,-0.0012521016961715148
mouse_head_joint,3.3200000000000025,-0.0012451805767526025
mouse_head_joint,3.3400000000000025,-0.0012380836498424586
mouse_head_joint,3.3600000000000025,-0.001231473779228942
mouse_head_joint,3.3800000000000026,-0.001225102396049671
mouse_head_joint,3.4000000000000026,-0.001217673735435909
mouse_head_joint,3.4200000000000026,-0.0012113622331488827
mouse_head_joint,3.4400000000000026,-0.0012050783231769557
mouse_head_joint,3.4600000000000026,-0.0011984001129938804
mouse_head_joint,3.4800000000000026,-0.001191727964665823
mouse_head_joint,3.5000000000000027,-0.0011848155480462808
mouse_head_joint,3.5200000000000027,-0.00117864818214386
mouse_head_joint,3.5400000000000027,-0.0011718354395506836
mouse_head_joint,3.5600000000000027,-0.0011657249874348352
mouse_head_joint,3.5800000000000027,-0.0011596414222898588
mouse_head_joint,3.6000000000000028,-0.0011526926451468356
mouse_head_joint,3.6200000000000028,-0.0011468804191894222
mouse_head_joint,3.640000000000003,-0.0011406674695750851
mouse_head_joint,3.660000000000003,-0.0011336168513631506
mouse_head_joint,3.680000000000003,-0.0011276746305552976
mouse_head_joint,3.700000000000003,-0.001121758702304021
mouse_head_joint,3.720000000000003,-0.0011152607560980243
mouse_head_joint,3.740000000000003,-0.0011093998796631865
mouse_head_joint,3.760000000000003,-0.001102971342508141
mouse_head_joint,3.780000000000003,-0.0010957791411305706
mouse_head_joint,3.800000000000003,-0.0010912092080825886
mouse_head_joint,3.820000000000003,-0.00108504767081552
mouse_head_joint,3.840000000000003,-0.0010789546507394832
mouse_head_joint,3.860000000000003,-0.0010732564345152795
mouse_head_joint,3.880000000000003,-0.0010665073656737079
mouse_head_joint,3.900000000000003,-0.00106104968241727
mouse_head_joint,3.920000000000003,-0.0010552456914236785
mouse_head_joint,3.940000000000003,-0.0010494495246975433
mouse_head_joint,3.960000000000003,-0.0010434721781660272
mouse_head_joint,3.980000000000003,-0.0010373088953867793
mouse_head_joint,4.000000000000003,-0.0010317958908592217
mouse_head_joint,4.020000000000002,-0.0010255292258980475
mouse_head_joint,4.040000000000002,-0.0010200695290727424
mouse_head_joint,4.060000000000001,-0.0010142289826431394
mouse_head_joint,4.080000000000001,-0.0010082619475433319
mouse_head_joint,4.1000000000000005,-0.001002723542940842
mouse_head_joint,4.12,-0.000997366684083012
mouse_head_joint,4.14,-0.0009916464849375473
mouse_head_joint,4.159999999999999,-0.0009850837209732788
mouse_head_joint,4.179999999999999,-0.000980523159504365
mouse_head_joint,4.199999999999998,-0.0009749484809455922
mouse_head_joint,4.219999999999998,-0.0009698857569340191
mouse_head_joint,4.2399999999999975,-0.0009645111433815856
mouse_head_joint,4.259999999999997,-0.000958490661246536
mouse_head_joint,4.279999999999997,-0.0009533335585389935
mouse_head_joint,4.299999999999996,-0.0009478620447511688
mouse_head_joint,4.319999999999996,-0.0009423677520681295
mouse_head_joint,4.339999999999995,-0.0009371128828794539
mouse_head_joint,4.359999999999995,-0.0009320539721091592
mouse_head_joint,4.379999999999995,-0.0009250086221905818
mouse_head_joint,4.399999999999994,-0.0009210516313302719
mouse_head_joint,4.419999999999994,-0.0009159172981458852
mouse_head_joint,4.439999999999993,-0.0009109550953381174
mouse_head_joint,4.459999999999993,-0.0009054993452677351
mouse_head_joint,4.479999999999992,-0.0009000837027270947
mouse_head_joint,4.499999999999992,-0.0008951942376853594
mouse_head_joint,4.519999999999992,-0.0008898365742577852
mouse_head_joint,4.539999999999991,-0.0008851210420077749
mouse_head_joint,4.559999999999991,-0.0008784404762378628
mouse_head_joint,4.57999999999999,-0.0008747490473863806
mouse_head_joint,4.59999999999999,-0.0008701210361063971
mouse_head_joint,4.6199999999999894,-0.0008652268527589158
mouse_head_joint,4.639999999999989,-0.0008597096820128769
mouse_head_joint,4.659999999999989,-0.0008548694195429363
mouse_head_joint,4.679999999999988,-0.0008501884317304587
mouse_head_joint,4.699999999999988,-0.0008438346446029144
mouse_head_joint,4.719999999999987,-0.0008392049072956098
mouse_head_joint,4.739999999999987,-0.0008356155394686482
mouse_head_joint,4.7599999999999865,-0.0008305081878097198
mouse_head_joint,4.779999999999986,-0.0008259404837209772
mouse_head_joint,4.799999999999986,-0.0008210253817724222
mouse_head_joint,4.819999999999985,-0.0008160203802169974
mouse_head_joint,4.839999999999985,-0.000811405141190491
mouse_head_joint,4.859999999999984,-0.0008069264929240205
mouse_head_joint,4.879999999999984,-0.0008020155967578546
mouse_head_joint,4.8999999999999835,-0.0007975809447149373
mouse_head_joint,4.919999999999983,-0.0007927240075149555
mouse_head_joint,4.939999999999983,-0.0007883329995692634
mouse_head_joint,4.959999999999982,-0.0007835250928023285
mouse_head_joint,4.979999999999982,-0.0007787081422740982
mouse_head_joint,4.999999999999981,-0.0007747289769053367
mouse_head_joint,5.019999999999981,-0.0007696789580373675
mouse_head_joint,5.0399999999999805,-0.0007653955465958262
mouse_head_joint,5.05999999999998,-0.0007610191408442546
mouse_head_joint,5.07999999999998,-0.0007553446789039242
mouse_head_joint,5.099999999999979,-0.0007520838946204478
mouse_head_joint,5.119999999999979,-0.0007474016424229291
mouse_head_joint,5.139999999999978,-0.00074310630113672
mouse_head_joint,5.159999999999978,-0.0007386012952377286
mouse_head_joint,5.1799999999999775,-0.000734361033274844
mouse_head_joint,5.199999999999977,-0.0007302453169204526
mouse_head_joint,5.219999999999977,-0.0007258151251416933
mouse_head_joint,5.239999999999976,-0.0007212342120137549
mouse_head_joint,5.259999999999976,-0.0007172680378202401
mouse_head_joint,5.279999999999975,-0.0007131471705337233
mouse_head_joint,5.299999999999975,-0.0007088151806522447
mouse_head_joint,5.3199999999999745,-0.0007047380161839811
mouse_head_joint,5.339999999999974,-0.0007004500397842506
mouse_head_joint,5.359999999999974,-0.0006963124431491607
mouse_head_joint,5.379999999999973,-0.0006923790045298972
mouse_head_joint,5.399999999999973,-0.0006877619612319918
mouse_head_joint,5.419999999999972,-0.0006838681639171895
mouse_head_joint,5.439999999999972,-0.0006785836262537259
mouse_head_joint,5.4599999999999715,-0.0006759324061063055
mouse_head_joint,5.479999999999971,-0.0006716697143094308
mouse_head_joint,5.499999999999971,-0.0006675182353381715
mouse_head_joint,5.51999999999997,-0.0006637220393743704
mouse_head_joint,5.53999999999997,-0.0006583558140444978
mouse_head_joint,5.559999999999969,-0.0006557623608633989
mouse_head_joint,5.579999999999969,-0.000651549777660243
mouse_head_joint,5.599999999999969,-0.0006479051660823743
mouse_head_joint,5.619999999999968,-0.0006441306290394522
mouse_head_joint,5.639999999999968,-0.0006400764013037019
mouse_head_joint,5.659999999999967,-0.0006364135419456574
mouse_head_joint,5.679999999999967,-0.0006324709110101523
mouse_head_joint,5.699999999999966,-0.000628780753606506
mouse_head_joint,5.719999999999966,-0.0006248789306226854
mouse_head_joint,5.739999999999966,-0.0006212270991952096
mouse_head_joint,5.759999999999965,-0.0006172676550804113
mouse_head_joint,5.779999999999965,-0.0006137160162218436
mouse_head_joint,5.799999999999964,-0.0006097492675358751
mouse_head_joint,5.819999999999964,-0.000606139400940009
mouse_head_joint,5.839999999999963,-0.0006022508531344783
mouse_head_joint,5.859999999999963,-0.0005988617564307575
mouse_head_joint,5.879999999999963,-0.0005953117081567427
mouse_head_joint,5.899999999999962,-0.0005914723217088635
mouse_head_joint,5.919999999999962,-0.0005870252167925472
mouse_head_joint,5.939999999999961,-0.0005843309727318058
mouse_head_joint,5.959999999999961,-0.0005805219932701888
mouse_head_joint,5.9799999999999605,-0.0005768635107994413
mouse_head_joint,5.99999999999996,-0.0005737958242262309
mouse_head_joint,6.01999999999996,-0.0005701223069385364
mouse_head_joint,6.039999999999959,-0.0005664742882292018
mouse_head_joint,6.059999999999959,-0.0005632196967955139
mouse_head_joint,6.079999999999958,-0.000559563514590522
mouse_head_joint,6.099999999999958,-0.0005563422350336467
mouse_head_joint,6.1199999999999575,-0.0005530449731541154
mouse_head_joint,6.139999999999957,-0.0005494561496401928
mouse_head_joint,6.159999999999957,-0.000545898614524809
mouse_head_joint,6.179999999999956,-0.000542640925890403
mouse_head_joint,6.199999999999956,-0.0005394573973500627
mouse_head_joint,6.219999999999955,-0.0005362129531141235
mouse_head_joint,6.239999999999955,-0.0005327062939466387
mouse_head_joint,6.2599999999999545,-0.0005285400556864772
mouse_head_joint,6.279999999999954,-0.000526454773660312
mouse_head_joint,6.299999999999954,-0.0005227022704907824
mouse_head_joint,6.319999999999953,-0.0005196180317446064
mouse_head_joint,6.339999999999953,-0.0005165005850162885
mouse_head_joint,6.359999999999952,-0.0005131307641441651
mouse_head_joint,6.379999999999952,-0.0005098263449427876
mouse_head_joint,6.3999999999999515,-0.0005068069258156171
mouse_head_joint,6.419999999999951,-0.0005025231380226813
mouse_head_joint,6.439999999999951,-0.0005004882483676809
mouse_head_joint,6.45999999999995,-0.0004972259987336969
mouse_head_joint,6.47999999999995,-0.000494219642310334
mouse_head_joint,6.499999999999949,-0.0004913310466259091
mouse_head_joint,6.519999999999949,-0.00048808404671785155
mouse_head_joint,6.5399999999999485,-0.00048441618144767773
mouse_head_joint,6.559999999999948,-0.00048191765750882354
mouse_head_joint,6.579999999999948,-0.0004787092201574694
mouse_head_joint,6.599999999999947,-0.0004761158145694111
mouse_head_joint,6.619999999999947,-0.0004730008465889668
mouse_head_joint,6.639999999999946,-0.00047011216947279166
mouse_head_joint,6.659999999999946,-0.00046701290312878285
mouse_head_joint,6.6799999999999455,-0.00046388992638846105
mouse_head_joint,6.699999999999945,-0.0004611037736124146
mouse_head_joint,6.719999999999945,-0.00045803609966288406
mouse_head_joint,6.739999999999944,-0.00045527993634841835
mouse_head_joint,6.759999999999944,-0.0004525141562297108
mouse_head_joint,6.779999999999943,-0.0004495349066688803
mouse_head_joint,6.799999999999943,-0.0004465572626886072
mouse_head_joint,6.8199999999999426,-0.00044384389233709243
mouse_head_joint,6.839999999999942,-0.00044091753613084705
mouse_head_joint,6.859999999999942,-0.00043823408669307895
mouse_head_joint,6.879999999999941,-0.00043558078057071015
mouse_head_joint,6.899999999999941,-0.000432648553990056
mouse_head_joint,6.91999999999994,-0.0004297165541027326
mouse_head_joint,6.93999999999994,-0.0004271063892300475
mouse_head_joint,6.95999999999994,-0.0004244365059031807
mouse_head_joint,6.979999999999939,-0.000421854755267681
mouse_head_joint,6.999999999999939,-0.00041903394559383855
mouse_head_joint,7.019999999999938,-0.00041643725666773435
mouse_head_joint,7.039999999999938,-0.0004135968928693501
mouse_head_joint,7.059999999999937,-0.0004108119990613446
mouse_head_joint,7.079999999999937,-0.0004083002742367725
mouse_head_joint,7.099999999999937,-0.00040578212046060713
mouse_head_joint,7.119999999999936,-0.00040304008941394187
mouse_head_joint,7.139999999999936,-0.000400569623788094
mouse_head_joint,7.159999999999935,-0.0003976366499607309
mouse_head_joint,7.179999999999935,-0.0003943859888586587
mouse_head_joint,7.1999999999999345,-0.00039276142524169444
mouse_head_joint,7.219999999999934,-0.0003895473873285482
mouse_head_joint,7.239999999999934,-0.00038771047897334654
mouse_head_joint,7.259999999999933,-0.0003853209228639187
mouse_head_joint,7.279999999999933,-0.00038292106306325735
mouse_head_joint,7.299999999999932,-0.000380314987684649
mouse_head_joint,7.319999999999932,-0.00037767239018915433
mouse_head_joint,7.3399999999999315,-0.0003753229012941617
mouse_head_joint,7.359999999999931,-0.00037272507950447675
mouse_head_joint,7.379999999999931,-0.0003703838296269524
mouse_head_joint,7.39999999999993,-0.00036808590393633267
mouse_head_joint,7.41999999999993,-0.00036552703873216075
mouse_head_joint,7.439999999999929,-0.0003632547925453977
mouse_head_joint,7.459999999999929,-0.0003605089544329587
mouse_head_joint,7.4799999999999285,-0.00035826284772433326
mouse_head_joint,7.499999999999928,-0.0003560287424395625
mouse_head_joint,7.519999999999928,-0.00035380908282256485
mouse_head_joint,7.539999999999927,-0.0003513831583914495
mouse_head_joint,7.559999999999927,-0.00034896801688955037
mouse_head_joint,7.579999999999926,-0.00034679308689522514
mouse_head_joint,7.599999999999926,-0.0003446212845874541
mouse_head_joint,7.6199999999999255,-0.0003422460001010208
mouse_head_joint,7.639999999999925,-0.0003401083025664775
mouse_head_joint,7.659999999999925,-0.00033745156280406974
mouse_head_joint,7.679999999999924,-0.0003356081112144693
mouse_head_joint,7.699999999999924,-0.00033270328740986344
mouse_head_joint,7.719999999999923,-0.00033111937910490497
mouse_head_joint,7.739999999999923,-0.0003290097238455303
mouse_head_joint,7.7599999999999225,-0.000326688884852544
mouse_head_joint,7.779999999999922,-0.0003246256892275312
mouse_head_joint,7.799999999999922,-0.0003223253012007987
mouse_head_joint,7.819999999999921,-0.00032005380885724577
mouse_head_joint,7.839999999999921,-0.00031760859685014964
mouse_head_joint,7.85999999999992,-0.00031601377934009633
mouse_head_joint,7.87999999999992,-0.00031378905978662885
mouse_head_joint,7.8999999999999195,-0.00031180923027473995
mouse_head_joint,7.919999999999919,-0.00030961653647665344
mouse_head_joint,7.939999999999919,-0.00030747843098577476
mouse_head_joint,7.959999999999918,-0.00030549997595397116
mouse_head_joint,7.979999999999918,-0.00030336943108277836
mouse_head_joint,7.999999999999917,-0.0003014516374468812
mouse_head_joint,8.019999999999918,-0.000299528592931253
mouse_head_joint,8.039999999999917,-0.0002976131621919009
mouse_head_joint,8.059999999999917,-0.0002954920121522875
mouse_head_joint,8.079999999999917,-0.0002933344105233715
mouse_head_joint,8.099999999999916,-0.0002914530618332023
mouse_head_joint,8.119999999999916,-0.00028958332263151476
mouse_head_joint,8.139999999999915,-0.00028750934997745503
mouse_head_joint,8.159999999999915,-0.00028565256708379394
mouse_head_joint,8.179999999999914,-0.0002835872649757931
mouse_head_joint,8.199999999999914,-0.00028154324144313847
mouse_head_joint,8.219999999999914,-0.0002795337775802764
mouse_head_joint,8.239999999999913,-0.00027738294805690344
mouse_head_joint,8.259999999999913,-0.00027595858667162076
mouse_head_joint,8.279999999999912,-0.00027397572312981566
mouse_head_joint,8.299999999999912,-0.00027190603500582
mouse_head_joint,8.319999999999911,-0.0002704679416920541
mouse_head_joint,8.339999999999911,-0.00026852163905211057
mouse_head_joint,8.35999999999991,-0.0002668096101894335
mouse_head_joint,8.37999999999991,-0.0002648864484422475
mouse_head_joint,8.39999999999991,-0.00026320277477953624
mouse_head_joint,8.41999999999991,-0.00026149141604658865
mouse_head_joint,8.439999999999909,-0.000259350443992723
mouse_head_joint,8.459999999999908,-0.00025789118944530287
mouse_head_joint,8.479999999999908,-0.00025597654637721234
mouse_head_joint,8.499999999999908,-0.00025370501501065235
mouse_head_joint,8.519999999999907,-0.0002524406537167678
mouse_head_joint,8.539999999999907,-0.00025057289304886154
mouse_head_joint,8.559999999999906,-0.0002489317843155092
mouse_head_joint,8.579999999999906,-0.0002471276000841627
mouse_head_joint,8.599999999999905,-0.0002455066010593754
mouse_head_joint,8.619999999999905,-0.00024369848189298438
mouse_head_joint,8.639999999999905,-0.00024212937398981893
mouse_head_joint,8.659999999999904,-0.00024038622080002625
mouse_head_joint,8.679999999999904,-0.0002387666035090774
mouse_head_joint,8.699999999999903,-0.00023708642934749946
mouse_head_joint,8.719999999999903,-0.00023548440920073688
mouse_head_joint,8.739999999999903,-0.00023378859629730186
mouse_head_joint,8.759999999999902,-0.00023228261207197676
mouse_head_joint,8.779999999999902,-0.00023056503777496573
mouse_head_joint,8.799999999999901,-0.00022903938071916485
mouse_head_joint,8.8199999999999,-0.00022752254939195637
mouse_head_joint,8.8399999999999,-0.00022580445748765499
mouse_head_joint,8.8599999999999,-0.0002241171013031007
mouse_head_joint,8.8799999999999,-0.00022282290289954432
mouse_head_joint,8.899999999999899,-0.0002211567404861725
mouse_head_joint,8.919999999999899,-0.00021947971519953313
mouse_head_joint,8.939999999999898,-0.00021803763439187662
mouse_head_joint,8.959999999999898,-0.00021638762813758206
mouse_head_joint,8.979999999999897,-0.00021479006714830717
mouse_head_joint,8.999999999999897,-0.00021354101793136238
mouse_head_joint,9.019999999999897,-0.0002119703314438226
mouse_head_joint,9.039999999999896,-0.0002103757845199894
mouse_head_joint,9.059999999999896,-0.00020901251276050914
mouse_head_joint,9.079999999999895,-0.0002076125723933231
mouse_head_joint,9.099999999999895,-0.00020609565679663433
mouse_head_joint,9.119999999999894,-0.00020454289161175865
mouse_head_joint,9.139999999999894,-0.00020316895274063995
mouse_head_joint,9.159999999999894,-0.000201849775212537
mouse_head_joint,9.179999999999893,-0.00020032713472950547
mouse_head_joint,9.199999999999893,-0.00019878736076162085
mouse_head_joint,9.219999999999892,-0.00019711665067134732
mouse_head_joint,9.239999999999892,-0.00019594367503117383
mouse_head_joint,9.259999999999891,-0.0001948061477508034
mouse_head_joint,9.279999999999891,-0.000193305787193232
mouse_head_joint,9.29999999999989,-0.00019181848763416554
mouse_head_joint,9.31999999999989,-0.0001905473612602293
mouse_head_joint,9.33999999999989,-0.00018907036349435913
mouse_head_joint,9.35999999999989,-0.00018782826053342916
mouse_head_joint,9.379999999999889,-0.0001863788533658095
mouse_head_joint,9.399999999999888,-0.0001851613006547126
mouse_head_joint,9.419999999999888,-0.00018378830554954817
mouse_head_joint,9.439999999999888,-0.00018253877145202324
mouse_head_joint,9.459999999999887,-0.00018118735573136036
mouse_head_joint,9.479999999999887,-0.00017990037206772058
mouse_head_joint,9.499999999999886,-0.00017856706431906844
mouse_head_joint,9.519999999999886,-0.00017742992656710754
mouse_head_joint,9.539999999999885,-0.00017621962224012577
mouse_head_joint,9.559999999999885,-0.00017483677345175863
mouse_head_joint,9.579999999999885,-0.0001734689931582878
mouse_head_joint,9.599999999999884,-0.00017228199030316915
mouse_head_joint,9.619999999999884,-0.00017110224620431325
mouse_head_joint,9.639999999999883,-0.0001699497126104177
mouse_head_joint,9.659999999999883,-0.00016860816508845744
mouse_head_joint,9.679999999999882,-0.0001672860099439788
mouse_head_joint,9.699999999999882,-0.00016613638235973838
mouse_head_joint,9.719999999999882,-0.00016485136266997102
mouse_head_joint,9.739999999999881,-0.0001635972040299194
mouse_head_joint,9.75999999999988,-0.00016247028610827385
mouse_head_joint,9.77999999999988,-0.0001614050123368571
mouse_head_joint,9.79999999999988,-0.00016019288266821974
mouse_head_joint,9.81999999999988,-0.0001589343300594237
mouse_head_joint,9.839999999999879,-0.00015798963363256036
mouse_head_joint,9.859999999999879,-0.00015674570673329669
mouse_head_joint,9.879999999999878,-0.00015556973949948372
mouse_head_joint,9.899999999999878,-0.00015455148280896225
mouse_head_joint,9.919999999999877,-0.00015334264970690015
mouse_head_joint,9.939999999999877,-0.0001522803052873556
mouse_head_joint,9.959999999999877,-0.00015101432435749018
mouse_head_joint,9.979999999999876,-0.00015004627969794626
mouse_head_joint,9.999999999999876,-0.00014897986644779593
mouse_head_joint,10.019999999999875,-0.00014797014257261765
mouse_head_joint,10.039999999999875,-0.00014677318096634195
mouse_head_joint,10.059999999999874,-0.00014564050352205982
mouse_head_joint,10.079999999999874,-0.00014458692344199164
mouse_head_joint,10.099999999999874,-0.00014345178933972136
mouse_head_joint,10.119999999999873,-0.00014250336164245425
mouse_head_joint,10.139999999999873,-0.00014141298205139208
mouse_head_joint,10.159999999999872,-0.0001404259735666713
mouse_head_joint,10.179999999999872,-0.00013929701886539192
mouse_head_joint,10.199999999999871,-0.00013824194692446667
mouse_head_joint,10.219999999999871,-0.00013729381722971112
mouse_head_joint,10.23999999999987,-0.00013631401014535527
mouse_head_joint,10.25999999999987,-0.00013542333482341462
mouse_head_joint,10.27999999999987,-0.00013443275606039862
mouse_head_joint,10.29999999999987,-0.00013345440860224045
mouse_head_joint,10.319999999999869,-0.00013239098699813212
mouse_head_joint,10.339999999999868,-0.00013146202599312318
mouse_head_joint,10.359999999999868,-0.0001301712795589438
mouse_head_joint,10.379999999999868,-0.0001295149667379647
mouse_head_joint,10.399999999999867,-0.00012860497679234584
mouse_head_joint,10.419999999999867,-0.00012740092514285095
mouse_head_joint,10.439999999999866,-0.00012667187073489572
mouse_head_joint,10.459999999999866,-0.00012565671109765475
mouse_head_joint,10.479999999999865,-0.00012461353920034668
mouse_head_joint,10.499999999999865,-0.00012364412577081652
mouse_head_joint,10.519999999999865,-0.00012291849715495573
mouse_head_joint,10.539999999999864,-0.00012182948452821307
mouse_head_joint,10.559999999999864,-0.00012096899447922027
mouse_head_joint,10.579999999999863,-0.00012018165661942248
mouse_head_joint,10.599999999999863,-0.00011926482378843417
mouse_head_joint,10.619999999999862,-0.00011835450490860211
mouse_head_joint,10.639999999999862,-0.00011751743052279551
mouse_head_joint,10.659999999999862,-0.00011672570487419875
mouse_head_joint,10.679999999999861,-0.00011586094958815352
mouse_head_joint,10.69999999999986,-0.00011508045798436228
mouse_head_joint,10.71999999999986,-0.00011391788704973038
mouse_head_joint,10.73999999999986,-0.0001134571266590001
mouse_head_joint,10.75999999999986,-0.00011202149938061012
mouse_head_joint,10.779999999999859,-0.00011161152910066363
mouse_head_joint,10.799999999999859,-0.00011066535570058988
mouse_head_joint,10.819999999999858,-0.00010975303276339332
mouse_head_joint,10.839999999999858,-0.0001089730415859691
mouse_head_joint,10.859999999999857,-0.0001079553784659737
mouse_head_joint,10.879999999999857,-0.00010739016447303129
mouse_head_joint,10.899999999999856,-0.00010648881493047213
mouse_head_joint,10.919999999999856,-0.00010579915247799221
mouse_head_joint,10.939999999999856,-0.00010504669888611318
mouse_head_joint,10.959999999999855,-0.00010416932242129917
mouse_head_joint,10.979999999999855,-0.0001034983160064229
mouse_head_joint,10.999999999999854,-0.00010263551134137572
mouse_head_joint,11.019999999999854,-0.00010197493365105004
mouse_head_joint,11.039999999999853,-0.00010123364883884989
mouse_head_joint,11.059999999999853,-0.00010051331427263221
mouse_head_joint,11.079999999999853,-9.979795838788164e-05
mouse_head_joint,11.099999999999852,-9.875565882389026e-05
mouse_head_joint,11.119999999999852,-9.805099255544292e-05
mouse_head_joint,11.139999999999851,-9.742517330835199e-05
mouse_head_joint,11.159999999999851,-9.665170297790127e-05
mouse_head_joint,11.17999999999985,-9.596238240394683e-05
mouse_head_joint,11.19999999999985,-9.52778826128764e-05
mouse_head_joint,11.21999999999985,-9.43589632003139e-05
mouse_head_joint,11.23999999999985,-9.382455324580263e-05
mouse_head_joint,11.259999999999849,-9.301587712062798e-05
mouse_head_joint,11.279999999999848,-9.228667809235702e-05
mouse_head_joint,11.299999999999848,-9.162750670377307e-05
mouse_head_joint,11.319999999999848,-9.0922154733164e-05
mouse_head_joint,11.339999999999847,-9.027284722407103e-05
mouse_head_joint,11.359999999999847,-8.970104766703457e-05
mouse_head_joint,11.379999999999846,-8.889791107336009e-05
mouse_head_joint,11.399999999999846,-8.838045980397169e-05
mouse_head_joint,11.419999999999845,-8.763338857331604e-05
mouse_head_joint,11.439999999999845,-8.707841231903046e-05
mouse_head_joint,11.459999999999845,-8.618160974549482e-05
mouse_head_joint,11.479999999999844,-8.564424919654812e-05
mouse_head_joint,11.499999999999844,-8.495469801417244e-05
mouse_head_joint,11.519999999999843,-8.446300622466651e-05
mouse_head_joint,11.539999999999843,-8.371834479170559e-05
mouse_head_joint,11.559999999999842,-8.301348740857861e-05
mouse_head_joint,11.579999999999842,-8.256306742637776e-05
mouse_head_joint,11.599999999999842,-8.183243419424002e-05
mouse_head_joint,11.619999999999841,-8.130175811960072e-05
mouse_head_joint,11.63999999999984,-8.065851678118463e-05
mouse_head_joint,11.65999999999984,-7.996386615438666e-05
mouse_head_joint,11.67999999999984,-7.939366868825459e-05
mouse_head_joint,11.69999999999984,-7.890028783741343e-05
mouse_head_joint,11.719999999999839,-7.830008641906971e-05
mouse_head_joint,11.739999999999839,-7.774299140272944e-05
mouse_head_joint,11.759999999999838,-7.704454288770535e-05
mouse_head_joint,11.779999999999838,-7.660532031561473e-05
mouse_head_joint,11.799999999999837,-7.606321219810752e-05
mouse_head_joint,11.819999999999837,-7.552330545568253e-05
mouse_head_joint,11.839999999999836,-7.468699104506982e-05
mouse_head_joint,11.859999999999836,-7.415596397386537e-05
mouse_head_joint,11.879999999999836,-7.374838197549138e-05
mouse_head_joint,11.899999999999835,-7.318899923980382e-05
mouse_head_joint,11.919999999999835,-7.270663027103552e-05
mouse_head_joint,11.939999999999834,-7.20552478012948e-05
mouse_head_joint,11.959999999999834,-7.157931999302036e-05
mouse_head_joint,11.979999999999833,-7.093930952528638e-05
mouse_head_joint,11.999999999999833,-7.036852280606354e-05
mouse_head_joint,12.019999999999833,-6.993984660486063e-05
mouse_head_joint,12.039999999999832,-6.933505682393815e-05
mouse_head_joint,12.059999999999832,-6.885870523376525e-05
mouse_head_joint,12.079999999999831,-6.84320529868998e-05
mouse_head_joint,12.099999999999831,-6.792029732860527e-05
mouse_head_joint,12.11999999999983,-6.734102282734966e-05
mouse_head_joint,12.13999999999983,-6.686684215662098e-05
mouse_head_joint,12.15999999999983,-6.636860053887972e-05
mouse_head_joint,12.17999999999983,-6.580994332061607e-05
mouse_head_joint,12.199999999999829,-6.550962023510465e-05
mouse_head_joint,12.219999999999828,-6.495138454098992e-05
mouse_head_joint,12.239999999999828,-6.434835825075425e-05
mouse_head_joint,12.259999999999827,-6.39838160543249e-05
mouse_head_joint,12.279999999999827,-6.357189913330785e-05
mouse_head_joint,12.299999999999827,-6.28467121011056e-05
mouse_head_joint,12.319999999999826,-6.258980934426006e-05
mouse_head_joint,12.339999999999826,-6.208323094014645e-05
mouse_head_joint,12.359999999999825,-6.153899779981487e-05
mouse_head_joint,12.379999999999825,-6.111006230291594e-05
mouse_head_joint,12.399999999999824,-6.06845797186395e-05
mouse_head_joint,12.419999999999824,-6.0303038131870323e-05
mouse_head_joint,12.439999999999824,-5.981158152401633e-05
mouse_head_joint,12.459999999999823,-5.94275549596901e-05
mouse_head_joint,12.479999999999823,-5.8964494363600295e-05
mouse_head_joint,12.499999999999822,-5.853830531599158e-05
mouse_head_joint,12.519999999999822,-5.820570362402577e-05
mouse_head_joint,12.539999999999822,-5.780507474284491e-05
mouse_head_joint,12.559999999999821,-5.7385052034675255e-05
mouse_head_joint,12.57999999999982,-5.6991323577726405e-05
mouse_head_joint,12.59999999999982,-5.6633939522043875e-05
mouse_head_joint,12.61999999999982,-5.611560751095368e-05
mouse_head_joint,12.63999999999982,-5.572046218471627e-05
mouse_head_joint,12.659999999999819,-5.5306662689602604e-05
mouse_head_joint,12.679999999999819,-5.483771589176456e-05
mouse_head_joint,12.699999999999818,-5.446417655896596e-05
mouse_head_joint,12.719999999999818,-5.406326214085766e-05
mouse_head_joint,12.739999999999817,-5.3696251341328605e-05
mouse_head_joint,12.759999999999817,-5.333234618110083e-05
mouse_head_joint,12.779999999999816,-5.287147774257761e-05
mouse_head_joint,12.799999999999816,-5.249101116255872e-05
mouse_head_joint,12.819999999999816,-5.220959399032665e-05
mouse_head_joint,12.839999999999815,-5.1858855288244854e-05
mouse_head_joint,12.859999999999815,-5.141495514582317e-05
mouse_head_joint,12.879999999999814,-5.11400972982301e-05
mouse_head_joint,12.899999999999814,-5.073017550483172e-05
mouse_head_joint,12.919999999999813,-5.037818257935811e-05
mouse_head_joint,12.939999999999813,-5.0043499498997335e-05
mouse_head_joint,12.959999999999813,-4.9805619759979436e-05
mouse_head_joint,12.979999999999812,-4.947632665608381e-05
mouse_head_joint,12.999999999999812,-4.890052426897995e-05
mouse_head_joint,13.019999999999811,-4.8670987032650714e-05
mouse_head_joint,13.03999999999981,-4.838193875666974e-05
mouse_head_joint,13.05999999999981,-4.7944694300028345e-05
mouse_head_joint,13.07999999999981,-4.7630782930241367e-05
mouse_head_joint,13.09999999999981,-4.7240573718632106e-05
mouse_head_joint,13.11999999999981,-4.6932525878951026e-05
mouse_head_joint,13.139999999999809,-4.659012072050217e-05
mouse_head_joint,13.159999999999808,-4.6288049886378246e-05
mouse_head_joint,13.179999999999808,-4.604511553907287e-05
mouse_head_joint,13.199999999999807,-4.567842216118834e-05
mouse_head_joint,13.219999999999807,-4.5380058626420805e-05
mouse_head_joint,13.239999999999807,-4.515870386523346e-05
mouse_head_joint,13.259999999999806,-4.486320800634047e-05
mouse_head_joint,13.279999999999806,-4.457828416892795e-05
mouse_head_joint,13.299999999999805,-4.42845508281664e-05
mouse_head_joint,13.319999999999805,-4.394310981048477e-05
mouse_head_joint,13.339999999999804,-4.3628236134019005e-05
mouse_head_joint,13.359999999999804,-4.340004202951775e-05
mouse_head_joint,13.379999999999804,-4.309462813445464e-05
mouse_head_joint,13.399999999999803,-4.2703483749129134e-05
mouse_head_joint,13.419999999999803,-4.2559884733783804e-05
mouse_head_joint,13.439999999999802,-4.2296306157929564e-05
mouse_head_joint,13.459999999999802,-4.1920552615870577e-05
mouse_head_joint,13.479999999999801,-4.168410829219482e-05
mouse_head_joint,13.499999999999801,-4.138330812608615e-05
mouse_head_joint,13.5199999999998,-4.105112092123164e-05
mouse_head_joint,13.5399999999998,-4.080085930180388e-05
mouse_head_joint,13.5599999999998,-4.06172989722009e-05
mouse_head_joint,13.5799999999998,-4.03047738215534e-05
mouse_head_joint,13.599999999999799,-4.006254319310898e-05
mouse_head_joint,13.619999999999798,-3.988822800504721e-05
mouse_head_joint,13.639999999999798,-3.953900265241117e-05
mouse_head_joint,13.659999999999798,-3.9352036356632425e-05
mouse_head_joint,13.679999999999797,-3.918953639470146e-05
mouse_head_joint,13.699999999999797,-3.894377047863884e-05
mouse_head_joint,13.719999999999796,-3.873073995563914e-05
mouse_head_joint,13.739999999999796,-3.8387254379657065e-05
mouse_head_joint,13.759999999999796,-3.816379493049027e-05
mouse_head_joint,13.779999999999795,-3.7966566600822205e-05
mouse_head_joint,13.799999999999795,-3.763814872570492e-05
mouse_head_joint,13.819999999999794,-3.742221912617083e-05
mouse_head_joint,13.839999999999794,-3.720850925326147e-05
mouse_head_joint,13.859999999999793,-3.692737759930509e-05
mouse_head_joint,13.879999999999793,-3.669789735472051e-05
mouse_head_joint,13.899999999999793,-3.655911977773485e-05
mouse_head_joint,13.919999999999792,-3.6287015263702926e-05
mouse_head_joint,13.939999999999792,-3.6087565232101326e-05
mouse_head_joint,13.959999999999791,-3.5887886022045734e-05
mouse_head_joint,13.97999999999979,-3.575464414229401e-05
mouse_head_joint,13.99999999999979,-3.550466962209953e-05
mouse_head_joint,14.01999999999979,-3.537281115040258e-05
mouse_head_joint,14.03999999999979,-3.512813257522396e-05
mouse_head_joint,14.059999999999789,-3.494065508480304e-05
mouse_head_joint,14.079999999999789,-3.4754287582927645e-05
mouse_head_joint,14.099999999999788,-3.4621899793307875e-05
mouse_head_joint,14.119999999999788,-3.433255040352634e-05
mouse_head_joint,14.139999999999787,-3.415177945154113e-05
mouse_head_joint,14.159999999999787,-3.389071635417906e-05
mouse_head_joint,14.179999999999787,-3.381420700954152e-05
mouse_head_joint,14.199999999999786,-3.365641805253006e-05
mouse_head_joint,14.219999999999786,-3.339015766989917e-05
mouse_head_joint,14.239999999999785,-3.3313585073635466e-05
mouse_head_joint,14.259999999999785,-3.299924021238354e-05
mouse_head_joint,14.279999999999784,-3.286869804597359e-05
mouse_head_joint,14.299999999999784,-3.27598918401506e-05
mouse_head_joint,14.319999999999784,-3.2536796322979455e-05
mouse_head_joint,14.339999999999783,-3.2462403869004675e-05
mouse_head_joint,14.359999999999783,-3.2235389509693846e-05
mouse_head_joint,14.379999999999782,-3.200869147867991e-05
mouse_head_joint,14.399999999999782,-3.1834625880300393e-05
mouse_head_joint,14.419999999999781,-3.17238533416031e-05
mouse_head_joint,14.439999999999781,-3.15857431214539e-05
mouse_head_joint,14.45999999999978,-3.146999567693598e-05
mouse_head_joint,14.47999999999978,-3.128142864561312e-05
mouse_head_joint,14.49999999999978,-3.105515140244819e-05
mouse_head_joint,14.51999999999978,-3.090468670574609e-05
mouse_head_joint,14.539999999999779,-3.085104098321523e-05
mouse_head_joint,14.559999999999778,-3.068666748706761e-05
mouse_head_joint,14.579999999999778,-3.059570773000786e-05
mouse_head_joint,14.599999999999778,-3.028693359841128e-05
mouse_head_joint,14.619999999999777,-3.027324477411497e-05
mouse_head_joint,14.639999999999777,-3.0044348331870196e-05
mouse_head_joint,14.659999999999776,-2.99525660683031e-05
mouse_head_joint,14.679999999999776,-2.9847320289988488e-05
mouse_head_joint,14.699999999999775,-2.9739555492014347e-05
mouse_head_joint,14.719999999999775,-2.9640498643068725e-05
mouse_head_joint,14.739999999999775,-2.9457881647765305e-05
mouse_head_joint,14.759999999999774,-2.9257253046033327e-05
mouse_head_joint,14.779999999999774,-2.9206167344142386e-05
mouse_head_joint,14.799999999999773,-2.906063197638531e-05
mouse_head_joint,14.819999999999773,-2.895397507707287e-05
mouse_head_joint,14.839999999999772,-2.8676287033846393e-05
mouse_head_joint,14.859999999999772,-2.8718962700402528e-05
mouse_head_joint,14.879999999999772,-2.851736381792591e-05
mouse_head_joint,14.899999999999771,-2.842722922480334e-05
mouse_head_joint,14.91999999999977,-2.8370858876414218e-05
mouse_head_joint,14.93999999999977,-2.827174699060464e-05
mouse_head_joint,14.95999999999977,-2.809716434359899e-05
mouse_head_joint,14.97999999999977,-2.793962252134463e-05
mouse_head_joint,14.999999999999769,-2.7853182641202068e-05
mouse_head_joint,15.019999999999769,-2.7775167124488576e-05
mouse_head_joint,15.039999999999768,-2.7698723914504342e-05
mouse_head_joint,15.059999999999768,-2.7503140011653215e-05
mouse_head_joint,15.079999999999767,-2.7545688751295927e-05
mouse_head_joint,15.099999999999767,-2.7329483750726524e-05
mouse_head_joint,15.119999999999767,-2.72348977850001e-05
mouse_head_joint,15.139999999999766,-2.7148261575682398e-05
mouse_head_joint,15.159999999999766,-2.7154116248873095e-05
mouse_head_joint,15.179999999999765,-2.707541437541039e-05
mouse_head_joint,15.199999999999765,-2.6996877132035024e-05
mouse_head_joint,15.219999999999764,-2.6874509896579468e-05
mouse_head_joint,15.239999999999764,-2.6701319993271966e-05
mouse_head_joint,15.259999999999764,-2.6709248701628496e-05
mouse_head_joint,15.279999999999763,-2.6591124957953127e-05
mouse_head_joint,15.299999999999763,-2.6536656360320876e-05
mouse_head_joint,15.319999999999762,-2.6374913455917692e-05
mouse_head_joint,15.339999999999762,-2.6372508941996387e-05
mouse_head_joint,15.359999999999761,-2.6199475760435575e-05
mouse_head_joint,15.379999999999761,-2.6137198294584607e-05
mouse_head_joint,15.39999999999976,-2.61559634866515e-05
mouse_head_joint,15.41999999999976,-2.608565595085821e-05
mouse_head_joint,15.43999999999976,-2.589033524458273e-05
mouse_head_joint,15.45999999999976,-2.5789137961140796e-05
mouse_head_joint,15.479999999999759,-2.5763589635907636e-05
mouse_head_joint,15.499999999999758,-2.5712529860832944e-05
mouse_head_joint,15.519999999999758,-2.5697045378691996e-05
mouse_head_joint,15.539999999999758,-2.556488899685405e-05
mouse_head_joint,15.559999999999757,-2.5579578436740746e-05
mouse_head_joint,15.579999999999757,-2.5397263607729315e-05
mouse_head_joint,15.599999999999756,-2.534699049938638e-05
mouse_head_joint,15.619999999999756,-2.5342374324388572e-05
mouse_head_joint,15.639999999999755,-2.537051175544036e-05
mouse_head_joint,15.659999999999755,-2.518461844935871e-05
mouse_head_joint,15.679999999999755,-2.512544937882666e-05
mouse_head_joint,15.699999999999754,-2.515963367333285e-05
mouse_head_joint,15.719999999999754,-2.498744043499812e-05
mouse_head_joint,15.739999999999753,-2.503634113804054e-05
mouse_head_joint,15.759999999999753,-2.4994601194094912e-05
mouse_head_joint,15.779999999999752,-2.4941215102103342e-05
mouse_head_joint,15.799999999999752,-2.4776402083759308e-05
mouse_head_joint,15.819999999999752,-2.472948279841347e-05
mouse_head_joint,15.839999999999751,-2.478371487679709e-05
mouse_head_joint,15.85999999999975,-2.474768568738739e-05
mouse_head_joint,15.87999999999975,-2.4726198592617266e-05
mouse_head_joint,15.89999999999975,-2.4650721603514114e-05
mouse_head_joint,15.91999999999975,-2.4478740514588537e-05
mouse_head_joint,15.939999999999749,-2.447783939185655e-05
mouse_head_joint,15.959999999999749,-2.4495212007202838e-05
mouse_head_joint,15.979999999999748,-2.451796774760595e-05
mouse_head_joint,15.999999999999748,-2.436111341452829e-05
mouse_head_joint,16.019999999999747,-2.441278700793248e-05
mouse_head_joint,16.039999999999747,-2.4282775808792678e-05
mouse_head_joint,16.059999999999746,-2.427407923999425e-05
mouse_head_joint,16.079999999999746,-2.4347046189809873e-05
mouse_head_joint,16.099999999999746,-2.4271812071319232e-05
mouse_head_joint,16.119999999999745,-2.4155892574206916e-05
mouse_head_joint,16.139999999999745,-2.4085169252785477e-05
mouse_head_joint,16.159999999999744,-2.4070245799201473e-05
mouse_head_joint,16.179999999999744,-2.4160354594293665e-05
mouse_head_joint,16.199999999999743,-2.4114839938249588e-05
mouse_head_joint,16.219999999999743,-2.4028133558395837e-05
mouse_head_joint,16.239999999999743,-2.4082301635530712e-05
mouse_head_joint,16.259999999999742,-2.394332735988769e-05
mouse_head_joint,16.279999999999742,-2.3940413645284764e-05
mouse_head_joint,16.29999999999974,-2.4000485331576726e-05
mouse_head_joint,16.31999999999974,-2.4036163654095333e-05
mouse_head_joint,16.33999999999974,-2.3868605170562773e-05
mouse_head_joint,16.35999999999974,-2.3862375713612494e-05
mouse_head_joint,16.37999999999974,-2.3800790168948538e-05
mouse_head_joint,16.39999999999974,-2.3835044538067507e-05
mouse_head_joint,16.41999999999974,-2.3893478426906256e-05
mouse_head_joint,16.43999999999974,-2.387617594656888e-05
mouse_head_joint,16.459999999999738,-2.3874000655510486e-05
mouse_head_joint,16.479999999999738,-2.3742812527594026e-05
mouse_head_joint,16.499999999999737,-2.372019399121683e-05
mouse_head_joint,16.519999999999737,-2.382467909978203e-05
mouse_head_joint,16.539999999999736,-2.3814353138362776e-05
mouse_head_joint,16.559999999999736,-2.3822777097670667e-05
mouse_head_joint,16.579999999999735,-2.3798375990757847e-05
mouse_head_joint,16.599999999999735,-2.3682271121927556e-05
mouse_head_joint,16.619999999999735,-2.36885969657763e-05
mouse_head_joint,16.639999999999734,-2.373810208311511e-05
mouse_head_joint,16.659999999999734,-2.3795683743443874e-05
mouse_head_joint,16.679999999999733,-2.3665090199465055e-05
mouse_head_joint,16.699999999999733,-2.3654012193397023e-05
mouse_head_joint,16.719999999999732,-2.37568647030173e-05
mouse_head_joint,16.739999999999732,-2.3720629179990738e-05
mouse_head_joint,16.75999999999973,-2.3788183071360436e-05
mouse_head_joint,16.77999999999973,-2.3748871380568914e-05
mouse_head_joint,16.79999999999973,-2.3664048431015772e-05
mouse_head_joint,16.81999999999973,-2.3707972983011416e-05
mouse_head_joint,16.83999999999973,-2.364778074781526e-05
mouse_head_joint,16.85999999999973,-2.376139163740021e-05
mouse_head_joint,16.87999999999973,-2.376101599121938e-05
mouse_head_joint,16.89999999999973,-2.3679015699329398e-05
mouse_head_joint,16.919999999999728,-2.3776626999705286e-05
mouse_head_joint,16.939999999999728,-2.3645450510478838e-05
mouse_head_joint,16.959999999999727,-2.382247939891613e-05
mouse_head_joint,16.979999999999727,-2.3758788720407154e-05
mouse_head_joint,16.999999999999726,-2.3829007852249617e-05
mouse_head_joint,17.019999999999726,-2.3714332029634022e-05
mouse_head_joint,17.039999999999726,-2.3817507663892457e-05
mouse_head_joint,17.059999999999725,-2.370417259722757e-05
mouse_head_joint,17.079999999999725,-2.3767789490314328e-05
mouse_head_joint,17.099999999999724,-2.3856459734794555e-05
mouse_head_joint,17.119999999999724,-2.3866201804167986e-05
mouse_head_joint,17.139999999999723,-2.3792543505152253e-05
mouse_head_joint,17.159999999999723,-2.379038683475443e-05
mouse_head_joint,17.179999999999723,-2.379676744457271e-05
mouse_head_joint,17.199999999999722,-2.3886780788906492e-05
mouse_head_joint,17.21999999999972,-2.3937557327435854e-05
mouse_head_joint,17.23999999999972,-2.387301480499815e-05
mouse_head_joint,17.25999999999972,-2.3965930725289297e-05
mouse_head_joint,17.27999999999972,-2.3864505058313057e-05
mouse_head_joint,17.29999999999972,-2.392554905927824e-05
mouse_head_joint,17.31999999999972,-2.400036171579245e-05
mouse_head_joint,17.33999999999972,-2.4078649357051063e-05
mouse_head_joint,17.35999999999972,-2.4083618722414712e-05
mouse_head_joint,17.37999999999972,-2.4018804778869196e-05
mouse_head_joint,17.399999999999718,-2.3995530469278492e-05
mouse_head_joint,17.419999999999717,-2.4114778110373436e-05
mouse_head_joint,17.439999999999717,-2.420558339633061e-05
mouse_head_joint,17.459999999999717,-2.410930634866304e-05
mouse_head_joint,17.479999999999716,-2.4129741848177844e-05
mouse_head_joint,17.499999999999716,-2.415224758411938e-05
mouse_head_joint,17.519999999999715,-2.4240852140700042e-05
mouse_head_joint,17.539999999999715,-2.425776777492672e-05
mouse_head_joint,17.559999999999715,-2.4325597578922498e-05
mouse_head_joint,17.579999999999714,-2.437637517882507e-05
mouse_head_joint,17.599999999999714,-2.4372866001876048e-05
mouse_head_joint,17.619999999999713,-2.4282165246525267e-05
mouse_head_joint,17.639999999999713,-2.4399911653816275e-05
mouse_head_joint,17.659999999999712,-2.4440977225204108e-05
mouse_head_joint,17.679999999999712,-2.4529475131984668e-05
mouse_head_joint,17.69999999999971,-2.4451355151278165e-05
mouse_head_joint,17.71999999999971,-2.4568840079730592e-05
mouse_head_joint,17.73999999999971,-2.451490921728805e-05
mouse_head_joint,17.75999999999971,-2.4565092236805697e-05
mouse_head_joint,17.77999999999971,-2.4668333889366068e-05
mouse_head_joint,17.79999999999971,-2.4727455858020164e-05
mouse_head_joint,17.81999999999971,-2.4752588688059518e-05
mouse_head_joint,17.83999999999971,-2.4653842920052682e-05
mouse_head_joint,17.859999999999708,-2.4699393869731523e-05
mouse_head_joint,17.879999999999708,-2.4853307039940375e-05
mouse_head_joint,17.899999999999707,-2.4900354659074253e-05
mouse_head_joint,17.919999999999707,-2.4949723130163193e-05
mouse_head_joint,17.939999999999706,-2.4869485412359893e-05
mouse_head_joint,17.959999999999706,-2.490531301013732e-05
mouse_head_joint,17.979999999999706,-2.5002493853953922e-05
mouse_head_joint,17.999999999999705,-2.5049828040302202e-05
mouse_head_joint,18.019999999999705,-2.5143979915931425e-05
mouse_head_joint,18.039999999999704,-2.5080656505416243e-05
mouse_head_joint,18.059999999999704,-2.520635487446299e-05
mouse_head_joint,18.079999999999703,-2.5159660136608863e-05
mouse_head_joint,18.099999999999703,-2.5262196726494324e-05
mouse_head_joint,18.119999999999703,-2.5328003877334027e-05
mouse_head_joint,18.139999999999702,-2.5377826471384424e-05
mouse_head_joint,18.1599999999997,-2.5328225403242755e-05
mouse_head_joint,18.1799999999997,-2.537343656250357e-05
mouse_head_joint,18.1999999999997,-2.5409773001250358e-05
mouse_head_joint,18.2199999999997,-2.551025133445961e-05
mouse_head_joint,18.2399999999997,-2.559082481567998e-05
mouse_head_joint,18.2599999999997,-2.567617717730286e-05
mouse_head_joint,18.2799999999997,-2.5687821143094425e-05
mouse_head_joint,18.2999999999997,-2.5613336425145405e-05
mouse_head_joint,18.3199999999997,-2.5748237216127734e-05
mouse_head_joint,18.339999999999698,-2.5805989650962147e-05
mouse_head_joint,18.359999999999697,-2.5940560292703196e-05
mouse_head_joint,18.379999999999697,-2.5855072097513698e-05
mouse_head_joint,18.399999999999697,-2.590679353442482e-05
mouse_head_joint,18.419999999999696,-2.5950178319078532e-05
mouse_head_joint,18.439999999999696,-2.6016976860887553e-05
mouse_head_joint,18.459999999999695,-2.6171441300348874e-05
mouse_head_joint,18.479999999999695,-2.6112519000420775e-05
mouse_head_joint,18.499999999999694,-2.6248425590402746e-05
mouse_head_joint,18.519999999999694,-2.626118942572475e-05
mouse_head_joint,18.539999999999694,-2.622889588987931e-05
mouse_head_joint,18.559999999999693,-2.6399519203579302e-05
mouse_head_joint,18.579999999999693,-2.6434818354736933e-05
mouse_head_joint,18.599999999999692,-2.6440588484000216e-05
mouse_head_joint,18.619999999999692,-2.6550919732137856e-05
mouse_head_joint,18.63999999999969,-2.652099998989854e-05
mouse_head_joint,18.65999999999969,-2.662582033341465e-05
mouse_head_joint,18.67999999999969,-2.667635934194834e-05
mouse_head_joint,18.69999999999969,-2.6690398326145726e-05
mouse_head_joint,18.71999999999969,-2.672323914421071e-05
mouse_head_joint,18.73999999999969,-2.689161387703365e-05
mouse_head_joint,18.75999999999969,-2.68190938923496e-05
mouse_head_joint,18.77999999999969,-2.6933989812683024e-05
mouse_head_joint,18.799999999999688,-2.7075541185084262e-05
mouse_head_joint,18.819999999999688,-2.7044487721283872e-05
mouse_head_joint,18.839999999999687,-2.7183879478975825e-05
mouse_head_joint,18.859999999999687,-2.7112733815393142e-05
mouse_head_joint,18.879999999999686,-2.730684835849928e-05
mouse_head_joint,18.899999999999686,-2.729720735850094e-05
mouse_head_joint,18.919999999999686,-2.740730163885985e-05
mouse_head_joint,18.939999999999685,-2.7375784584116047e-05
mouse_head_joint,18.959999999999685,-2.7523655227845722e-05
mouse_head_joint,18.979999999999684,-2.7460797689116134e-05
mouse_head_joint,18.999999999999684,-2.7552407485309516e-05
mouse_head_joint,19.019999999999683,-2.7677814556703595e-05
mouse_head_joint,19.039999999999683,-2.7789695855595653e-05
mouse_head_joint,19.059999999999683,-2.7756996104244536e-05
mouse_head_joint,19.079999999999682,-2.789932216717972e-05
mouse_head_joint,19.09999999999968,-2.7831014674184473e-05
mouse_head_joint,19.11999999999968,-2.799273651810097e-05
mouse_head_joint,19.13999999999968,-2.8094024944635976e-05
mouse_head_joint,19.15999999999968,-2.8164852791334738e-05
mouse_head_joint,19.17999999999968,-2.8106648056969163e-05
mouse_head_joint,19.19999999999968,-2.8178873389350656e-05
mouse_head_joint,19.21999999999968,-2.8218138119484593e-05
mouse_head_joint,19.23999999999968,-2.8385227367699883e-05
mouse_head_joint,19.25999999999968,-2.8460640672633986e-05
mouse_head_joint,19.279999999999678,-2.8471059276391486e-05
mouse_head_joint,19.299999999999677,-2.858495992885679e-05
mouse_head_joint,19.319999999999677,-2.85853056176677e-05
mouse_head_joint,19.339999999999677,-2.8671913639755076e-05
mouse_head_joint,19.359999999999676,-2.8737048069160664e-05
mouse_head_joint,19.379999999999676,-2.8900204080528624e-05
mouse_head_joint,19.399999999999675,-2.881162136514348e-05
mouse_head_joint,19.419999999999675,-2.8908790286941155e-05
mouse_head_joint,19.439999999999674,-2.89278523375458e-05
mouse_head_joint,19.459999999999674,-2.9033760979402246e-05
mouse_head_joint,19.479999999999674,-2.921888919171778e-05
mouse_head_joint,19.499999999999673,-2.927425544285711e-05
mouse_head_joint,19.519999999999673,-2.920810919437855e-05
mouse_head_joint,19.539999999999672,-2.9310644229951777e-05
mouse_head_joint,19.559999999999672,-2.9339794817673237e-05
mouse_head_joint,19.57999999999967,-2.950798946876887e-05
mouse_head_joint,19.59999999999967,-2.9497368587705353e-05
mouse_head_joint,19.61999999999967,-2.9565004335374567e-05
mouse_head_joint,19.63999999999967,-2.9729796241717565e-05
mouse_head_joint,19.65999999999967,-2.9722139080590182e-05
mouse_head_joint,19.67999999999967,-2.9832379496497197e-05
mouse_head_joint,19.69999999999967,-2.9884232601418148e-05
mouse_head_joint,19.71999999999967,-3.005845782855232e-05
mouse_head_joint,19.739999999999668,-3.0008071578713214e-05
mouse_head_joint,19.759999999999668,-3.015615275359096e-05
mouse_head_joint,19.779999999999667,-3.009342463489162e-05
mouse_head_joint,19.799999999999667,-3.022509657579775e-05
mouse_head_joint,19.819999999999666,-3.036359328945082e-05
mouse_head_joint,19.839999999999666,-3.045907862553321e-05
mouse_head_joint,19.859999999999665,-3.05023758455647e-05
mouse_head_joint,19.879999999999665,-3.0497408281426885e-05
mouse_head_joint,19.899999999999665,-3.055698091003478e-05
mouse_head_joint,19.919999999999664,-3.078140887780023e-05
mouse_head_joint,19.939999999999664,-3.081297433471519e-05
mouse_head_joint,19.959999999999663,-3.080733364146937e-05
mouse_head_joint,19.979999999999663,-3.084541488806991e-05
mouse_head_joint,19.999999999999662,-3.092788765535204e-05
mouse_head_joint,20.019999999999662,-3.097226413117937e-05
mouse_head_joint,20.03999999999966,-3.1123629129048425e-05
mouse_head_joint,20.05999999999966,-3.126829369826112e-05
mouse_head_joint,20.07999999999966,-3.117806582775273e-05
mouse_head_joint,20.09999999999966,-3.1374078466761546e-05
mouse_head_joint,20.11999999999966,-3.131293353053621e-05
mouse_head_joint,20.13999999999966,-3.1486191704566124e-05
mouse_head_joint,20.15999999999966,-3.161395638962006e-05
mouse_head_joint,20.17999999999966,-3.16903220349829e-05
mouse_head_joint,20.19999999999966,-3.162231916054026e-05
mouse_head_joint,20.219999999999658,-3.1733827810853654e-05
mouse_head_joint,20.239999999999657,-3.175886029449515e-05
mouse_head_joint,20.259999999999657,-3.192686182718063e-05
mouse_head_joint,20.279999999999657,-3.2052699440399124e-05
mouse_head_joint,20.299999999999656,-3.2052285509287515e-05
mouse_head_joint,20.319999999999656,-3.2090417850128006e-05
mouse_head_joint,20.339999999999655,-3.217856370874017e-05
mouse_head_joint,20.359999999999655,-3.2288134245384015e-05
mouse_head_joint,20.379999999999654,-3.2401867414932894e-05
mouse_head_joint,20.399999999999654,-3.250578524482961e-05
