Name,time,Position
mouse_head_joint,0.0,0.0
mouse_head_joint,0.02,0.0
mouse_head_joint,0.04,0.0
mouse_head_joint,0.06,0.0
mouse_head_joint,0.08,0.0
mouse_head_joint,0.1,0.0
mouse_head_joint,0.12000000000000001,0.0
mouse_head_joint,0.14,0.0
mouse_head_joint,0.16,0.0
mouse_head_joint,0.18,0.0
mouse_head_joint,0.19999999999999998,8.701780469877463e-05
mouse_head_joint,0.21999999999999997,-0.0018201135557998072
mouse_head_joint,0.23999999999999996,-0.00019618625139283807
mouse_head_joint,0.25999999999999995,2.39541166182633e-05
mouse_head_joint,0.27999999999999997,7.04142522689466e-06
mouse_head_joint,0.3,6.495466912781467e-06
mouse_head_joint,0.32,-6.669979834228457e-06
mouse_head_joint,0.34,-7.610328476737038e-06
mouse_head_joint,0.36000000000000004,-8.547272513759196e-06
mouse_head_joint,0.38000000000000006,-9.583923892719781e-06
mouse_head_joint,0.4000000000000001,-1.1090257904911027e-05
mouse_head_joint,0.4200000000000001,-1.2514430316024061e-05
mouse_head_joint,0.4400000000000001,-1.436132553589431e-05
mouse_head_joint,0.46000000000000013,-1.592259072324964e-05
mouse_head_joint,0.48000000000000015,-1.763545362543084e-05
mouse_head_joint,0.5000000000000001,-1.9283988572205146e-05
mouse_head_joint,0.5200000000000001,-2.1040204377875682e-05
mouse_head_joint,0.5400000000000001,-2.291601324522219e-05
mouse_head_joint,0.5600000000000002,-2.4800815453751568e-05
mouse_head_joint,0.5800000000000002,-2.6501549779567313e-05
mouse_head_joint,0.6000000000000002,-2.821799446639517e-05
mouse_head_joint,0.6200000000000002,-3.010642823042531e-05
mouse_head_joint,0.6400000000000002,-3.158938401259803e-05
mouse_head_joint,0.6600000000000003,-3.3575062568402814e-05
mouse_head_joint,0.6800000000000003,-3.5257157608548084e-05
mouse_head_joint,0.7000000000000003,-3.7036579555227434e-05
mouse_head_joint,0.7200000000000003,-3.886487768411939e-05
mouse_head_joint,0.7400000000000003,-4.050923114728988e-05
mouse_head_joint,0.7600000000000003,-4.212652774793213e-05
mouse_head_joint,0.7800000000000004,-4.377006868683253e-05
mouse_head_joint,0.8000000000000004,-4.555284374863078e-05
mouse_head_joint,0.8200000000000004,-4.7177388252883645e-05
mouse_head_joint,0.8400000000000004,-4.894363781282607e-05
mouse_head_joint,0.8600000000000004,-5.0717691044255275e-05
mouse_head_joint,0.8800000000000004,-5.247691697807255e-05
mouse_head_joint,0.9000000000000005,-5.403739167419985e-05
mouse_head_joint,0.9200000000000005,-5.55992457380583e-05
mouse_head_joint,0.9400000000000005,-5.744115063244237e-05
mouse_head_joint,0.9600000000000005,-5.8969228028615817e-05
mouse_head_joint,0.9800000000000005,-6.04544660411932e-05
mouse_head_joint,1.0000000000000004,-6.19174424336677e-05
mouse_head_joint,1.0200000000000005,-6.34101063452519e-05
mouse_head_joint,1.0400000000000005,-6.5319836465072e-05
mouse_head_joint,1.0600000000000005,-6.678986104891038e-05
mouse_head_joint,1.0800000000000005,-6.824897339718916e-05
mouse_head_joint,1.1000000000000005,-6.966860991219903e-05
mouse_head_joint,1.1200000000000006,-7.110469265558805e-05
mouse_head_joint,1.1400000000000006,-7.282542418707294e-05
mouse_head_joint,1.1600000000000006,-7.42370035462514e-05
mouse_head_joint,1.1800000000000006,-7.581246101473482e-05
mouse_head_joint,1.2000000000000006,-7.702794528174906e-05
mouse_head_joint,1.2200000000000006,-7.858168578600555e-05
mouse_head_joint,1.2400000000000007,-7.993871754141679e-05
mouse_head_joint,1.2600000000000007,-8.146031314471003e-05
mouse_head_joint,1.2800000000000007,-8.296778623950729e-05
mouse_head_joint,1.3000000000000007,-8.430127896286166e-05
mouse_head_joint,1.3200000000000007,-8.579611928816178e-05
mouse_head_joint,1.3400000000000007,-8.72506691278474e-05
mouse_head_joint,1.3600000000000008,-8.85526689335947e-05
mouse_head_joint,1.3800000000000008,-8.979769262751347e-05
mouse_head_joint,1.4000000000000008,-9.140954198816331e-05
mouse_head_joint,1.4200000000000008,-9.258450481919311e-05
mouse_head_joint,1.4400000000000008,-9.379780105245317e-05
mouse_head_joint,1.4600000000000009,-9.495899990774603e-05
mouse_head_joint,1.4800000000000009,-9.637008457197282e-05
mouse_head_joint,1.5000000000000009,-9.774844745180644e-05
mouse_head_joint,1.520000000000001,-9.896429344280477e-05
mouse_head_joint,1.540000000000001,-0.00010029184072379849
mouse_head_joint,1.560000000000001,-0.00010159524665454
mouse_head_joint,1.580000000000001,-0.00010263702975255029
mouse_head_joint,1.600000000000001,-0.00010398019392976465
mouse_head_joint,1.620000000000001,-0.00010542807895586037
mouse_head_joint,1.640000000000001,-0.00010643834043833067
mouse_head_joint,1.660000000000001,-0.00010772282333970651
mouse_head_joint,1.680000000000001,-0.00010899441655087827
mouse_head_joint,1.700000000000001,-0.00010994936605879246
mouse_head_joint,1.720000000000001,-0.00011136929930444239
mouse_head_joint,1.740000000000001,-0.00011241485329094303
mouse_head_joint,1.7600000000000011,-0.00011341814608201162
mouse_head_joint,1.7800000000000011,-0.00011450116742928174
mouse_head_joint,1.8000000000000012,-0.000115869110620892
mouse_head_joint,1.8200000000000012,-0.00011687593038800514
mouse_head_joint,1.8400000000000012,-0.00011806175146222841
mouse_head_joint,1.8600000000000012,-0.00011904212501967493
mouse_head_joint,1.8800000000000012,-0.00012007681502090861
mouse_head_joint,1.9000000000000012,-0.00012124730609741619
mouse_head_joint,1.9200000000000013,-0.00012220654104844186
mouse_head_joint,1.9400000000000013,-0.00012336920470890078
mouse_head_joint,1.9600000000000013,-0.0001243177535759088
mouse_head_joint,1.9800000000000013,-0.0001254247615030124
mouse_head_joint,2.0000000000000013,-0.00012640285404064144
mouse_head_joint,2.0200000000000014,-0.00012753607409887735
mouse_head_joint,2.0400000000000014,-0.0001285767622727363
mouse_head_joint,2.0600000000000014,-0.00012956868048874526
mouse_head_joint,2.0800000000000014,-0.00013046850216724692
mouse_head_joint,2.1000000000000014,-0.00013156246387513448
mouse_head_joint,2.1200000000000014,-0.00013262114052370322
mouse_head_joint,2.1400000000000015,-0.0001336451303748376
mouse_head_joint,2.1600000000000015,-0.00013427062666604428
mouse_head_joint,2.1800000000000015,-0.0001353259119944994
mouse_head_joint,2.2000000000000015,-0.00013633587662198465
mouse_head_joint,2.2200000000000015,-0.00013714876200587867
mouse_head_joint,2.2400000000000015,-0.00013806991785791922
mouse_head_joint,2.2600000000000016,-0.00013925100814038416
mouse_head_joint,2.2800000000000016,-0.000139924803110425
mouse_head_joint,2.3000000000000016,-0.0001408510141525099
mouse_head_joint,2.3200000000000016,-0.0001416882557423449
mouse_head_joint,2.3400000000000016,-0.00014261253810232688
mouse_head_joint,2.3600000000000017,-0.00014353659607557745
mouse_head_joint,2.3800000000000017,-0.00014434838576704578
mouse_head_joint,2.4000000000000017,-0.0001451523627213902
mouse_head_joint,2.4200000000000017,-0.0001458960442306534
mouse_head_joint,2.4400000000000017,-0.00014694337069531827
mouse_head_joint,2.4600000000000017,-0.00014772257127582122
mouse_head_joint,2.4800000000000018,-0.00014862322850195397
mouse_head_joint,2.5000000000000018,-0.0001493869376485435
mouse_head_joint,2.520000000000002,-0.00014995111047788612
mouse_head_joint,2.540000000000002,-0.00015096417972060294
mouse_head_joint,2.560000000000002,-0.00015162840710303271
mouse_head_joint,2.580000000000002,-0.00015248009003432372
mouse_head_joint,2.600000000000002,-0.00015320425543396965
mouse_head_joint,2.620000000000002,-0.0001538351782146563
mouse_head_joint,2.640000000000002,-0.0001546754264403205
mouse_head_joint,2.660000000000002,-0.0001552984753310227
mouse_head_joint,2.680000000000002,-0.00015613462959862545
mouse_head_joint,2.700000000000002,-0.00015675147491744923
mouse_head_joint,2.720000000000002,-0.00015751593640711548
mouse_head_joint,2.740000000000002,-0.00015818712324655593
mouse_head_joint,2.760000000000002,-0.00015885132080928344
mouse_head_joint,2.780000000000002,-0.00015965924029259781
mouse_head_joint,2.800000000000002,-0.00016039813462231933
mouse_head_joint,2.820000000000002,-0.00016104058062982318
mouse_head_joint,2.840000000000002,-0.0001617632415022996
mouse_head_joint,2.860000000000002,-0.00016251479459317153
mouse_head_joint,2.880000000000002,-0.0001630517290998057
mouse_head_joint,2.900000000000002,-0.00016354130729645533
mouse_head_joint,2.920000000000002,-0.0001642907353307521
mouse_head_joint,2.940000000000002,-0.0001648907873628147
mouse_head_joint,2.960000000000002,-0.00016559332076582223
mouse_head_joint,2.980000000000002,-0.00016611568884083994
mouse_head_joint,3.000000000000002,-0.00016681987282485267
mouse_head_joint,3.0200000000000022,-0.00016730563630940054
mouse_head_joint,3.0400000000000023,-0.00016795831628790836
mouse_head_joint,3.0600000000000023,-0.00016856636474660291
mouse_head_joint,3.0800000000000023,-0.00016911902224858721
mouse_head_joint,3.1000000000000023,-0.00016972959764061102
mouse_head_joint,3.1200000000000023,-0.00017027431443583652
mouse_head_joint,3.1400000000000023,-0.00017087522524139587
mouse_head_joint,3.1600000000000024,-0.00017140169208751388
mouse_head_joint,3.1800000000000024,-0.00017199726690275696
mouse_head_joint,3.2000000000000024,-0.0001725109041021966
mouse_head_joint,3.2200000000000024,-0.00017294932199263258
mouse_head_joint,3.2400000000000024,-0.00017359316113196854
mouse_head_joint,3.2600000000000025,-0.00017420593778894045
mouse_head_joint,3.2800000000000025,-0.00017447103422885135
mouse_head_joint,3.3000000000000025,-0.00017495331607264575
mouse_head_joint,3.3200000000000025,-0.00017566923255429856
mouse_head_joint,3.3400000000000025,-0.00017604900184053918
mouse_head_joint,3.3600000000000025,-0.00017662102180882044
mouse_head_joint,3.3800000000000026,-0.00017709657087650044
mouse_head_joint,3.4000000000000026,-0.0001774542953514313
mouse_head_joint,3.4200000000000026,-0.00017790001079998063
mouse_head_joint,3.4400000000000026,-0.00017834011474349154
mouse_head_joint,3.4600000000000026,-0.00017881938354857851
mouse_head_joint,3.4800000000000026,-0.0001793846688915579
mouse_head_joint,3.5000000000000027,-0.00017972866508930707
mouse_head_joint,3.5200000000000027,-0.00018028499091116146
mouse_head_joint,3.5400000000000027,-0.00018069613865812073
mouse_head_joint,3.5600000000000027,-0.00018102582229317932
mouse_head_joint,3.5800000000000027,-0.0001814894844027748
mouse_head_joint,3.6000000000000028,-0.00018188369233396173
mouse_head_joint,3.6200000000000028,-0.00018240995774654323
mouse_head_joint,3.640000000000003,-0.00018280918045832095
mouse_head_joint,3.660000000000003,-0.00018327751681557203
mouse_head_joint,3.680000000000003,-0.00018355002125503006
mouse_head_joint,3.700000000000003,-0.00018401576634730077
mouse_head_joint,3.720000000000003,-0.0001842809819194713
mouse_head_joint,3.740000000000003,-0.00018474662468825898
mouse_head_joint,3.760000000000003,-0.00018509085498585875
mouse_head_joint,3.780000000000003,-0.00018544217464366852
mouse_head_joint,3.800000000000003,-0.00018571649206844398
mouse_head_joint,3.820000000000003,-0.00018601700793663412
mouse_head_joint,3.840000000000003,-0.0001864718213067107
mouse_head_joint,3.860000000000003,-0.0001868373097346776
mouse_head_joint,3.880000000000003,-0.00018715701571903054
mouse_head_joint,3.900000000000003,-0.0001874403405839331
mouse_head_joint,3.920000000000003,-0.00018783126247257087
mouse_head_joint,3.940000000000003,-0.00018818873506187828
mouse_head_joint,3.960000000000003,-0.00018848842435836843
mouse_head_joint,3.980000000000003,-0.0001888349125165334
mouse_head_joint,4.000000000000003,-0.00018912480431954037
mouse_head_joint,4.020000000000002,-0.00018951833292124576
mouse_head_joint,4.040000000000002,-0.00018977166862299555
mouse_head_joint,4.060000000000001,-0.00018994573964992156
mouse_head_joint,4.080000000000001,-0.00019022262067558415
mouse_head_joint,4.1000000000000005,-0.0001904817448723506
mouse_head_joint,4.12,-0.0001907284342719251
mouse_head_joint,4.14,-0.00019098486899071787
mouse_head_joint,4.159999999999999,-0.0001913459428992681
mouse_head_joint,4.179999999999999,-0.00019159341980135025
mouse_head_joint,4.199999999999998,-0.00019185070341620758
mouse_head_joint,4.219999999999998,-0.00019212028481785381
mouse_head_joint,4.2399999999999975,-0.00019235396515160375
mouse_head_joint,4.259999999999997,-0.00019258341453198824
mouse_head_joint,4.279999999999997,-0.00019271875513560133
mouse_head_joint,4.299999999999996,-0.00019298297566905376
mouse_head_joint,4.319999999999996,-0.0001931992355670431
mouse_head_joint,4.339999999999995,-0.0001936888016151883
mouse_head_joint,4.359999999999995,-0.00019366291082612008
mouse_head_joint,4.379999999999995,-0.00019399487842886032
mouse_head_joint,4.399999999999994,-0.00019419162026945713
mouse_head_joint,4.419999999999994,-0.00019449355683320846
mouse_head_joint,4.439999999999993,-0.0001946388657367848
mouse_head_joint,4.459999999999993,-0.00019482529883951827
mouse_head_joint,4.479999999999992,-0.00019499640021081177
mouse_head_joint,4.499999999999992,-0.0001951746416377631
mouse_head_joint,4.519999999999992,-0.00019523113429098515
mouse_head_joint,4.539999999999991,-0.00019550637857612685
mouse_head_joint,4.559999999999991,-0.00019567865344072288
mouse_head_joint,4.57999999999999,-0.00019572464340278373
mouse_head_joint,4.59999999999999,-0.0001960219854009182
mouse_head_joint,4.6199999999999894,-0.00019608248433033992
mouse_head_joint,4.639999999999989,-0.000196326989065021
mouse_head_joint,4.659999999999989,-0.00019637974063346775
mouse_head_joint,4.679999999999988,-0.00019655811971919235
mouse_head_joint,4.699999999999988,-0.00019669730340332592
mouse_head_joint,4.719999999999987,-0.0001968687864151164
mouse_head_joint,4.739999999999987,-0.00019712527638837685
mouse_head_joint,4.7599999999999865,-0.00019725325717789843
mouse_head_joint,4.779999999999986,-0.000197213670909413
mouse_head_joint,4.799999999999986,-0.00019742921627496912
mouse_head_joint,4.819999999999985,-0.000197451149190897
mouse_head_joint,4.839999999999985,-0.0001976813066271177
mouse_head_joint,4.859999999999984,-0.00019776845401597853
mouse_head_joint,4.879999999999984,-0.00019784374804654448
mouse_head_joint,4.8999999999999835,-0.00019804688635893797
mouse_head_joint,4.919999999999983,-0.0001980456625565452
mouse_head_joint,4.939999999999983,-0.00019824114903332912
mouse_head_joint,4.959999999999982,-0.00019822075599851274
mouse_head_joint,4.979999999999982,-0.00019846353901442626
mouse_head_joint,4.999999999999981,-0.0001985231131396148
mouse_head_joint,5.019999999999981,-0.0001986597107732635
mouse_head_joint,5.0399999999999805,-0.00019870925546072726
mouse_head_joint,5.05999999999998,-0.00019878484555846399
mouse_head_joint,5.07999999999998,-0.00019876264354845574
mouse_head_joint,5.099999999999979,-0.00019886077622111031
mouse_head_joint,5.119999999999979,-0.00019892659125542167
mouse_head_joint,5.139999999999978,-0.0001991106746421778
mouse_head_joint,5.159999999999978,-0.00019926750054555242
mouse_head_joint,5.1799999999999775,-0.00019916562600563736
mouse_head_joint,5.199999999999977,-0.00019921861102645266
mouse_head_joint,5.219999999999977,-0.0001992686445895231
mouse_head_joint,5.239999999999976,-0.00019939966448845325
mouse_head_joint,5.259999999999976,-0.0001994178127606716
mouse_head_joint,5.279999999999975,-0.00019945867931880912
mouse_head_joint,5.299999999999975,-0.00019946158879413645
mouse_head_joint,5.3199999999999745,-0.00019950422164249915
mouse_head_joint,5.339999999999974,-0.00019952790586597047
mouse_head_joint,5.359999999999974,-0.00019955686635242387
mouse_head_joint,5.379999999999973,-0.0001994750198752726
mouse_head_joint,5.399999999999973,-0.00019961492248476986
mouse_head_joint,5.419999999999972,-0.00019953426266994256
mouse_head_joint,5.439999999999972,-0.00019959735718622085
mouse_head_joint,5.4599999999999715,-0.00019970837979066403
mouse_head_joint,5.479999999999971,-0.00019962336515444434
mouse_head_joint,5.499999999999971,-0.00019963240266829274
mouse_head_joint,5.51999999999997,-0.00019975722563270182
mouse_head_joint,5.53999999999997,-0.00019957781978696687
mouse_head_joint,5.559999999999969,-0.0001997390353496442
mouse_head_joint,5.579999999999969,-0.00019957668291592512
mouse_head_joint,5.599999999999969,-0.00019976408202282414
mouse_head_joint,5.619999999999968,-0.0001996408634274971
mouse_head_joint,5.639999999999968,-0.00019963109561071946
mouse_head_joint,5.659999999999967,-0.0001995752462322642
mouse_head_joint,5.679999999999967,-0.000199560296429091
mouse_head_joint,5.699999999999966,-0.00019962446648857934
mouse_head_joint,5.719999999999966,-0.00019949754881398718
mouse_head_joint,5.739999999999966,-0.0001994711382611314
mouse_head_joint,5.759999999999965,-0.00019945668574550268
mouse_head_joint,5.779999999999965,-0.0001995326344390591
mouse_head_joint,5.799999999999964,-0.0001995162030832276
mouse_head_joint,5.819999999999964,-0.00019950101566301726
mouse_head_joint,5.839999999999963,-0.00019934878518146348
mouse_head_joint,5.859999999999963,-0.00019944559647111504
mouse_head_joint,5.879999999999963,-0.00019928993312934296
mouse_head_joint,5.899999999999962,-0.00019945592255687927
mouse_head_joint,5.919999999999962,-0.00019941167281167793
mouse_head_joint,5.939999999999961,-0.0001991907561897932
mouse_head_joint,5.959999999999961,-0.00019914180119418035
mouse_head_joint,5.9799999999999605,-0.00019905137775566573
mouse_head_joint,5.99999999999996,-0.00019894990179913918
mouse_head_joint,6.01999999999996,-0.0001990244428444754
mouse_head_joint,6.039999999999959,-0.000198836186907414
mouse_head_joint,6.059999999999959,-0.00019874638914707532
mouse_head_joint,6.079999999999958,-0.0001986841232648473
mouse_head_joint,6.099999999999958,-0.0001986198137187145
mouse_head_joint,6.1199999999999575,-0.00019854490696591398
mouse_head_joint,6.139999999999957,-0.00019858809765160856
mouse_head_joint,6.159999999999957,-0.00019841165372813663
mouse_head_joint,6.179999999999956,-0.00019846676004497965
mouse_head_joint,6.199999999999956,-0.0001982766270796077
mouse_head_joint,6.219999999999955,-0.00019819980646840207
mouse_head_joint,6.239999999999955,-0.00019813450228500784
mouse_head_joint,6.2599999999999545,-0.00019805365872560543
mouse_head_joint,6.279999999999954,-0.00019805267833117313
mouse_head_joint,6.299999999999954,-0.00019798647716218198
mouse_head_joint,6.319999999999953,-0.00019788102282092268
mouse_head_joint,6.339999999999953,-0.00019773336927109142
mouse_head_joint,6.359999999999952,-0.0001977198988756257
mouse_head_joint,6.379999999999952,-0.00019750682795383057
mouse_head_joint,6.3999999999999515,-0.00019749240792332756
mouse_head_joint,6.419999999999951,-0.0001972637606444394
mouse_head_joint,6.439999999999951,-0.0001971656932440169
mouse_head_joint,6.45999999999995,-0.00019703191134112785
mouse_head_joint,6.47999999999995,-0.00019693020998357014
mouse_head_joint,6.499999999999949,-0.00019692906040802427
mouse_head_joint,6.519999999999949,-0.00019671135929133499
mouse_head_joint,6.5399999999999485,-0.0001966042499805809
mouse_head_joint,6.559999999999948,-0.00019650431236772903
mouse_head_joint,6.579999999999948,-0.00019639373979885022
mouse_head_joint,6.599999999999947,-0.00019628154482820293
mouse_head_joint,6.619999999999947,-0.0001961775104089014
mouse_head_joint,6.639999999999946,-0.00019606194829879797
mouse_head_joint,6.659999999999946,-0.00019614424900815663
mouse_head_joint,6.6799999999999455,-0.0001959019384738525
mouse_head_joint,6.699999999999945,-0.00019578143127052527
mouse_head_joint,6.719999999999945,-0.00019559701402549479
mouse_head_joint,6.739999999999944,-0.0001954733106730444
mouse_head_joint,6.759999999999944,-0.00019537928248780645
mouse_head_joint,6.779999999999943,-0.00019525234778416944
mouse_head_joint,6.799999999999943,-0.00019498993459610148
mouse_head_joint,6.8199999999999426,-0.00019486000116675228
mouse_head_joint,6.839999999999942,-0.0001946913647641324
mouse_head_joint,6.859999999999942,-0.00019455841216942105
mouse_head_joint,6.879999999999941,-0.00019440843689455534
mouse_head_joint,6.899999999999941,-0.00019438055522158493
mouse_head_joint,6.91999999999994,-0.00019413416605740252
mouse_head_joint,6.93999999999994,-0.00019410652346074642
mouse_head_joint,6.95999999999994,-0.00019386075710681183
mouse_head_joint,6.979999999999939,-0.000193725965526248
mouse_head_joint,6.999999999999939,-0.00019369307311745132
mouse_head_joint,7.019999999999938,-0.00019343841979679866
mouse_head_joint,7.039999999999938,-0.00019336394675040225
mouse_head_joint,7.059999999999937,-0.00019321670455330064
mouse_head_joint,7.079999999999937,-0.0001929004516503241
mouse_head_joint,7.099999999999937,-0.00019285337890817544
mouse_head_joint,7.119999999999936,-0.00019277622662805527
mouse_head_joint,7.139999999999936,-0.00019262378359918841
mouse_head_joint,7.159999999999935,-0.0001923463386175328
mouse_head_joint,7.179999999999935,-0.0001921324699711846
mouse_head_joint,7.1999999999999345,-0.00019197620796518322
mouse_head_joint,7.219999999999934,-0.00019190614807396145
mouse_head_joint,7.239999999999934,-0.0001916200854585881
mouse_head_joint,7.259999999999933,-0.00019155925659308792
mouse_head_joint,7.279999999999933,-0.00019128083603803248
mouse_head_joint,7.299999999999932,-0.00019122505447644045
mouse_head_joint,7.319999999999932,-0.00019095141344926958
mouse_head_joint,7.3399999999999315,-0.00019078982360998253
mouse_head_joint,7.359999999999931,-0.00019062399356784
mouse_head_joint,7.379999999999931,-0.0001905669677988442
mouse_head_joint,7.39999999999993,-0.00019040191816888097
mouse_head_joint,7.41999999999993,-0.00019031719942752545
mouse_head_joint,7.439999999999929,-0.00019014686755181032
mouse_head_joint,7.459999999999929,-0.00018968077911107883
mouse_head_joint,7.4799999999999285,-0.00018960987587934852
mouse_head_joint,7.499999999999928,-0.00018945943719383962
mouse_head_joint,7.519999999999928,-0.00018920967684010748
mouse_head_joint,7.539999999999927,-0.00018897285561614297
mouse_head_joint,7.559999999999927,-0.0001889323683750277
mouse_head_joint,7.579999999999926,-0.00018861847536477683
mouse_head_joint,7.599999999999926,-0.00018839775613788134
mouse_head_joint,7.6199999999999255,-0.0001883159808739876
mouse_head_joint,7.639999999999925,-0.00018813533649275627
mouse_head_joint,7.659999999999925,-0.0001879409656542208
mouse_head_joint,7.679999999999924,-0.0001876474589135313
mouse_head_joint,7.699999999999924,-0.0001875724488265007
mouse_head_joint,7.719999999999923,-0.00018738801866557964
mouse_head_joint,7.739999999999923,-0.00018720398070648514
mouse_head_joint,7.7599999999999225,-0.0001870188087860214
mouse_head_joint,7.779999999999922,-0.00018672411795961352
mouse_head_joint,7.799999999999922,-0.00018672676475883776
mouse_head_joint,7.819999999999921,-0.00018653783532585066
mouse_head_joint,7.839999999999921,-0.00018605184707798372
mouse_head_joint,7.85999999999992,-0.00018596184852004427
mouse_head_joint,7.87999999999992,-0.00018584215836181528
mouse_head_joint,7.8999999999999195,-0.0001855241183612577
mouse_head_joint,7.919999999999919,-0.00018533100440176753
mouse_head_joint,7.939999999999919,-0.00018507391025845976
mouse_head_joint,7.959999999999918,-0.00018487918544085602
mouse_head_joint,7.979999999999918,-0.00018461818660497897
mouse_head_joint,7.999999999999917,-0.0001845404930742589
mouse_head_joint,8.019999999999918,-0.00018434343474815762
mouse_head_joint,8.039999999999917,-0.00018404891117640432
mouse_head_joint,8.059999999999917,-0.00018382118278736925
mouse_head_joint,8.079999999999917,-0.0001836219089215163
mouse_head_joint,8.099999999999916,-0.0001835290818528179
mouse_head_joint,8.119999999999916,-0.00018332832328926685
mouse_head_joint,8.139999999999915,-0.00018301988192703789
mouse_head_joint,8.159999999999915,-0.000182817773392685
mouse_head_joint,8.179999999999914,-0.0001827214201943761
mouse_head_joint,8.199999999999914,-0.00018230273555897014
mouse_head_joint,8.219999999999914,-0.00018209856206752306
mouse_head_joint,8.239999999999913,-0.00018199365051074778
mouse_head_joint,8.259999999999913,-0.00018178821011449742
mouse_head_joint,8.279999999999912,-0.0001816530661802318
mouse_head_joint,8.299999999999912,-0.00018139264878325179
mouse_head_joint,8.319999999999911,-0.00018118530868971305
mouse_head_joint,8.339999999999911,-0.00018092416440662618
mouse_head_joint,8.35999999999991,-0.00018071562072741187
mouse_head_joint,8.37999999999991,-0.00018047331439952075
mouse_head_joint,8.39999999999991,-0.0001802636094057064
mouse_head_joint,8.41999999999991,-0.00017993432264429288
mouse_head_joint,8.439999999999909,-0.00017971507563441236
mouse_head_joint,8.459999999999908,-0.00017950370909325386
mouse_head_joint,8.479999999999908,-0.0001792900350929827
mouse_head_joint,8.499999999999908,-0.00017907759385238364
mouse_head_joint,8.519999999999907,-0.00017897140807932033
mouse_head_joint,8.539999999999907,-0.0001786505803584859
mouse_head_joint,8.559999999999906,-0.00017862320942718668
mouse_head_joint,8.579999999999906,-0.00017840868343910188
mouse_head_joint,8.599999999999905,-0.00017789578929505723
mouse_head_joint,8.619999999999905,-0.00017777964495202525
mouse_head_joint,8.639999999999905,-0.0001775636998466723
mouse_head_joint,8.659999999999904,-0.00017741753690980744
mouse_head_joint,8.679999999999904,-0.000177145561732317
mouse_head_joint,8.699999999999903,-0.00017679059400066421
mouse_head_joint,8.719999999999903,-0.0001765269231581712
mouse_head_joint,8.739999999999903,-0.00017643803508438083
mouse_head_joint,8.759999999999902,-0.00017609009470564985
mouse_head_joint,8.779999999999902,-0.0001759663236153841
mouse_head_joint,8.799999999999901,-0.000175730451140943
mouse_head_joint,8.8199999999999,-0.00017539861774640286
mouse_head_joint,8.8399999999999,-0.00017517840028880016
mouse_head_joint,8.8599999999999,-0.00017506125383270899
mouse_head_joint,8.8799999999999,-0.00017483766107684318
mouse_head_joint,8.899999999999899,-0.00017461888630165845
mouse_head_joint,8.919999999999899,-0.0001742896998564447
mouse_head_joint,8.939999999999898,-0.00017417245400963566
mouse_head_joint,8.959999999999898,-0.00017390169263364896
mouse_head_joint,8.979999999999897,-0.00017367891608000008
mouse_head_joint,8.999999999999897,-0.0001733851430607558
mouse_head_joint,9.019999999999897,-0.0001732314386364564
mouse_head_joint,9.039999999999896,-0.00017300770910644303
mouse_head_joint,9.059999999999896,-0.00017272747595420412
mouse_head_joint,9.079999999999895,-0.00017236542532739207
mouse_head_joint,9.099999999999895,-0.0001722235911634229
mouse_head_joint,9.119999999999894,-0.00017199865468420228
mouse_head_joint,9.139999999999894,-0.00017161973829793453
mouse_head_joint,9.159999999999894,-0.0001715133820088255
mouse_head_joint,9.179999999999893,-0.00017116853478693628
mouse_head_joint,9.199999999999893,-0.0001710446778036001
mouse_head_joint,9.219999999999892,-0.00017070649582695552
mouse_head_joint,9.239999999999892,-0.00017047681470305776
mouse_head_joint,9.259999999999891,-0.00017025009914029
mouse_head_joint,9.279999999999891,-0.00017012856637155238
mouse_head_joint,9.29999999999989,-0.00016979394374061485
mouse_head_joint,9.31999999999989,-0.00016962146554799773
mouse_head_joint,9.33999999999989,-0.00016952251916624306
mouse_head_joint,9.35999999999989,-0.0001690952928967704
mouse_head_joint,9.379999999999889,-0.0001687685882476586
mouse_head_joint,9.399999999999888,-0.0001687083157548841
mouse_head_joint,9.419999999999888,-0.00016842289632368335
mouse_head_joint,9.439999999999888,-0.00016812393684872973
mouse_head_joint,9.459999999999887,-0.00016796549658693039
mouse_head_joint,9.479999999999887,-0.0001675989664029487
mouse_head_joint,9.499999999999886,-0.0001674521598555856
mouse_head_joint,9.519999999999886,-0.0001671880613214327
mouse_head_joint,9.539999999999885,-0.00016695865605953486
mouse_head_joint,9.559999999999885,-0.00016671189067096748
mouse_head_joint,9.579999999999885,-0.00016637046303280556
mouse_head_joint,9.599999999999884,-0.00016614067315057213
mouse_head_joint,9.619999999999884,-0.00016590724782350463
mouse_head_joint,9.639999999999883,-0.0001657821285894201
mouse_head_joint,9.659999999999883,-0.00016544469826218489
mouse_head_joint,9.679999999999882,-0.00016531811581899092
mouse_head_joint,9.699999999999882,-0.00016503772892040303
mouse_head_joint,9.719999999999882,-0.0001648072297149028
mouse_head_joint,9.739999999999881,-0.00016440771807069154
mouse_head_joint,9.75999999999988,-0.000164177076352523
mouse_head_joint,9.77999999999988,-0.00016411382337722102
mouse_head_joint,9.79999999999988,-0.0001637555923617029
mouse_head_joint,9.81999999999988,-0.00016345710609400044
mouse_head_joint,9.839999999999879,-0.00016336351919843395
mouse_head_joint,9.859999999999879,-0.00016307706475249262
mouse_head_joint,9.879999999999878,-0.00016284599705951308
mouse_head_joint,9.899999999999878,-0.00016248615010994172
mouse_head_joint,9.919999999999877,-0.000162230322173329
mouse_head_joint,9.939999999999877,-0.00016209339193551386
mouse_head_joint,9.959999999999877,-0.00016175783597738302
mouse_head_joint,9.979999999999876,-0.00016163094874332984
mouse_head_joint,9.999999999999876,-0.00016139969382411579
mouse_head_joint,10.019999999999875,-0.00016123956194835642
mouse_head_joint,10.039999999999875,-0.0001608267854971146
mouse_head_joint,10.059999999999874,-0.0001604797483034659
mouse_head_joint,10.079999999999874,-0.00016041568808056184
mouse_head_joint,10.099999999999874,-0.0001600570192259454
mouse_head_joint,10.119999999999873,-0.0001598257388115698
mouse_head_joint,10.139999999999873,-0.0001596531528988976
mouse_head_joint,10.159999999999872,-0.0001594905787110079
mouse_head_joint,10.179999999999872,-0.00015925934279525933
mouse_head_joint,10.199999999999871,-0.0001589146370095662
mouse_head_joint,10.219999999999871,-0.0001587388362196407
mouse_head_joint,10.23999999999987,-0.00015845228706279357
mouse_head_joint,10.25999999999987,-0.0001582211674930889
mouse_head_joint,10.27999999999987,-0.00015795543939933765
mouse_head_joint,10.29999999999987,-0.0001576063375470227
mouse_head_joint,10.319999999999869,-0.00015747640295060705
mouse_head_joint,10.339999999999868,-0.0001571345554225445
mouse_head_joint,10.359999999999868,-0.00015690374460408663
mouse_head_joint,10.379999999999868,-0.00015667299715360627
mouse_head_joint,10.399999999999867,-0.00015643885031568772
mouse_head_joint,10.419999999999867,-0.00015618851113252674
mouse_head_joint,10.439999999999866,-0.0001559753214781523
mouse_head_joint,10.459999999999866,-0.00015572757485493582
mouse_head_joint,10.479999999999865,-0.00015556636575375649
mouse_head_joint,10.499999999999865,-0.00015516841007823245
mouse_head_joint,10.519999999999865,-0.00015493824064716222
mouse_head_joint,10.539999999999864,-0.00015476166099848143
mouse_head_joint,10.559999999999864,-0.00015464524102792865
mouse_head_joint,10.579999999999863,-0.00015435699381516343
mouse_head_joint,10.599999999999863,-0.00015394428379877922
mouse_head_joint,10.619999999999862,-0.00015384239402038702
mouse_head_joint,10.639999999999862,-0.00015348515047097777
mouse_head_joint,10.659999999999862,-0.00015334916002984755
mouse_head_joint,10.679999999999861,-0.00015311987989008458
mouse_head_joint,10.69999999999986,-0.00015287402999053512
mouse_head_joint,10.71999999999986,-0.00015264502410872183
mouse_head_joint,10.73999999999986,-0.00015230579480451922
mouse_head_joint,10.75999999999986,-0.00015207389103188973
mouse_head_joint,10.779999999999859,-0.00015194915953387067
mouse_head_joint,10.799999999999859,-0.00015179446812307873
mouse_head_joint,10.819999999999858,-0.00015138649579959917
mouse_head_joint,10.839999999999858,-0.0001513380392390573
mouse_head_joint,10.859999999999857,-0.00015111005103474184
mouse_head_joint,10.879999999999857,-0.0001505870298457168
mouse_head_joint,10.899999999999856,-0.00015045811811376097
mouse_head_joint,10.919999999999856,-0.0001502306697078737
mouse_head_joint,10.939999999999856,-0.00014994478398921984
mouse_head_joint,10.959999999999855,-0.00014971767689253568
mouse_head_joint,10.979999999999855,-0.000149423185257902
mouse_head_joint,10.999999999999854,-0.00014915053055819527
mouse_head_joint,11.019999999999854,-0.00014892398605326207
mouse_head_joint,11.039999999999853,-0.00014879087638242083
mouse_head_joint,11.059999999999853,-0.0001485646895771353
mouse_head_joint,11.079999999999853,-0.00014831627685030213
mouse_head_joint,11.099999999999852,-0.00014809051947128893
mouse_head_joint,11.119999999999852,-0.00014786495458629645
mouse_head_joint,11.139999999999851,-0.0001476395849522305
mouse_head_joint,11.159999999999851,-0.000147411739547465
mouse_head_joint,11.17999999999985,-0.0001471867912146152
mouse_head_joint,11.19999999999985,-0.00014695897324745744
mouse_head_joint,11.21999999999985,-0.0001466830517520279
mouse_head_joint,11.23999999999985,-0.0001464587375474835
mouse_head_joint,11.259999999999849,-0.0001460686909195985
mouse_head_joint,11.279999999999848,-0.0001459437593727131
mouse_head_joint,11.299999999999848,-0.00014578838926304627
mouse_head_joint,11.319999999999848,-0.00014543838023950428
mouse_head_joint,11.339999999999847,-0.00014528327756835324
mouse_head_joint,11.359999999999847,-0.00014506033127936746
mouse_head_joint,11.379999999999846,-0.0001447023570309014
mouse_head_joint,11.399999999999846,-0.00014456091040049301
mouse_head_joint,11.419999999999845,-0.00014429000576843265
mouse_head_joint,11.439999999999845,-0.00014396760789381347
mouse_head_joint,11.459999999999845,-0.0001437459310844602
mouse_head_joint,11.479999999999844,-0.00014351597206196942
mouse_head_joint,11.499999999999844,-0.00014329481174435443
mouse_head_joint,11.519999999999843,-0.00014307166357774292
mouse_head_joint,11.539999999999843,-0.00014285102571243158
mouse_head_joint,11.559999999999842,-0.00014273398226105627
mouse_head_joint,11.579999999999842,-0.000142587484405432
mouse_head_joint,11.599999999999842,-0.00014229135960519557
mouse_head_joint,11.619999999999841,-0.00014185526277366023
mouse_head_joint,11.63999999999984,-0.0001418032936548741
mouse_head_joint,11.65999999999984,-0.00014151608802315252
mouse_head_joint,11.67999999999984,-0.00014129732703693776
mouse_head_joint,11.69999999999984,-0.00014108851334349026
mouse_head_joint,11.719999999999839,-0.00014073568563333083
mouse_head_joint,11.739999999999839,-0.0001405177682798353
mouse_head_joint,11.759999999999838,-0.00014030012314858453
mouse_head_joint,11.779999999999838,-0.00014016365735081138
mouse_head_joint,11.799999999999837,-0.00013982118240196684
mouse_head_joint,11.819999999999837,-0.00013969749342113147
mouse_head_joint,11.839999999999836,-0.0001394661905465
mouse_head_joint,11.859999999999836,-0.0001392500132242347
mouse_head_joint,11.879999999999836,-0.00013892598021403302
mouse_head_joint,11.899999999999835,-0.00013870881965960535
mouse_head_joint,11.919999999999835,-0.00013849278848443447
mouse_head_joint,11.939999999999834,-0.0001382778668208573
mouse_head_joint,11.959999999999834,-0.0001381650571312676
mouse_head_joint,11.979999999999833,-0.00013802654022931904
mouse_head_joint,11.999999999999833,-0.00013768517607903874
mouse_head_joint,12.019999999999833,-0.00013747142515452282
mouse_head_joint,12.039999999999832,-0.00013709413528584236
mouse_head_joint,12.059999999999832,-0.00013698051906541053
mouse_head_joint,12.079999999999831,-0.00013664365086984986
mouse_head_joint,12.099999999999831,-0.00013649762148926214
mouse_head_joint,12.11999999999983,-0.00013635288520763567
mouse_head_joint,12.13999999999983,-0.00013600729634255515
mouse_head_joint,12.15999999999983,-0.00013587662751035623
mouse_head_joint,12.17999999999983,-0.00013554096190038223
mouse_head_joint,12.199999999999829,-0.0001354231837495945
mouse_head_joint,12.219999999999828,-0.00013509838072423008
mouse_head_joint,12.239999999999828,-0.00013488121200211367
mouse_head_joint,12.259999999999827,-0.0001346714144068173
mouse_head_joint,12.279999999999827,-0.00013446105716941048
mouse_head_joint,12.299999999999827,-0.00013435494267532988
mouse_head_joint,12.319999999999826,-0.0001341461377597497
mouse_head_joint,12.339999999999826,-0.00013393622358393031
mouse_head_joint,12.359999999999825,-0.0001338035319840003
mouse_head_joint,12.379999999999825,-0.0001333060412305187
mouse_head_joint,12.399999999999824,-0.0001330986348033747
mouse_head_joint,12.419999999999824,-0.0001329340886080388
mouse_head_joint,12.439999999999824,-0.00013278462914456668
mouse_head_joint,12.459999999999823,-0.00013264634425969035
mouse_head_joint,12.479999999999823,-0.00013238211018773427
mouse_head_joint,12.499999999999822,-0.00013217639363816147
mouse_head_joint,12.519999999999822,-0.00013191889818564562
mouse_head_joint,12.539999999999822,-0.0001315903299117238
mouse_head_joint,12.559999999999821,-0.00013138571667070664
mouse_head_joint,12.57999999999982,-0.0001312613639141702
mouse_head_joint,12.59999999999982,-0.0001309572196639408
mouse_head_joint,12.61999999999982,-0.00013074753396846717
mouse_head_joint,12.63999999999982,-0.00013054424416214516
mouse_head_joint,12.659999999999819,-0.00013044434259690263
mouse_head_joint,12.679999999999819,-0.0001302419170867708
mouse_head_joint,12.699999999999818,-0.00012998768929950444
mouse_head_joint,12.719999999999818,-0.00012991242156967786
mouse_head_joint,12.739999999999817,-0.0001296360185722989
mouse_head_joint,12.759999999999817,-0.00012938367584869326
mouse_head_joint,12.779999999999816,-0.00012912159351863295
mouse_head_joint,12.799999999999816,-0.0001289213911412901
mouse_head_joint,12.819999999999816,-0.0001287215433114497
mouse_head_joint,12.839999999999815,-0.00012846532255661458
mouse_head_joint,12.859999999999815,-0.00012833306988646598
mouse_head_joint,12.879999999999814,-0.00012800224220210765
mouse_head_joint,12.899999999999814,-0.00012788462456292393
mouse_head_joint,12.919999999999813,-0.00012756404860247983
mouse_head_joint,12.939999999999813,-0.00012734705325723183
mouse_head_joint,12.959999999999813,-0.0001271498720347708
mouse_head_joint,12.979999999999812,-0.00012705327744466643
mouse_head_joint,12.999999999999812,-0.00012692931765734272
mouse_head_joint,13.019999999999811,-0.00012665820323665145
mouse_head_joint,13.03999999999981,-0.0001264631038990771
mouse_head_joint,13.05999999999981,-0.0001261651102781869
mouse_head_joint,13.07999999999981,-0.0001259715626327207
mouse_head_joint,13.09999999999981,-0.00012577706639138597
mouse_head_joint,13.11999999999981,-0.00012575887187260548
mouse_head_joint,13.139999999999809,-0.00012544738710040804
mouse_head_joint,13.159999999999808,-0.00012525407880747963
mouse_head_joint,13.179999999999808,-0.00012487208405076444
mouse_head_joint,13.199999999999807,-0.0001248685766359614
mouse_head_joint,13.219999999999807,-0.0001246763842299714
mouse_head_joint,13.239999999999807,-0.00012442688080316344
mouse_head_joint,13.259999999999806,-0.00012410430173925846
mouse_head_joint,13.279999999999806,-0.00012399400963136742
mouse_head_joint,13.299999999999805,-0.00012365894957255819
mouse_head_joint,13.319999999999805,-0.0001235846858245182
mouse_head_joint,13.339999999999804,-0.00012339485667567374
mouse_head_joint,13.359999999999804,-0.0001230940798198077
mouse_head_joint,13.379999999999804,-0.0001229007912444402
mouse_head_joint,13.399999999999803,-0.00012271219768766883
mouse_head_joint,13.419999999999803,-0.00012252558208381004
mouse_head_joint,13.439999999999802,-0.00012244037509745453
mouse_head_joint,13.459999999999802,-0.00012215252826752732
mouse_head_joint,13.479999999999801,-0.00012214094883500337
mouse_head_joint,13.499999999999801,-0.00012195431600670048
mouse_head_joint,13.5199999999998,-0.00012164271909043123
mouse_head_joint,13.5399999999998,-0.00012139869256166946
mouse_head_joint,13.5599999999998,-0.00012111237097300886
mouse_head_joint,13.5799999999998,-0.00012109641991386866
mouse_head_joint,13.599999999999799,-0.000120788070203659
mouse_head_joint,13.619999999999798,-0.00012067019117889544
mouse_head_joint,13.639999999999798,-0.00012048637198436296
mouse_head_joint,13.659999999999798,-0.00012025347511013251
mouse_head_joint,13.679999999999797,-0.00011994999360886993
mouse_head_joint,13.699999999999797,-0.00011976743435049286
mouse_head_joint,13.719999999999796,-0.00011966818757169762
mouse_head_joint,13.739999999999796,-0.00011948645668002911
mouse_head_joint,13.759999999999796,-0.0001192016620787939
mouse_head_joint,13.779999999999795,-0.00011902075947745061
mouse_head_joint,13.799999999999795,-0.00011894519412436466
mouse_head_joint,13.819999999999794,-0.0001186626592781792
mouse_head_joint,13.839999999999794,-0.00011858541350218132
mouse_head_joint,13.859999999999793,-0.000118306670914059
mouse_head_joint,13.879999999999793,-0.00011817778929401612
mouse_head_joint,13.899999999999793,-0.00011799931273603903
mouse_head_joint,13.919999999999792,-0.0001178212274997037
mouse_head_joint,13.939999999999792,-0.00011758712906484448
mouse_head_joint,13.959999999999791,-0.00011740991301145698
mouse_head_joint,13.97999999999979,-0.00011724404537538646
mouse_head_joint,13.99999999999979,-0.00011706762856622532
mouse_head_joint,14.01999999999979,-0.00011689160455841119
mouse_head_joint,14.03999999999979,-0.0001165479941214187
mouse_head_joint,14.059999999999789,-0.00011649226079413211
mouse_head_joint,14.079999999999789,-0.00011629121458334168
mouse_head_joint,14.099999999999788,-0.00011600760385732656
mouse_head_joint,14.119999999999788,-0.00011593385774766318
mouse_head_joint,14.139999999999787,-0.00011565792879331127
mouse_head_joint,14.159999999999787,-0.00011558749208351315
mouse_head_joint,14.179999999999787,-0.00011531560501687466
mouse_head_joint,14.199999999999786,-0.00011514338010165659
mouse_head_joint,14.219999999999786,-0.00011507385821918348
mouse_head_joint,14.239999999999785,-0.00011490474141950813
mouse_head_joint,14.259999999999785,-0.00011452750514973076
mouse_head_joint,14.279999999999784,-0.00011446500143286187
mouse_head_joint,14.299999999999784,-0.00011430518818400515
mouse_head_joint,14.319999999999784,-0.00011401729368465396
mouse_head_joint,14.339999999999783,-0.00011381472871452303
mouse_head_joint,14.359999999999783,-0.00011375023635995518
mouse_head_joint,14.379999999999782,-0.00011351061688280595
mouse_head_joint,14.399999999999782,-0.00011339792508202606
mouse_head_joint,14.419999999999781,-0.00011325681469287474
mouse_head_joint,14.439999999999781,-0.00011302062480744723
mouse_head_joint,14.45999999999978,-0.00011287800045245433
mouse_head_joint,14.47999999999978,-0.00011259877090274983
mouse_head_joint,14.49999999999978,-0.00011254118421888393
mouse_head_joint,14.51999999999978,-0.00011247414104786913
mouse_head_joint,14.539999999999779,-0.00011219410283747067
mouse_head_joint,14.559999999999778,-0.00011192385513236758
mouse_head_joint,14.579999999999778,-0.00011182063921388874
mouse_head_joint,14.599999999999778,-0.00011154901783250182
mouse_head_joint,14.619999999999777,-0.00011140472276860436
mouse_head_joint,14.639999999999777,-0.00011135041344534358
mouse_head_joint,14.659999999999776,-0.00011100953454334928
mouse_head_joint,14.679999999999776,-0.00011100907994521236
mouse_head_joint,14.699999999999775,-0.00011079202650776665
mouse_head_joint,14.719999999999775,-0.00011053695996920965
mouse_head_joint,14.739999999999775,-0.00011047541212239054
mouse_head_joint,14.759999999999774,-0.00011041097218011942
mouse_head_joint,14.779999999999774,-0.00011013283533589657
mouse_head_joint,14.799999999999773,-0.00011000854384946024
mouse_head_joint,14.819999999999773,-0.00010972730757430327
mouse_head_joint,14.839999999999772,-0.00010962508093292911
mouse_head_joint,14.859999999999772,-0.00010938065745058623
mouse_head_joint,14.879999999999772,-0.0001093218015792985
mouse_head_joint,14.899999999999771,-0.00010913786101518497
mouse_head_joint,14.91999999999977,-0.00010899484157445016
mouse_head_joint,14.93999999999977,-0.00010865265334114582
mouse_head_joint,14.95999999999977,-0.00010865521094416408
mouse_head_joint,14.97999999999977,-0.00010849210339003434
mouse_head_joint,14.999999999999769,-0.0001082513879708813
mouse_head_joint,15.019999999999769,-0.00010819493007829806
mouse_head_joint,15.039999999999768,-0.00010796039909966026
mouse_head_joint,15.059999999999768,-0.00010775478083768775
mouse_head_joint,15.079999999999767,-0.00010753085719894528
mouse_head_joint,15.099999999999767,-0.00010743136024693456
mouse_head_joint,15.119999999999767,-0.00010727332522186828
mouse_head_joint,15.139999999999766,-0.0001071900764841871
mouse_head_joint,15.159999999999766,-0.00010700407999486572
mouse_head_joint,15.179999999999765,-0.00010671167984543928
mouse_head_joint,15.199999999999765,-0.0001065967873143947
mouse_head_joint,15.219999999999764,-0.00010644128244319262
mouse_head_joint,15.239999999999764,-0.00010645022797906023
mouse_head_joint,15.259999999999764,-0.00010609528861582618
mouse_head_joint,15.279999999999763,-0.00010612530282383403
mouse_head_joint,15.299999999999763,-0.00010581341657278642
mouse_head_joint,15.319999999999762,-0.00010563270821517534
mouse_head_joint,15.339999999999762,-0.00010565619858660114
mouse_head_joint,15.359999999999761,-0.00010557399886756968
mouse_head_joint,15.379999999999761,-0.00010533365768861103
mouse_head_joint,15.39999999999976,-0.00010502192133543531
mouse_head_joint,15.41999999999976,-0.00010496648219948668
mouse_head_joint,15.43999999999976,-0.00010485249152836218
mouse_head_joint,15.45999999999976,-0.00010470134423989919
mouse_head_joint,15.479999999999759,-0.0001043913130409635
mouse_head_joint,15.499999999999758,-0.00010441133718419593
mouse_head_joint,15.519999999999758,-0.00010411761400508368
mouse_head_joint,15.539999999999758,-0.00010407769910614206
mouse_head_joint,15.559999999999757,-0.00010382707827449877
mouse_head_joint,15.579999999999757,-0.00010371977189205239
mouse_head_joint,15.599999999999756,-0.00010362844453304376
mouse_head_joint,15.619999999999756,-0.00010347683705891342
mouse_head_joint,15.639999999999755,-0.00010324131907868406
mouse_head_joint,15.659999999999755,-0.00010316277610655789
mouse_head_joint,15.679999999999755,-0.00010305519811204533
mouse_head_joint,15.699999999999754,-0.00010282638824499202
mouse_head_joint,15.719999999999754,-0.00010271340195711076
mouse_head_joint,15.739999999999753,-0.00010260383946292251
mouse_head_joint,15.759999999999753,-0.00010232456101633147
mouse_head_joint,15.779999999999752,-0.00010230260821497694
mouse_head_joint,15.799999999999752,-0.00010207193785838342
mouse_head_joint,15.819999999999752,-0.00010213831292738007
mouse_head_joint,15.839999999999751,-0.00010190258478548486
mouse_head_joint,15.85999999999975,-0.00010161866926861052
mouse_head_joint,15.87999999999975,-0.0001014722547498792
mouse_head_joint,15.89999999999975,-0.00010142643658905826
mouse_head_joint,15.91999999999975,-0.0001013360228609983
mouse_head_joint,15.939999999999749,-0.00010114960955931451
mouse_head_joint,15.959999999999749,-0.00010106909585694268
mouse_head_joint,15.979999999999748,-0.00010085478829324757
mouse_head_joint,15.999999999999748,-0.00010060387732746534
mouse_head_joint,16.019999999999747,-0.00010050874304301516
mouse_head_joint,16.039999999999747,-0.00010043072879906134
mouse_head_joint,16.059999999999746,-0.00010035094003768563
mouse_head_joint,16.079999999999746,-0.00010014037948913312
mouse_head_joint,16.099999999999746,-9.999384774417308e-05
mouse_head_joint,16.119999999999745,-9.979431778361914e-05
mouse_head_joint,16.139999999999745,-9.97699565008503e-05
mouse_head_joint,16.159999999999744,-9.962112008032875e-05
mouse_head_joint,16.179999999999744,-9.950949443471302e-05
mouse_head_joint,16.199999999999743,-9.92320626691523e-05
mouse_head_joint,16.219999999999743,-9.919448049178214e-05
mouse_head_joint,16.239999999999743,-9.906500955914055e-05
mouse_head_joint,16.259999999999742,-9.887656897866748e-05
mouse_head_joint,16.279999999999742,-9.879601955287143e-05
mouse_head_joint,16.29999999999974,-9.860001852235456e-05
mouse_head_joint,16.31999999999974,-9.851751862033353e-05
mouse_head_joint,16.33999999999974,-9.837528375999938e-05
mouse_head_joint,16.35999999999974,-9.836172420740752e-05
mouse_head_joint,16.37999999999974,-9.8160554356852e-05
mouse_head_joint,16.39999999999974,-9.797212666473598e-05
mouse_head_joint,16.41999999999974,-9.775492877128755e-05
mouse_head_joint,16.43999999999974,-9.771807937131172e-05
mouse_head_joint,16.459999999999738,-9.751062505625185e-05
mouse_head_joint,16.479999999999738,-9.738835182115935e-05
mouse_head_joint,16.499999999999737,-9.734533974015136e-05
mouse_head_joint,16.519999999999737,-9.717937093522977e-05
mouse_head_joint,16.539999999999736,-9.70942830349486e-05
mouse_head_joint,16.559999999999736,-9.684588552172357e-05
mouse_head_joint,16.579999999999735,-9.681289705465446e-05
mouse_head_joint,16.599999999999735,-9.663766167467003e-05
mouse_head_joint,16.619999999999735,-9.656314330364069e-05
mouse_head_joint,16.639999999999734,-9.649439960934814e-05
mouse_head_joint,16.659999999999734,-9.621438156948159e-05
mouse_head_joint,16.679999999999733,-9.616236676990297e-05
mouse_head_joint,16.699999999999733,-9.60813303478858e-05
mouse_head_joint,16.719999999999732,-9.596368406494804e-05
mouse_head_joint,16.739999999999732,-9.567950528666103e-05
mouse_head_joint,16.75999999999973,-9.561535615354444e-05
mouse_head_joint,16.77999999999973,-9.554131295175239e-05
mouse_head_joint,16.79999999999973,-9.534316195036752e-05
mouse_head_joint,16.81999999999973,-9.531863389167228e-05
mouse_head_joint,16.83999999999973,-9.531059407574816e-05
mouse_head_joint,16.85999999999973,-9.503214013140138e-05
mouse_head_joint,16.87999999999973,-9.495201523712637e-05
mouse_head_joint,16.89999999999973,-9.480673494444147e-05
mouse_head_joint,16.919999999999728,-9.459211006479507e-05
mouse_head_joint,16.939999999999728,-9.451831045304004e-05
mouse_head_joint,16.959999999999727,-9.430521742093134e-05
mouse_head_joint,16.979999999999727,-9.42698393187058e-05
mouse_head_joint,16.999999999999726,-9.41989777665242e-05
mouse_head_joint,17.019999999999726,-9.397137528743826e-05
mouse_head_joint,17.039999999999726,-9.390505542139493e-05
mouse_head_joint,17.059999999999725,-9.388474033489302e-05
mouse_head_joint,17.079999999999725,-9.366054940418422e-05
mouse_head_joint,17.099999999999724,-9.361998491019818e-05
mouse_head_joint,17.119999999999724,-9.348209753134995e-05
mouse_head_joint,17.139999999999723,-9.33820687674114e-05
mouse_head_joint,17.159999999999723,-9.32735610934543e-05
mouse_head_joint,17.179999999999723,-9.315186336600334e-05
mouse_head_joint,17.199999999999722,-9.306321159829878e-05
mouse_head_joint,17.21999999999972,-9.292639233571265e-05
mouse_head_joint,17.23999999999972,-9.269219002305817e-05
mouse_head_joint,17.25999999999972,-9.26741117721619e-05
mouse_head_joint,17.27999999999972,-9.251396987419724e-05
mouse_head_joint,17.29999999999972,-9.245072570784885e-05
mouse_head_joint,17.31999999999972,-9.2221907639356e-05
mouse_head_joint,17.33999999999972,-9.212954999604506e-05
mouse_head_joint,17.35999999999972,-9.209235266727234e-05
mouse_head_joint,17.37999999999972,-9.202468445845824e-05
mouse_head_joint,17.399999999999718,-9.19914547221623e-05
mouse_head_joint,17.419999999999717,-9.164656486415623e-05
mouse_head_joint,17.439999999999717,-9.166767117640973e-05
mouse_head_joint,17.459999999999717,-9.152058979999822e-05
mouse_head_joint,17.479999999999716,-9.134710898717202e-05
mouse_head_joint,17.499999999999716,-9.134146806566434e-05
mouse_head_joint,17.519999999999715,-9.122609899137046e-05
mouse_head_joint,17.539999999999715,-9.108208128960626e-05
mouse_head_joint,17.559999999999715,-9.09740959658123e-05
mouse_head_joint,17.579999999999714,-9.078716945065679e-05
mouse_head_joint,17.599999999999714,-9.078334300749447e-05
mouse_head_joint,17.619999999999713,-9.07201535413904e-05
mouse_head_joint,17.639999999999713,-9.05636273831334e-05
mouse_head_joint,17.659999999999712,-9.034246853811823e-05
mouse_head_joint,17.679999999999712,-9.025556222042042e-05
mouse_head_joint,17.69999999999971,-9.022472155439942e-05
mouse_head_joint,17.71999999999971,-9.016416417662043e-05
mouse_head_joint,17.73999999999971,-8.987728795961658e-05
mouse_head_joint,17.75999999999971,-8.985566675523415e-05
mouse_head_joint,17.77999999999971,-8.982537496216025e-05
mouse_head_joint,17.79999999999971,-8.95934453373215e-05
mouse_head_joint,17.81999999999971,-8.951840361870467e-05
mouse_head_joint,17.83999999999971,-8.95187361118488e-05
mouse_head_joint,17.859999999999708,-8.940936437262792e-05
mouse_head_joint,17.879999999999708,-8.933392177734589e-05
mouse_head_joint,17.899999999999707,-8.920835435155539e-05
mouse_head_joint,17.919999999999707,-8.908492218751007e-05
mouse_head_joint,17.939999999999706,-8.889223090324805e-05
mouse_head_joint,17.959999999999706,-8.900346448559304e-05
mouse_head_joint,17.979999999999706,-8.87842513570547e-05
mouse_head_joint,17.999999999999705,-8.862601473946796e-05
mouse_head_joint,18.019999999999705,-8.848887847889841e-05
mouse_head_joint,18.039999999999704,-8.846614318880341e-05
mouse_head_joint,18.059999999999704,-8.831070841797128e-05
mouse_head_joint,18.079999999999703,-8.838831205082442e-05
mouse_head_joint,18.099999999999703,-8.805993108484955e-05
mouse_head_joint,18.119999999999703,-8.801994858576023e-05
mouse_head_joint,18.139999999999702,-8.785999171934122e-05
mouse_head_joint,18.1599999999997,-8.78944291127226e-05
mouse_head_joint,18.1799999999997,-8.771376246219376e-05
mouse_head_joint,18.1999999999997,-8.755764020129675e-05
mouse_head_joint,18.2199999999997,-8.76287094460082e-05
mouse_head_joint,18.2399999999997,-8.7508459850838e-05
mouse_head_joint,18.2599999999997,-8.730822311964204e-05
mouse_head_joint,18.2799999999997,-8.72059853485041e-05
mouse_head_joint,18.2999999999997,-8.732234507036196e-05
mouse_head_joint,18.3199999999997,-8.710873257022911e-05
mouse_head_joint,18.339999999999698,-8.695707669659214e-05
mouse_head_joint,18.359999999999697,-8.682556326444768e-05
mouse_head_joint,18.379999999999697,-8.680675789562997e-05
mouse_head_joint,18.399999999999697,-8.675959044435189e-05
mouse_head_joint,18.419999999999696,-8.674271221309482e-05
mouse_head_joint,18.439999999999696,-8.642087387755737e-05
mouse_head_joint,18.459999999999695,-8.645528742246e-05
mouse_head_joint,18.479999999999695,-8.634199472457027e-05
mouse_head_joint,18.499999999999694,-8.627299045205206e-05
mouse_head_joint,18.519999999999694,-8.618566252938109e-05
mouse_head_joint,18.539999999999694,-8.59485333810639e-05
mouse_head_joint,18.559999999999693,-8.596364272595025e-05
mouse_head_joint,18.579999999999693,-8.590937424735046e-05
mouse_head_joint,18.599999999999692,-8.570496704507491e-05
mouse_head_joint,18.619999999999692,-8.563349881640647e-05
mouse_head_joint,18.63999999999969,-8.566308093449493e-05
mouse_head_joint,18.65999999999969,-8.553307249137276e-05
mouse_head_joint,18.67999999999969,-8.538774576205554e-05
mouse_head_joint,18.69999999999969,-8.52616335684786e-05
mouse_head_joint,18.71999999999969,-8.515372992334846e-05
mouse_head_joint,18.73999999999969,-8.510828598584652e-05
mouse_head_joint,18.75999999999969,-8.512568745899785e-05
mouse_head_joint,18.77999999999969,-8.499664030559018e-05
mouse_head_joint,18.799999999999688,-8.491954628198073e-05
mouse_head_joint,18.819999999999688,-8.470790859060884e-05
mouse_head_joint,18.839999999999687,-8.465042829186586e-05
mouse_head_joint,18.859999999999687,-8.466735809697923e-05
mouse_head_joint,18.879999999999686,-8.469195210469849e-05
mouse_head_joint,18.899999999999686,-8.445684471602988e-05
mouse_head_joint,18.919999999999686,-8.429238561369345e-05
mouse_head_joint,18.939999999999685,-8.420905172812354e-05
mouse_head_joint,18.959999999999685,-8.423027169346398e-05
mouse_head_joint,18.979999999999684,-8.425629653174838e-05
mouse_head_joint,18.999999999999684,-8.405324505389444e-05
mouse_head_joint,19.019999999999683,-8.3913988278006e-05
mouse_head_joint,19.039999999999683,-8.379305088013211e-05
mouse_head_joint,19.059999999999683,-8.37896542629224e-05
mouse_head_joint,19.079999999999682,-8.375054188647368e-05
mouse_head_joint,19.09999999999968,-8.374348394291076e-05
mouse_head_joint,19.11999999999968,-8.353993383014569e-05
mouse_head_joint,19.13999999999968,-8.340961382291567e-05
mouse_head_joint,19.15999999999968,-8.327258026952222e-05
mouse_head_joint,19.17999999999968,-8.32321879631337e-05
mouse_head_joint,19.19999999999968,-8.315720213136757e-05
mouse_head_joint,19.21999999999968,-8.327177882083703e-05
mouse_head_joint,19.23999999999968,-8.304300170003387e-05
mouse_head_joint,19.25999999999968,-8.288364697328632e-05
mouse_head_joint,19.279999999999678,-8.280562009144177e-05
mouse_head_joint,19.299999999999677,-8.283264907493759e-05
mouse_head_joint,19.319999999999677,-8.279694464796705e-05
mouse_head_joint,19.339999999999677,-8.266520369470953e-05
mouse_head_joint,19.359999999999676,-8.253175683581304e-05
mouse_head_joint,19.379999999999676,-8.249619130573649e-05
mouse_head_joint,19.399999999999675,-8.241326397051552e-05
mouse_head_joint,19.419999999999675,-8.238424967821345e-05
mouse_head_joint,19.439999999999674,-8.231244905321233e-05
mouse_head_joint,19.459999999999674,-8.207809229432428e-05
mouse_head_joint,19.479999999999674,-8.205845147379875e-05
mouse_head_joint,19.499999999999673,-8.192710985710505e-05
mouse_head_joint,19.519999999999673,-8.188016415289212e-05
mouse_head_joint,19.539999999999672,-8.182247962462696e-05
mouse_head_joint,19.559999999999672,-8.194078122780724e-05
mouse_head_joint,19.57999999999967,-8.167007242132485e-05
mouse_head_joint,19.59999999999967,-8.156358678057529e-05
mouse_head_joint,19.61999999999967,-8.149063240558974e-05
mouse_head_joint,19.63999999999967,-8.142366668550949e-05
mouse_head_joint,19.65999999999967,-8.139504217208327e-05
mouse_head_joint,19.67999999999967,-8.136491372301435e-05
mouse_head_joint,19.69999999999967,-8.129711800375361e-05
mouse_head_joint,19.71999999999967,-8.120686667201227e-05
mouse_head_joint,19.739999999999668,-8.112821811945281e-05
mouse_head_joint,19.759999999999668,-8.100592809423546e-05
mouse_head_joint,19.779999999999667,-8.103767525380334e-05
mouse_head_joint,19.799999999999667,-8.097804519024976e-05
mouse_head_joint,19.819999999999666,-8.075517405625732e-05
mouse_head_joint,19.839999999999666,-8.066747438828514e-05
mouse_head_joint,19.859999999999665,-8.072388356783478e-05
mouse_head_joint,19.879999999999665,-8.065693044034816e-05
mouse_head_joint,19.899999999999665,-8.069494333717842e-05
mouse_head_joint,19.919999999999664,-8.047803859767555e-05
mouse_head_joint,19.939999999999664,-8.044052065958596e-05
mouse_head_joint,19.959999999999663,-8.026512171177558e-05
mouse_head_joint,19.979999999999663,-8.028451611519216e-05
mouse_head_joint,19.999999999999662,-8.027165450386065e-05
mouse_head_joint,20.019999999999662,-8.001444571181793e-05
mouse_head_joint,20.03999999999966,-8.002577112620202e-05
mouse_head_joint,20.05999999999966,-7.991901847148597e-05
mouse_head_joint,20.07999999999966,-7.983475760653391e-05
mouse_head_joint,20.09999999999966,-7.99079999262986e-05
mouse_head_joint,20.11999999999966,-7.991405668583695e-05
mouse_head_joint,20.13999999999966,-7.979064092733523e-05
mouse_head_joint,20.15999999999966,-7.961040723269974e-05
mouse_head_joint,20.17999999999966,-7.959021129888555e-05
mouse_head_joint,20.19999999999966,-7.955065369635861e-05
mouse_head_joint,20.219999999999658,-7.950331188766313e-05
mouse_head_joint,20.239999999999657,-7.953029307472548e-05
mouse_head_joint,20.259999999999657,-7.931893371004861e-05
