Name,time,Position
mouse_head_joint,0.0,0.0
mouse_head_joint,0.02,0.0
mouse_head_joint,0.04,0.0
mouse_head_joint,0.06,0.0
mouse_head_joint,0.08,0.0
mouse_head_joint,0.1,0.0
mouse_head_joint,0.12000000000000001,0.0
mouse_head_joint,0.14,0.0
mouse_head_joint,0.16,0.0
mouse_head_joint,0.18,0.0
mouse_head_joint,0.19999999999999998,8.701780469877463e-05
mouse_head_joint,0.21999999999999997,-0.0019383634625862456
mouse_head_joint,0.23999999999999996,-0.00022180075501321284
mouse_head_joint,0.25999999999999995,3.231963890915068e-05
mouse_head_joint,0.27999999999999997,7.074137709395245e-06
mouse_head_joint,0.3,6.526700548903364e-06
mouse_head_joint,0.32,-6.901645688728308e-06
mouse_head_joint,0.34,-7.42549569388018e-06
mouse_head_joint,0.36000000000000004,-8.531865566041574e-06
mouse_head_joint,0.38000000000000006,-9.583898796350354e-06
mouse_head_joint,0.4000000000000001,-1.1090413216230388e-05
mouse_head_joint,0.4200000000000001,-1.2661250511136757e-05
mouse_head_joint,0.4400000000000001,-1.4233841028499228e-05
mouse_head_joint,0.46000000000000013,-1.592273364270369e-05
mouse_head_joint,0.48000000000000015,-1.752860353931851e-05
mouse_head_joint,0.5000000000000001,-1.93756686037716e-05
mouse_head_joint,0.5200000000000001,-2.104029929572704e-05
mouse_head_joint,0.5400000000000001,-2.303757553079322e-05
mouse_head_joint,0.5600000000000002,-2.4800807548963633e-05
mouse_head_joint,0.5800000000000002,-2.6420930682391486e-05
mouse_head_joint,0.6000000000000002,-2.8419057469974973e-05
mouse_head_joint,0.6200000000000002,-3.0106418104303145e-05
mouse_head_joint,0.6400000000000002,-3.15893781079879e-05
mouse_head_joint,0.6600000000000003,-3.34666204624412e-05
mouse_head_joint,0.6800000000000003,-3.52571239909949e-05
mouse_head_joint,0.7000000000000003,-3.7026194678269064e-05
mouse_head_joint,0.7200000000000003,-3.8684049746606775e-05
mouse_head_joint,0.7400000000000003,-4.04884686471263e-05
mouse_head_joint,0.7600000000000003,-4.25047849272886e-05
mouse_head_joint,0.7800000000000004,-4.377005817346458e-05
mouse_head_joint,0.8000000000000004,-4.557331749666105e-05
mouse_head_joint,0.8200000000000004,-4.734908696679696e-05
mouse_head_joint,0.8400000000000004,-4.8943633003339926e-05
mouse_head_joint,0.8600000000000004,-5.0717687599011185e-05
mouse_head_joint,0.8800000000000004,-5.2289939577399025e-05
mouse_head_joint,0.9000000000000005,-5.386639642157576e-05
mouse_head_joint,0.9200000000000005,-5.5587194109030236e-05
mouse_head_joint,0.9400000000000005,-5.7306295398795726e-05
mouse_head_joint,0.9600000000000005,-5.893809002355255e-05
mouse_head_joint,0.9800000000000005,-6.045447202041032e-05
mouse_head_joint,1.0000000000000004,-6.191745094152878e-05
mouse_head_joint,1.0200000000000005,-6.373176800611446e-05
mouse_head_joint,1.0400000000000005,-6.521318399954623e-05
mouse_head_joint,1.0600000000000005,-6.665306538433668e-05
mouse_head_joint,1.0800000000000005,-6.824898624113729e-05
mouse_head_joint,1.1000000000000005,-6.966862500057402e-05
mouse_head_joint,1.1200000000000006,-7.126159398751497e-05
mouse_head_joint,1.1400000000000006,-7.268673852145469e-05
mouse_head_joint,1.1600000000000006,-7.424921276033558e-05
mouse_head_joint,1.1800000000000006,-7.563785573605486e-05
mouse_head_joint,1.2000000000000006,-7.702796764608166e-05
mouse_head_joint,1.2200000000000006,-7.858170926056118e-05
mouse_head_joint,1.2400000000000007,-7.993874229761389e-05
mouse_head_joint,1.2600000000000007,-8.146033906797356e-05
mouse_head_joint,1.2800000000000007,-8.2805460920099e-05
mouse_head_joint,1.3000000000000007,-8.430130704617511e-05
mouse_head_joint,1.3200000000000007,-8.562431162850714e-05
mouse_head_joint,1.3400000000000007,-8.72506992219968e-05
mouse_head_joint,1.3600000000000008,-8.870561185414516e-05
mouse_head_joint,1.3800000000000008,-8.972643131865965e-05
mouse_head_joint,1.4000000000000008,-9.100596846511877e-05
mouse_head_joint,1.4200000000000008,-9.254017332871456e-05
mouse_head_joint,1.4400000000000008,-9.393482023156707e-05
mouse_head_joint,1.4600000000000009,-9.518212485737365e-05
mouse_head_joint,1.4800000000000009,-9.641928057479987e-05
mouse_head_joint,1.5000000000000009,-9.774848531307612e-05
mouse_head_joint,1.520000000000001,-9.892331885996697e-05
mouse_head_joint,1.540000000000001,-0.0001002918804191566
mouse_head_joint,1.560000000000001,-0.00010148658138575684
mouse_head_joint,1.580000000000001,-0.00010263707115409915
mouse_head_joint,1.600000000000001,-0.00010395118207640053
mouse_head_joint,1.620000000000001,-0.00010528514455820925
mouse_head_joint,1.640000000000001,-0.00010658033164467895
mouse_head_joint,1.660000000000001,-0.00010755331432843462
mouse_head_joint,1.680000000000001,-0.00010882678142465352
mouse_head_joint,1.700000000000001,-0.00011020021749530429
mouse_head_joint,1.720000000000001,-0.00011136934648270369
mouse_head_joint,1.740000000000001,-0.00011241490124724862
mouse_head_joint,1.7600000000000011,-0.00011365877404401203
mouse_head_joint,1.7800000000000011,-0.00011466853344987982
mouse_head_joint,1.8000000000000012,-0.00011586916083139442
mouse_head_joint,1.8200000000000012,-0.00011700817689952459
mouse_head_joint,1.8400000000000012,-0.0001180618031764169
mouse_head_joint,1.8600000000000012,-0.00011904217746216972
mouse_head_joint,1.8800000000000012,-0.000120222090148836
mouse_head_joint,1.9000000000000012,-0.00012119100646845737
mouse_head_joint,1.9200000000000013,-0.0001222065955959195
mouse_head_joint,1.9400000000000013,-0.00012332109373236477
mouse_head_joint,1.9600000000000013,-0.0001246028164336721
mouse_head_joint,1.9800000000000013,-0.00012558936809892174
mouse_head_joint,2.0000000000000013,-0.0001264029113290377
mouse_head_joint,2.0200000000000014,-0.00012753613206317738
mouse_head_joint,2.0400000000000014,-0.00012857682095468448
mouse_head_joint,2.0600000000000014,-0.00012952698796020456
mouse_head_joint,2.0800000000000014,-0.00013062981652911532
mouse_head_joint,2.1000000000000014,-0.00013163008878702698
mouse_head_joint,2.1200000000000014,-0.00013255355236374555
mouse_head_joint,2.1400000000000015,-0.00013346856686968778
mouse_head_joint,2.1600000000000015,-0.0001342706891085399
mouse_head_joint,2.1800000000000015,-0.00013544733877868254
mouse_head_joint,2.2000000000000015,-0.00013626894695395464
mouse_head_joint,2.2200000000000015,-0.00013714882627624547
mouse_head_joint,2.2400000000000015,-0.0001381409587777327
mouse_head_joint,2.2600000000000016,-0.00013907065966733967
mouse_head_joint,2.2800000000000016,-0.00013992486914826685
mouse_head_joint,2.3000000000000016,-0.00014085108079076036
mouse_head_joint,2.3200000000000016,-0.0001416284241795296
mouse_head_joint,2.3400000000000016,-0.00014245717687089154
mouse_head_joint,2.3600000000000017,-0.00014343310356323968
mouse_head_joint,2.3800000000000017,-0.0001444035410820277
mouse_head_joint,2.4000000000000017,-0.00014515243210677653
mouse_head_joint,2.4200000000000017,-0.0001458961141471704
mouse_head_joint,2.4400000000000017,-0.00014678829516068248
mouse_head_joint,2.4600000000000017,-0.00014756781464431157
mouse_head_joint,2.4800000000000018,-0.00014862330004206115
mouse_head_joint,2.5000000000000018,-0.0001493465171851227
mouse_head_joint,2.520000000000002,-0.00015010137220450304
mouse_head_joint,2.540000000000002,-0.00015084874470971954
mouse_head_joint,2.560000000000002,-0.0001517038832101747
mouse_head_joint,2.580000000000002,-0.00015248016411550935
mouse_head_joint,2.600000000000002,-0.00015320432997700806
mouse_head_joint,2.620000000000002,-0.00015383525322931746
mouse_head_joint,2.640000000000002,-0.00015454439813833432
mouse_head_joint,2.660000000000002,-0.00015529855128448844
mouse_head_joint,2.680000000000002,-0.0001559925184473343
mouse_head_joint,2.700000000000002,-0.00015682121610094413
mouse_head_joint,2.720000000000002,-0.00015743053389805084
mouse_head_joint,2.740000000000002,-0.00015818720101545836
mouse_head_joint,2.760000000000002,-0.00015885139899918244
mouse_head_joint,2.780000000000002,-0.0001596593189239215
mouse_head_joint,2.800000000000002,-0.00016039821370750218
mouse_head_joint,2.820000000000002,-0.00016125237187303298
mouse_head_joint,2.840000000000002,-0.00016161469133546547
mouse_head_joint,2.860000000000002,-0.00016239146513985503
mouse_head_joint,2.880000000000002,-0.00016305180986897483
mouse_head_joint,2.900000000000002,-0.00016354138846086386
mouse_head_joint,2.920000000000002,-0.00016443206551031153
mouse_head_joint,2.940000000000002,-0.00016491702170462474
mouse_head_joint,2.960000000000002,-0.0001656557696581018
mouse_head_joint,2.980000000000002,-0.0001662097650605432
mouse_head_joint,3.000000000000002,-0.0001666949346619262
mouse_head_joint,3.0200000000000022,-0.000167392376219766
mouse_head_joint,3.0400000000000023,-0.00016787135006257614
mouse_head_joint,3.0600000000000023,-0.0001685664489832206
mouse_head_joint,3.0800000000000023,-0.0001690411571733108
mouse_head_joint,3.1000000000000023,-0.0001697296825931005
mouse_head_joint,3.1200000000000023,-0.00017026915498252748
mouse_head_joint,3.1400000000000023,-0.00017087531089110541
mouse_head_joint,3.1600000000000024,-0.00017140177806140855
mouse_head_joint,3.1800000000000024,-0.00017207229361027032
mouse_head_joint,3.2000000000000024,-0.0001724421595827863
mouse_head_joint,3.2200000000000024,-0.0001730922697991133
mouse_head_joint,3.2400000000000024,-0.00017359324843280177
mouse_head_joint,3.2600000000000025,-0.00017411502022834924
mouse_head_joint,3.2800000000000025,-0.000174471122178943
mouse_head_joint,3.3000000000000025,-0.0001750892930578729
mouse_head_joint,3.3200000000000025,-0.00017566932113322054
mouse_head_joint,3.3400000000000025,-0.0001760490907178891
mouse_head_joint,3.3600000000000025,-0.0001766211109899274
mouse_head_joint,3.3800000000000026,-0.00017707911427944367
mouse_head_joint,3.4000000000000026,-0.00017754836302241728
mouse_head_joint,3.4200000000000026,-0.00017803043047592837
mouse_head_joint,3.4400000000000026,-0.00017847026057093984
mouse_head_joint,3.4600000000000026,-0.00017881947413656007
mouse_head_joint,3.4800000000000026,-0.00017924786307244034
mouse_head_joint,3.5000000000000027,-0.00017972875621552475
mouse_head_joint,3.5200000000000027,-0.00018028508230560902
mouse_head_joint,3.5400000000000027,-0.0001807599746088684
mouse_head_joint,3.5600000000000027,-0.00018116516312449704
mouse_head_joint,3.5800000000000027,-0.00018156499671651005
mouse_head_joint,3.6000000000000028,-0.00018188378472583366
mouse_head_joint,3.6200000000000028,-0.00018252306758803627
mouse_head_joint,3.640000000000003,-0.00018280927335911912
mouse_head_joint,3.660000000000003,-0.00018304779350586386
mouse_head_joint,3.680000000000003,-0.00018341999624738037
mouse_head_joint,3.700000000000003,-0.0001839169039872246
mouse_head_joint,3.720000000000003,-0.00018437730699361055
mouse_head_joint,3.740000000000003,-0.00018463253867828655
mouse_head_joint,3.760000000000003,-0.00018498306409764353
mouse_head_joint,3.780000000000003,-0.00018532858554820564
mouse_head_joint,3.800000000000003,-0.00018578257290702282
mouse_head_joint,3.820000000000003,-0.00018614198482680422
mouse_head_joint,3.840000000000003,-0.00018638078361998822
mouse_head_joint,3.860000000000003,-0.00018683740501046486
mouse_head_joint,3.880000000000003,-0.0001871571111795589
mouse_head_joint,3.900000000000003,-0.00018752173179326093
mouse_head_joint,3.920000000000003,-0.0001878313583087987
mouse_head_joint,3.940000000000003,-0.00018818883109084084
mouse_head_joint,3.960000000000003,-0.00018864937477314214
mouse_head_joint,3.980000000000003,-0.00018870217086153218
mouse_head_joint,4.000000000000003,-0.00018912490086986367
mouse_head_joint,4.020000000000002,-0.0001895184296500929
mouse_head_joint,4.040000000000002,-0.00018955153557342896
mouse_head_joint,4.060000000000001,-0.00018982697772607082
mouse_head_joint,4.080000000000001,-0.00019031724370499603
mouse_head_joint,4.1000000000000005,-0.00019058325056420244
mouse_head_joint,4.12,-0.00019074316019196402
mouse_head_joint,4.14,-0.00019098881024781633
mouse_head_joint,4.159999999999999,-0.0001912370173142719
mouse_head_joint,4.179999999999999,-0.00019148761909093537
mouse_head_joint,4.199999999999998,-0.0001917305254366397
mouse_head_joint,4.219999999999998,-0.00019208919863711316
mouse_head_joint,4.2399999999999975,-0.0001923540635226928
mouse_head_joint,4.259999999999997,-0.00019258351302831045
mouse_head_joint,4.279999999999997,-0.00019276267377499323
mouse_head_joint,4.299999999999996,-0.0001930696368503959
mouse_head_joint,4.319999999999996,-0.00019324365754957995
mouse_head_joint,4.339999999999995,-0.0001934553744531442
mouse_head_joint,4.359999999999995,-0.00019366300991752183
mouse_head_joint,4.379999999999995,-0.00019409932555181086
mouse_head_joint,4.399999999999994,-0.00019416311944997489
mouse_head_joint,4.419999999999994,-0.00019438667533222542
mouse_head_joint,4.439999999999993,-0.00019442758790155779
mouse_head_joint,4.459999999999993,-0.00019473481271337079
mouse_head_joint,4.479999999999992,-0.0001949020082854247
mouse_head_joint,4.499999999999992,-0.0001950804434063258
mouse_head_joint,4.519999999999992,-0.00019534913149588107
mouse_head_joint,4.539999999999991,-0.00019550647858057602
mouse_head_joint,4.559999999999991,-0.0001955623608305146
mouse_head_joint,4.57999999999999,-0.00019574031056190933
mouse_head_joint,4.59999999999999,-0.00019589855439416937
mouse_head_joint,4.6199999999999894,-0.00019608258464920425
mouse_head_joint,4.639999999999989,-0.00019632708945760413
mouse_head_joint,4.659999999999989,-0.00019637984108999973
mouse_head_joint,4.679999999999988,-0.00019655822024766678
mouse_head_joint,4.699999999999988,-0.00019673365543848575
mouse_head_joint,4.719999999999987,-0.0001969590905739338
mouse_head_joint,4.739999999999987,-0.0001970005692220056
mouse_head_joint,4.7599999999999865,-0.00019735402447018657
mouse_head_joint,4.779999999999986,-0.00019721377174697352
mouse_head_joint,4.799999999999986,-0.0001975385888082215
mouse_head_joint,4.819999999999985,-0.00019745125012615716
mouse_head_joint,4.839999999999985,-0.0001976814076094513
mouse_head_joint,4.859999999999984,-0.00019787837687434973
mouse_head_joint,4.879999999999984,-0.00019796552563366987
mouse_head_joint,4.8999999999999835,-0.000197946464522758
mouse_head_joint,4.919999999999983,-0.0001981470146619202
mouse_head_joint,4.939999999999983,-0.00019812846639410964
mouse_head_joint,4.959999999999982,-0.0001982208572171018
mouse_head_joint,4.979999999999982,-0.00019831779595325116
mouse_head_joint,4.999999999999981,-0.00019840338545584757
mouse_head_joint,5.019999999999981,-0.00019850766699125444
mouse_head_joint,5.0399999999999805,-0.00019858656126459096
mouse_head_joint,5.05999999999998,-0.0001988134734016711
mouse_head_joint,5.07999999999998,-0.00019888561750569522
mouse_head_joint,5.099999999999979,-0.00019886087759779514
mouse_head_joint,5.119999999999979,-0.00019892669264542917
mouse_head_joint,5.139999999999978,-0.0001992081665536105
mouse_head_joint,5.159999999999978,-0.00019915345781384985
mouse_head_joint,5.1799999999999775,-0.00019916572742850747
mouse_head_joint,5.199999999999977,-0.00019921871245465184
mouse_head_joint,5.219999999999977,-0.00019935280363903018
mouse_head_joint,5.239999999999976,-0.00019939976593175146
mouse_head_joint,5.259999999999976,-0.00019941791420396981
mouse_head_joint,5.279999999999975,-0.0001993335483501113
mouse_head_joint,5.299999999999975,-0.00019937139988623898
mouse_head_joint,5.3199999999999745,-0.00019950432306536925
mouse_head_joint,5.339999999999974,-0.00019941852932081616
mouse_head_joint,5.359999999999974,-0.00019944907848046256
mouse_head_joint,5.379999999999973,-0.00019959187217288843
mouse_head_joint,5.399999999999973,-0.00019963399638367463
mouse_head_joint,5.419999999999972,-0.00019953436401198843
mouse_head_joint,5.439999999999972,-0.0001996715732639487
mouse_head_joint,5.4599999999999715,-0.0001995885834897848
mouse_head_joint,5.479999999999971,-0.00019962346642898865
mouse_head_joint,5.499999999999971,-0.00019975104305824942
mouse_head_joint,5.51999999999997,-0.00019985181659887274
mouse_head_joint,5.53999999999997,-0.0001998553688045135
mouse_head_joint,5.559999999999969,-0.00019968927134872416
mouse_head_joint,5.579999999999969,-0.000199687292934847
mouse_head_joint,5.599999999999969,-0.00019964824254614655
mouse_head_joint,5.619999999999968,-0.0001997570386249592
mouse_head_joint,5.639999999999968,-0.00019968338259079843
mouse_head_joint,5.659999999999967,-0.00019957534721726233
mouse_head_joint,5.679999999999967,-0.00019953532845473632
mouse_head_joint,5.699999999999966,-0.0001995176929838749
mouse_head_joint,5.719999999999966,-0.00019960439654820306
mouse_head_joint,5.739999999999966,-0.0001995818379549874
mouse_head_joint,5.759999999999965,-0.000199446188926089
mouse_head_joint,5.779999999999965,-0.00019942914203241457
mouse_head_joint,5.799999999999964,-0.00019939916987610218
mouse_head_joint,5.819999999999964,-0.00019948390012114459
mouse_head_joint,5.839999999999963,-0.00019946618362620683
mouse_head_joint,5.859999999999963,-0.00019944569694629877
mouse_head_joint,5.879999999999963,-0.00019940600907641937
mouse_head_joint,5.899999999999962,-0.00019936409086884765
mouse_head_joint,5.919999999999962,-0.0001992922033347
mouse_head_joint,5.939999999999961,-0.00019908269649437926
mouse_head_joint,5.959999999999961,-0.00019914190135761345
mouse_head_joint,5.9799999999999605,-0.00019909079197777402
mouse_head_joint,5.99999999999996,-0.00019911653833482035
mouse_head_joint,6.01999999999996,-0.00019902454281162107
mouse_head_joint,6.039999999999959,-0.0001989667450859045
mouse_head_joint,6.059999999999959,-0.00019877630025355586
mouse_head_joint,6.079999999999958,-0.0001986842230001784
mouse_head_joint,6.099999999999958,-0.00019861991338121499
mouse_head_joint,6.1199999999999575,-0.00019865785074735243
mouse_head_joint,6.139999999999957,-0.0001984764515725601
mouse_head_joint,6.159999999999957,-0.00019841175314283532
mouse_head_joint,6.179999999999956,-0.00019845387148809124
mouse_head_joint,6.199999999999956,-0.00019827672632644067
mouse_head_joint,6.219999999999955,-0.0001981999056344108
mouse_head_joint,6.239999999999955,-0.0001982360972911934
mouse_head_joint,6.2599999999999545,-0.0001982572927445858
mouse_head_joint,6.279999999999954,-0.0001980527772369456
mouse_head_joint,6.299999999999954,-0.00019808954878719476
mouse_head_joint,6.319999999999953,-0.0001977161849948672
mouse_head_joint,6.339999999999953,-0.0001976275088191315
mouse_head_joint,6.359999999999952,-0.00019771999741813318
mouse_head_joint,6.379999999999952,-0.0001975069263950857
mouse_head_joint,6.3999999999999515,-0.00019749250627310033
mouse_head_joint,6.419999999999951,-0.00019726385888851894
mouse_head_joint,6.439999999999951,-0.0001972565617167632
mouse_head_joint,6.45999999999995,-0.00019701994231979825
mouse_head_joint,6.47999999999995,-0.00019703265600590214
mouse_head_joint,6.499999999999949,-0.0001968144828552454
mouse_head_joint,6.519999999999949,-0.0001967114570096129
mouse_head_joint,6.5399999999999485,-0.00019671193153847355
mouse_head_joint,6.559999999999948,-0.00019650440987106776
mouse_head_joint,6.579999999999948,-0.00019639383719916026
mouse_head_joint,6.599999999999947,-0.00019639472299814997
mouse_head_joint,6.619999999999947,-0.00019628082988987217
mouse_head_joint,6.639999999999946,-0.00019613839836107871
mouse_head_joint,6.659999999999946,-0.00019614434597858832
mouse_head_joint,6.6799999999999455,-0.0001960254644437498
mouse_head_joint,6.699999999999945,-0.0001956150103232801
mouse_head_joint,6.719999999999945,-0.00019549290244480488
mouse_head_joint,6.739999999999944,-0.00019547340717718242
mouse_head_joint,6.759999999999944,-0.0001953012431892276
mouse_head_joint,6.779999999999943,-0.00019511850788589413
mouse_head_joint,6.799999999999943,-0.00019512403809329726
mouse_head_joint,6.8199999999999426,-0.000194822986046006
mouse_head_joint,6.839999999999942,-0.00019469146066075638
mouse_head_joint,6.859999999999942,-0.00019465911588500973
mouse_head_joint,6.879999999999941,-0.0001945246696353209
mouse_head_joint,6.899999999999941,-0.00019438302202878788
mouse_head_joint,6.91999999999994,-0.00019413426144865298
mouse_head_joint,6.93999999999994,-0.00019400115750300984
mouse_head_joint,6.95999999999994,-0.00019397232660800512
mouse_head_joint,6.979999999999939,-0.0001937192046925773
mouse_head_joint,6.999999999999939,-0.00019368754645210373
mouse_head_joint,7.019999999999938,-0.0001934385145458961
mouse_head_joint,7.039999999999938,-0.00019348884882042228
mouse_head_joint,7.059999999999937,-0.00019321679904393818
mouse_head_joint,7.079999999999937,-0.00019306828264387121
mouse_head_joint,7.099999999999937,-0.0001927507161267883
mouse_head_joint,7.119999999999936,-0.0001927763207154598
mouse_head_joint,7.139999999999936,-0.00019250016006910897
mouse_head_joint,7.159999999999935,-0.00019242283837961338
mouse_head_joint,7.179999999999935,-0.00019213256364203346
mouse_head_joint,7.1999999999999345,-0.0001919763015036935
mouse_head_joint,7.219999999999934,-0.00019187811106124997
mouse_head_joint,7.239999999999934,-0.0001916201787119931
mouse_head_joint,7.259999999999933,-0.0001915593497079371
mouse_head_joint,7.279999999999933,-0.00019128092900366767
mouse_head_joint,7.299999999999932,-0.00019111502238722267
mouse_head_joint,7.319999999999932,-0.00019095150612624678
mouse_head_joint,7.3399999999999315,-0.00019089652957759995
mouse_head_joint,7.359999999999931,-0.0001907340382993894
mouse_head_joint,7.379999999999931,-0.00019056706004594304
mouse_head_joint,7.39999999999993,-0.0001902932949251479
mouse_head_joint,7.41999999999993,-0.00019031729137974907
mouse_head_joint,7.439999999999929,-0.0001900209200913494
mouse_head_joint,7.459999999999929,-0.00018997559384192897
mouse_head_joint,7.4799999999999285,-0.0001895083951106713
mouse_head_joint,7.499999999999928,-0.00018950921118854325
mouse_head_joint,7.519999999999928,-0.0001892848202862396
mouse_head_joint,7.539999999999927,-0.000189109126861986
mouse_head_joint,7.559999999999927,-0.0001889324592818653
mouse_head_joint,7.579999999999926,-0.00018870472762966273
mouse_head_joint,7.599999999999926,-0.00018837775135871482
mouse_head_joint,7.6199999999999255,-0.0001883160713038734
mouse_head_joint,7.639999999999925,-0.00018801731917506004
mouse_head_joint,7.659999999999925,-0.0001879410557714678
mouse_head_joint,7.679999999999924,-0.00018775849589047766
mouse_head_joint,7.699999999999924,-0.00018757398647117896
mouse_head_joint,7.719999999999923,-0.0001873881083191975
mouse_head_joint,7.739999999999923,-0.0001870976385012213
mouse_head_joint,7.7599999999999225,-0.00018701889810657235
mouse_head_joint,7.779999999999922,-0.00018683170023425788
mouse_head_joint,7.799999999999922,-0.0001865999346737368
mouse_head_joint,7.819999999999921,-0.00018641096445826122
mouse_head_joint,7.839999999999921,-0.00018622117481115197
mouse_head_joint,7.85999999999992,-0.00018596193704212283
mouse_head_joint,7.87999999999992,-0.00018584224673379168
mouse_head_joint,7.8999999999999195,-0.00018552420656625657
mouse_head_joint,7.919999999999919,-0.00018540485333939927
mouse_head_joint,7.939999999999919,-0.0001850739981348326
mouse_head_joint,7.959999999999918,-0.00018496434725712163
mouse_head_joint,7.979999999999918,-0.00018476882512086235
mouse_head_joint,7.999999999999917,-0.00018454058045769273
mouse_head_joint,8.019999999999918,-0.00018434352197438386
mouse_head_joint,8.039999999999917,-0.0001840270388404619
mouse_head_joint,8.059999999999917,-0.00018382126966187684
mouse_head_joint,8.079999999999917,-0.00018372943358002658
mouse_head_joint,8.099999999999916,-0.00018352916838804134
mouse_head_joint,8.119999999999916,-0.00018322073291798802
mouse_head_joint,8.139999999999915,-0.00018312698219258294
mouse_head_joint,8.159999999999915,-0.0001829243126136859
mouse_head_joint,8.179999999999914,-0.0001828035605173639
mouse_head_joint,8.199999999999914,-0.00018260006021897368
mouse_head_joint,8.219999999999914,-0.00018226823590872243
mouse_head_joint,8.239999999999913,-0.00018189385211453413
mouse_head_joint,8.259999999999913,-0.00018178829530857143
mouse_head_joint,8.279999999999912,-0.00018152673365001704
mouse_head_joint,8.299999999999912,-0.000181392733639818
mouse_head_joint,8.319999999999911,-0.00018118539338285444
mouse_head_joint,8.339999999999911,-0.0001808400821383671
mouse_head_joint,8.35999999999991,-0.00018071570507061097
mouse_head_joint,8.37999999999991,-0.00018035438228203304
mouse_head_joint,8.39999999999991,-0.00018014466503402105
mouse_head_joint,8.41999999999991,-0.00017993440645724945
mouse_head_joint,8.439999999999909,-0.00017982701176499916
mouse_head_joint,8.459999999999908,-0.00017950379255449178
mouse_head_joint,8.479999999999908,-0.0001793984345397348
mouse_head_joint,8.499999999999908,-0.00017907767696367927
mouse_head_joint,8.519999999999907,-0.0001789714910200857
mouse_head_joint,8.539999999999907,-0.00017865066311806288
mouse_head_joint,8.559999999999906,-0.00017854222936808384
mouse_head_joint,8.579999999999906,-0.00017828059280056152
mouse_head_joint,8.599999999999905,-0.0001780655395480224
mouse_head_joint,8.619999999999905,-0.00017777972699928313
mouse_head_joint,8.639999999999905,-0.00017750715510533865
mouse_head_joint,8.659999999999904,-0.00017741761862222205
mouse_head_joint,8.679999999999904,-0.00017707384574272567
mouse_head_joint,8.699999999999903,-0.00017679067534448478
mouse_head_joint,8.719999999999903,-0.00017662233979987008
mouse_head_joint,8.739999999999903,-0.00017630879114083342
mouse_head_joint,8.759999999999902,-0.00017606628326216622
mouse_head_joint,8.779999999999902,-0.00017584723848251826
mouse_head_joint,8.799999999999901,-0.00017572444730529213
mouse_head_joint,8.8199999999999,-0.00017550456757486899
mouse_head_joint,8.8399999999999,-0.000175284316618729
mouse_head_joint,8.8599999999999,-0.00017506133373057509
mouse_head_joint,8.8799999999999,-0.0001748403246475405
mouse_head_joint,8.899999999999899,-0.00017451148303315733
mouse_head_joint,8.919999999999899,-0.00017439460658597028
mouse_head_joint,8.939999999999898,-0.00017425272833371253
mouse_head_joint,8.959999999999898,-0.00017383110450808203
mouse_head_joint,8.979999999999897,-0.00017367899492093386
mouse_head_joint,8.999999999999897,-0.00017338522170273762
mouse_head_joint,9.019999999999897,-0.0001731618166438409
mouse_head_joint,9.039999999999896,-0.00017300778740381162
mouse_head_joint,9.059999999999896,-0.00017272755406416707
mouse_head_joint,9.079999999999895,-0.00017244833286689243
mouse_head_joint,9.099999999999895,-0.0001721408671437885
mouse_head_joint,9.119999999999894,-0.00017186943964730972
mouse_head_joint,9.139999999999894,-0.00017173894114996813
mouse_head_joint,9.159999999999894,-0.00017151345920751737
mouse_head_joint,9.179999999999893,-0.00017127075524747681
mouse_head_joint,9.199999999999893,-0.00017104475463813884
mouse_head_joint,9.219999999999892,-0.00017081180457445555
mouse_head_joint,9.239999999999892,-0.00017047489111021719
mouse_head_joint,9.259999999999891,-0.00017035560700406904
mouse_head_joint,9.279999999999891,-0.00017012864247067938
mouse_head_joint,9.29999999999989,-0.0001698982190410092
mouse_head_joint,9.31999999999989,-0.00016967080938812273
mouse_head_joint,9.33999999999989,-0.00016939388775227826
mouse_head_joint,9.35999999999989,-0.00016916603887384696
mouse_head_joint,9.379999999999889,-0.00016893662345118798
mouse_head_joint,9.399999999999888,-0.0001686391243458374
mouse_head_joint,9.419999999999888,-0.00016847998100821826
mouse_head_joint,9.439999999999888,-0.00016819435366244306
mouse_head_joint,9.459999999999887,-0.00016796557104470367
mouse_head_joint,9.479999999999887,-0.0001675990406706518
mouse_head_joint,9.499999999999886,-0.00016745223394387665
mouse_head_joint,9.519999999999886,-0.0001670938944187128
mouse_head_joint,9.539999999999885,-0.0001668398182435027
mouse_head_joint,9.559999999999885,-0.00016661029078690603
mouse_head_joint,9.579999999999885,-0.0001663705363608159
mouse_head_joint,9.599999999999884,-0.0001662454813295966
mouse_head_joint,9.619999999999884,-0.00016601225737211678
mouse_head_joint,9.639999999999883,-0.0001656772885274549
mouse_head_joint,9.659999999999883,-0.00016544477085300713
mouse_head_joint,9.679999999999882,-0.00016521451685935773
mouse_head_joint,9.699999999999882,-0.00016503780114707212
mouse_head_joint,9.719999999999882,-0.00016480730176660074
mouse_head_joint,9.739999999999881,-0.0001645767159477174
mouse_head_joint,9.75999999999988,-0.0001641771480347387
mouse_head_joint,9.77999999999988,-0.00016411389487469563
mouse_head_joint,9.79999999999988,-0.0001637556636744364
mouse_head_joint,9.81999999999988,-0.00016359454980108268
mouse_head_joint,9.839999999999879,-0.00016322623266873393
mouse_head_joint,9.859999999999879,-0.0001630771355145555
mouse_head_joint,9.879999999999878,-0.0001627173132394688
mouse_head_joint,9.899999999999878,-0.00016246152052712404
mouse_head_joint,9.919999999999877,-0.00016234895381472825
mouse_head_joint,9.939999999999877,-0.00016209346193285512
mouse_head_joint,9.959999999999877,-0.0001617579058050822
mouse_head_joint,9.979999999999876,-0.00016163101839250515
mouse_head_joint,9.999999999999876,-0.0001612918594604551
mouse_head_joint,10.019999999999875,-0.0001610606077040444
mouse_head_joint,10.039999999999875,-0.0001608268545876257
mouse_head_joint,10.059999999999874,-0.0001605783250910875
mouse_head_joint,10.079999999999874,-0.0001605456768674074
mouse_head_joint,10.099999999999874,-0.0001603143582880051
mouse_head_joint,10.119999999999873,-0.00015995432895987705
mouse_head_joint,10.139999999999873,-0.00015955471146611444
mouse_head_joint,10.159999999999872,-0.00015936328792154342
mouse_head_joint,10.179999999999872,-0.00015913205779582995
mouse_head_joint,10.199999999999871,-0.00015897010275001122
mouse_head_joint,10.219999999999871,-0.00015860191160399495
mouse_head_joint,10.23999999999987,-0.00015845235433165072
mouse_head_joint,10.25999999999987,-0.0001580584209452951
mouse_head_joint,10.27999999999987,-0.00015786189928856942
mouse_head_joint,10.29999999999987,-0.00015770742083720535
mouse_head_joint,10.319999999999869,-0.00015736549222467033
mouse_head_joint,10.339999999999868,-0.0001571346217632552
mouse_head_joint,10.359999999999868,-0.00015690381077071436
mouse_head_joint,10.379999999999868,-0.00015666958611593174
mouse_head_joint,10.399999999999867,-0.00015643891611638594
mouse_head_joint,10.419999999999867,-0.0001562059020230322
mouse_head_joint,10.439999999999866,-0.00015597538691469737
mouse_head_joint,10.459999999999866,-0.00015572764007831807
mouse_head_joint,10.479999999999865,-0.00015549729609531937
mouse_head_joint,10.499999999999865,-0.0001553361323134439
mouse_head_joint,10.519999999999865,-0.00015493830535984188
mouse_head_joint,10.539999999999864,-0.00015480680574597727
mouse_head_joint,10.559999999999864,-0.000154645305390666
mouse_head_joint,10.579999999999863,-0.00015435705798960697
mouse_head_joint,10.599999999999863,-0.0001541272774474578
mouse_head_joint,10.619999999999862,-0.00015371472395386832
mouse_head_joint,10.639999999999862,-0.00015348521408942162
mouse_head_joint,10.659999999999862,-0.0001533492234715439
mouse_head_joint,10.679999999999861,-0.00015311994316125066
mouse_head_joint,10.69999999999986,-0.0001527636767839624
mouse_head_joint,10.71999999999986,-0.00015253470133647085
mouse_head_joint,10.73999999999986,-0.0001523026448122522
mouse_head_joint,10.75999999999986,-0.00015207395356053865
mouse_head_joint,10.779999999999859,-0.00015184540086110587
mouse_head_joint,10.799999999999859,-0.00015172079731762267
mouse_head_joint,10.819999999999858,-0.00015148909338691396
mouse_head_joint,10.839999999999858,-0.00015133810106426893
mouse_head_joint,10.859999999999857,-0.00015103301208796438
mouse_head_joint,10.879999999999857,-0.00015075394067753933
mouse_head_joint,10.899999999999856,-0.0001503594725154045
mouse_head_joint,10.919999999999856,-0.00015029906954300287
mouse_head_joint,10.939999999999856,-0.00015007177993009435
mouse_head_joint,10.959999999999855,-0.000149717737651045
mouse_head_joint,10.979999999999855,-0.00014950440747618643
mouse_head_joint,10.999999999999854,-0.00014927764934480336
mouse_head_joint,11.019999999999854,-0.00014901730682304049
mouse_head_joint,11.039999999999853,-0.0001486976820350705
mouse_head_joint,11.059999999999853,-0.00014844792864909806
mouse_head_joint,11.079999999999853,-0.00014832256568997337
mouse_head_joint,11.099999999999852,-0.00014809678312310837
mouse_head_joint,11.119999999999852,-0.00014776150064310656
mouse_head_joint,11.139999999999851,-0.00014763694799935223
mouse_head_joint,11.159999999999851,-0.000147411798517183
mouse_head_joint,11.17999999999985,-0.00014718375634803493
mouse_head_joint,11.19999999999985,-0.00014685676789039093
mouse_head_joint,11.21999999999985,-0.00014673451397761994
mouse_head_joint,11.23999999999985,-0.00014658685091717416
mouse_head_joint,11.259999999999849,-0.00014623589507856138
mouse_head_joint,11.279999999999848,-0.0001458449088627134
mouse_head_joint,11.299999999999848,-0.00014572020609904257
mouse_head_joint,11.319999999999848,-0.0001455065067590411
mouse_head_joint,11.339999999999847,-0.0001452152830365705
mouse_head_joint,11.359999999999847,-0.00014500611691836696
mouse_head_joint,11.379999999999846,-0.00014470241408837126
mouse_head_joint,11.399999999999846,-0.00014456096728920897
mouse_head_joint,11.419999999999845,-0.00014430567719614373
mouse_head_joint,11.439999999999845,-0.00014408372222529664
mouse_head_joint,11.459999999999845,-0.0001438464591663191
mouse_head_joint,11.479999999999844,-0.00014362501708742315
mouse_head_joint,11.499999999999844,-0.00014339820482422994
mouse_head_joint,11.519999999999843,-0.00014307171940330932
mouse_head_joint,11.539999999999843,-0.00014285108137457314
mouse_head_joint,11.559999999999842,-0.00014273140064080536
mouse_head_joint,11.579999999999842,-0.00014251128035969174
mouse_head_joint,11.599999999999842,-0.00014229141475929907
mouse_head_joint,11.619999999999841,-0.00014185531773680538
mouse_head_joint,11.63999999999984,-0.0001417351674684042
mouse_head_joint,11.65999999999984,-0.00014145804695608888
mouse_head_joint,11.67999999999984,-0.00014129738150536753
mouse_head_joint,11.69999999999984,-0.0001410885676405016
mouse_head_joint,11.719999999999839,-0.00014087034224985473
mouse_head_joint,11.739999999999839,-0.0001405178222366743
mouse_head_joint,11.759999999999838,-0.0001403810864069044
mouse_head_joint,11.779999999999838,-0.00014016371098080072
mouse_head_joint,11.799999999999837,-0.0001398212358543205
mouse_head_joint,11.819999999999837,-0.00013969754670828394
mouse_head_joint,11.839999999999836,-0.00013936586695617592
mouse_head_joint,11.859999999999836,-0.00013914188419139606
mouse_head_joint,11.879999999999836,-0.00013902922551611852
mouse_head_joint,11.899999999999835,-0.0001387088722566432
mouse_head_joint,11.919999999999835,-0.00013849362963647138
mouse_head_joint,11.939999999999834,-0.00013838183754533162
mouse_head_joint,11.959999999999834,-0.00013824095789338742
mouse_head_joint,11.979999999999833,-0.00013795076366207581
mouse_head_joint,11.999999999999833,-0.00013781252221978235
mouse_head_joint,12.019999999999833,-0.00013730758367191953
mouse_head_joint,12.039999999999832,-0.0001371936501399773
mouse_head_joint,12.059999999999832,-0.00013698057034350342
mouse_head_joint,12.079999999999831,-0.00013683592673707778
mouse_head_joint,12.099999999999831,-0.00013656509548187756
mouse_head_joint,12.11999999999983,-0.00013635293600700038
mouse_head_joint,12.13999999999983,-0.0001360073469678369
mouse_head_joint,12.15999999999983,-0.00013587667797665404
mouse_head_joint,12.17999999999983,-0.00013562000674749441
mouse_head_joint,12.199999999999829,-0.00013530890428281594
mouse_head_joint,12.219999999999828,-0.0001350913774844642
mouse_head_joint,12.239999999999828,-0.00013488126179161952
mouse_head_joint,12.259999999999827,-0.00013477453583199406
mouse_head_joint,12.279999999999827,-0.00013446110663384303
mouse_head_joint,12.299999999999827,-0.00013425184390047917
mouse_head_joint,12.319999999999826,-0.00013414472088690843
mouse_head_joint,12.339999999999826,-0.00013393627257052287
mouse_head_joint,12.359999999999825,-0.00013380358081604982
mouse_head_joint,12.379999999999825,-0.00013346891603305266
mouse_head_joint,12.399999999999824,-0.00013309868330413366
mouse_head_joint,12.419999999999824,-0.00013299140532918585
mouse_head_joint,12.439999999999824,-0.0001327846773344632
mouse_head_joint,12.459999999999823,-0.00013252106057226598
mouse_head_joint,12.479999999999823,-0.00013231502269928086
mouse_head_joint,12.499999999999822,-0.0001320006206810831
mouse_head_joint,12.519999999999822,-0.00013191894573960639
mouse_head_joint,12.539999999999822,-0.00013171394434774442
mouse_head_joint,12.559999999999821,-0.00013136537429137007
mouse_head_joint,12.57999999999982,-0.00013127453416128532
mouse_head_joint,12.59999999999982,-0.00013095726658196583
mouse_head_joint,12.61999999999982,-0.00013074758071862647
mouse_head_joint,12.63999999999982,-0.00013064716142618948
mouse_head_joint,12.659999999999819,-0.00013044353427016375
mouse_head_joint,12.679999999999819,-0.00013013910706760612
mouse_head_joint,12.699999999999818,-0.00013003910121955897
mouse_head_joint,12.719999999999818,-0.0001298374077398634
mouse_head_joint,12.739999999999817,-0.0001297111047540156
mouse_head_joint,12.759999999999817,-0.00012938372151971578
mouse_head_joint,12.779999999999816,-0.0001290214954217106
mouse_head_joint,12.799999999999816,-0.0001288212741545891
mouse_head_joint,12.819999999999816,-0.00012873171950644746
mouse_head_joint,12.839999999999815,-0.00012846536760768856
mouse_head_joint,12.859999999999815,-0.00012826625730699703
mouse_head_joint,12.879999999999814,-0.00012813434835834414
mouse_head_joint,12.899999999999814,-0.00012785509251411753
mouse_head_joint,12.919999999999813,-0.0001275640930362698
mouse_head_joint,12.939999999999813,-0.0001274595455553751
mouse_head_joint,12.959999999999813,-0.00012726231398119126
mouse_head_joint,12.979999999999812,-0.00012705332142282089
mouse_head_joint,12.999999999999812,-0.00012685429527614644
mouse_head_joint,13.019999999999811,-0.00012655537113825943
mouse_head_joint,13.03999999999981,-0.00012636042364988498
mouse_head_joint,13.05999999999981,-0.00012616515365238
mouse_head_joint,13.07999999999981,-0.00012597160584970624
mouse_head_joint,13.09999999999981,-0.00012577710946626297
mouse_head_joint,13.11999999999981,-0.00012575891480537393
mouse_head_joint,13.139999999999809,-0.00012556512901351624
mouse_head_joint,13.159999999999808,-0.00012524587048101665
mouse_head_joint,13.179999999999808,-0.0001249368339486523
mouse_head_joint,13.199999999999807,-0.00012467962085693785
mouse_head_joint,13.219999999999807,-0.00012461872845292987
mouse_head_joint,13.239999999999807,-0.0001244269228468653
mouse_head_joint,13.259999999999806,-0.0001240634180286193
mouse_head_joint,13.279999999999806,-0.00012399405138019404
mouse_head_joint,13.299999999999805,-0.00012368187538047692
mouse_head_joint,13.319999999999805,-0.00012358472727491687
mouse_head_joint,13.339999999999804,-0.00012339489798751657
mouse_head_joint,13.359999999999804,-0.0001231943183084283
mouse_head_joint,13.379999999999804,-0.00012300529562203621
mouse_head_joint,13.399999999999803,-0.00012281502860478355
mouse_head_joint,13.419999999999803,-0.00012262681035402068
mouse_head_joint,13.439999999999802,-0.0001223399374508105
mouse_head_joint,13.459999999999802,-0.00012215256869385627
mouse_head_joint,13.479999999999801,-0.00012196558141042146
mouse_head_joint,13.499999999999801,-0.0001218800946709564
mouse_head_joint,13.5199999999998,-0.00012176810574704433
mouse_head_joint,13.5399999999998,-0.00012129780429681603
mouse_head_joint,13.5599999999998,-0.00012121335915082909
mouse_head_joint,13.5799999999998,-0.00012097268623101343
mouse_head_joint,13.599999999999799,-0.00012085443549381125
mouse_head_joint,13.619999999999798,-0.00012067023048434322
mouse_head_joint,13.639999999999798,-0.0001204864111556958
mouse_head_joint,13.659999999999798,-0.00012025351412869867
mouse_head_joint,13.679999999999797,-0.00012007051414641978
mouse_head_joint,13.699999999999797,-0.00011985034518513515
mouse_head_joint,13.719999999999796,-0.00011967838005766396
mouse_head_joint,13.739999999999796,-0.00011938632010632944
mouse_head_joint,13.759999999999796,-0.00011930515251101781
mouse_head_joint,13.779999999999795,-0.00011902079765313545
mouse_head_joint,13.799999999999795,-0.00011894298704007156
mouse_head_joint,13.819999999999794,-0.0001186626971758642
mouse_head_joint,13.839999999999794,-0.00011848596589913996
mouse_head_joint,13.859999999999793,-0.00011840767268456176
mouse_head_joint,13.879999999999793,-0.00011822879784428864
mouse_head_joint,13.899999999999793,-0.00011812416096823597
mouse_head_joint,13.919999999999792,-0.00011766343497043863
mouse_head_joint,13.939999999999792,-0.00011758716613918807
mouse_head_joint,13.959999999999791,-0.0001174099499570147
mouse_head_joint,13.97999999999979,-0.00011724408218505289
mouse_head_joint,13.99999999999979,-0.00011706766524888224
mouse_head_joint,14.01999999999979,-0.00011676239354141416
mouse_head_joint,14.03999999999979,-0.00011658681087922673
mouse_head_joint,14.059999999999789,-0.00011649229707622055
mouse_head_joint,14.079999999999789,-0.00011628208943825769
mouse_head_joint,14.099999999999788,-0.0001161169031824727
mouse_head_joint,14.119999999999788,-0.00011583374006818303
mouse_head_joint,14.139999999999787,-0.00011576038698635216
mouse_head_joint,14.159999999999787,-0.00011548490419421853
mouse_head_joint,14.179999999999787,-0.00011531564048095078
mouse_head_joint,14.199999999999786,-0.00011524573027443807
mouse_head_joint,14.219999999999786,-0.00011497537046345485
mouse_head_joint,14.239999999999785,-0.00011490477649722664
mouse_head_joint,14.259999999999785,-0.00011452754009155797
mouse_head_joint,14.279999999999784,-0.000114363757968583
mouse_head_joint,14.299999999999784,-0.0001143052228771424
mouse_head_joint,14.319999999999784,-0.00011409744449952797
mouse_head_joint,14.339999999999783,-0.00011382628301248587
mouse_head_joint,14.359999999999783,-0.00011374923103701917
mouse_head_joint,14.379999999999782,-0.00011351065101017355
mouse_head_joint,14.399999999999782,-0.00011324421829428388
mouse_head_joint,14.419999999999781,-0.00011320420520632979
mouse_head_joint,14.439999999999781,-0.00011292623772707344
mouse_head_joint,14.45999999999978,-0.00011287803409398833
mouse_head_joint,14.47999999999978,-0.000112598804430597
mouse_head_joint,14.49999999999978,-0.00011243982012754117
mouse_head_joint,14.51999999999978,-0.00011229971523274429
mouse_head_joint,14.539999999999779,-0.00011223490551337534
mouse_head_joint,14.559999999999778,-0.00011205386767265679
mouse_head_joint,14.579999999999778,-0.00011172628535582874
mouse_head_joint,14.599999999999778,-0.00011164886809567065
mouse_head_joint,14.619999999999777,-0.00011150640059476302
mouse_head_joint,14.639999999999777,-0.00011142485549520131
mouse_head_joint,14.659999999999776,-0.0001110095669618616
mouse_head_joint,14.679999999999776,-0.00011093563304065412
mouse_head_joint,14.699999999999775,-0.00011079205859765295
mouse_head_joint,14.719999999999775,-0.00011053649073478056
mouse_head_joint,14.739999999999775,-0.00011037819471138022
mouse_head_joint,14.759999999999774,-0.00011033795508730293
mouse_head_joint,14.779999999999774,-0.00011013286701189173
mouse_head_joint,14.799999999999773,-0.00011000857544463116
mouse_head_joint,14.819999999999773,-0.00010979692713242173
mouse_head_joint,14.839999999999772,-0.00010962339037590141
mouse_head_joint,14.859999999999772,-0.00010938571504848227
mouse_head_joint,14.879999999999772,-0.00010932676697006372
mouse_head_joint,14.899999999999771,-0.00010913789197708468
mouse_head_joint,14.91999999999977,-0.00010893662052158248
mouse_head_joint,14.93999999999977,-0.00010865268405968465
mouse_head_joint,14.95999999999977,-0.00010856020159000224
mouse_head_joint,14.97999999999977,-0.00010848473406355197
mouse_head_joint,14.999999999999769,-0.00010835246023255252
mouse_head_joint,15.019999999999769,-0.00010826971622268644
mouse_head_joint,15.039999999999768,-0.00010796042923821858
mouse_head_joint,15.059999999999768,-0.00010775481086167105
mouse_head_joint,15.079999999999767,-0.00010753088709947178
mouse_head_joint,15.099999999999767,-0.00010753111012729022
mouse_head_joint,15.119999999999767,-0.0001072733547715643
mouse_head_joint,15.139999999999766,-0.00010731245932404931
mouse_head_joint,15.159999999999766,-0.00010693417385709836
mouse_head_joint,15.179999999999765,-0.0001067429585637214
mouse_head_joint,15.199999999999765,-0.00010660445692423082
mouse_head_joint,15.219999999999764,-0.00010654294512413287
mouse_head_joint,15.239999999999764,-0.00010635042968765163
mouse_head_joint,15.259999999999764,-0.00010624653775170856
mouse_head_joint,15.279999999999763,-0.00010595041297190022
mouse_head_joint,15.299999999999763,-0.00010589716107745062
mouse_head_joint,15.319999999999762,-0.00010573630937482648
mouse_head_joint,15.339999999999762,-0.00010555681998436484
mouse_head_joint,15.359999999999761,-0.00010530175395473407
mouse_head_joint,15.379999999999761,-0.00010521549819131337
mouse_head_joint,15.39999999999976,-0.0001050707167271625
mouse_head_joint,15.41999999999976,-0.00010485444916330522
mouse_head_joint,15.43999999999976,-0.00010475293820455533
mouse_head_joint,15.45999999999976,-0.00010460634827502702
mouse_head_joint,15.479999999999759,-0.0001046633246151174
mouse_head_joint,15.499999999999758,-0.00010429763871933062
mouse_head_joint,15.519999999999758,-0.0001042406569435883
mouse_head_joint,15.539999999999758,-0.00010407769968345804
mouse_head_joint,15.559999999999757,-0.00010392482337717723
mouse_head_joint,15.579999999999757,-0.00010381988581009693
mouse_head_joint,15.599999999999756,-0.0001035832088582822
mouse_head_joint,15.619999999999756,-0.00010341285942239153
mouse_head_joint,15.639999999999755,-0.00010332620031761053
mouse_head_joint,15.659999999999755,-0.00010306364554946157
mouse_head_joint,15.679999999999755,-0.00010295419662398331
mouse_head_joint,15.699999999999754,-0.00010299221691401073
mouse_head_joint,15.719999999999754,-0.00010271345783596786
mouse_head_joint,15.739999999999753,-0.00010260384175531101
mouse_head_joint,15.759999999999753,-0.0001023245677487239
mouse_head_joint,15.779999999999752,-0.00010230263936605866
mouse_head_joint,15.799999999999752,-0.00010216591780665141
mouse_head_joint,15.819999999999752,-0.000101971542084911
mouse_head_joint,15.839999999999751,-0.00010190259494358145
mouse_head_joint,15.85999999999975,-0.0001017421825046938
mouse_head_joint,15.87999999999975,-0.00010156707407649179
mouse_head_joint,15.89999999999975,-0.00010142646451782866
mouse_head_joint,15.91999999999975,-0.00010123644146720068
mouse_head_joint,15.939999999999749,-0.0001010015436646583
mouse_head_joint,15.959999999999749,-0.00010088985473988288
mouse_head_joint,15.979999999999748,-0.00010084180733027637
mouse_head_joint,15.999999999999748,-0.00010060390645261208
mouse_head_joint,16.019999999999747,-0.0001005158230134029
mouse_head_joint,16.039999999999747,-0.00010047793708434227
mouse_head_joint,16.059999999999746,-0.0001001800065836278
mouse_head_joint,16.079999999999746,-0.0001001717205664221
mouse_head_joint,16.099999999999746,-0.00010001327717201747
mouse_head_joint,16.119999999999745,-9.979434419182809e-05
mouse_head_joint,16.139999999999745,-9.976224252206123e-05
mouse_head_joint,16.159999999999744,-9.947363871898318e-05
mouse_head_joint,16.179999999999744,-9.95095241176358e-05
mouse_head_joint,16.199999999999743,-9.935389671333894e-05
mouse_head_joint,16.219999999999743,-9.919450456941092e-05
mouse_head_joint,16.239999999999743,-9.905933024167979e-05
mouse_head_joint,16.259999999999742,-9.897606916542401e-05
mouse_head_joint,16.279999999999742,-9.879604067108971e-05
mouse_head_joint,16.29999999999974,-9.87182813201315e-05
mouse_head_joint,16.31999999999974,-9.851754153977765e-05
mouse_head_joint,16.33999999999974,-9.8273756630185e-05
mouse_head_joint,16.35999999999974,-9.818429873309498e-05
mouse_head_joint,16.37999999999974,-9.823343798043283e-05
mouse_head_joint,16.39999999999974,-9.79721542844203e-05
mouse_head_joint,16.41999999999974,-9.775495105479592e-05
mouse_head_joint,16.43999999999974,-9.771810201186781e-05
mouse_head_joint,16.459999999999738,-9.760487344490087e-05
mouse_head_joint,16.479999999999738,-9.74804804592111e-05
mouse_head_joint,16.499999999999737,-9.74657582499816e-05
mouse_head_joint,16.519999999999737,-9.724304546754325e-05
mouse_head_joint,16.539999999999736,-9.694202779808592e-05
mouse_head_joint,16.559999999999736,-9.694064554111037e-05
mouse_head_joint,16.579999999999735,-9.681291991014973e-05
mouse_head_joint,16.599999999999735,-9.654069391729081e-05
mouse_head_joint,16.619999999999735,-9.65228150890951e-05
mouse_head_joint,16.639999999999734,-9.649442038828226e-05
mouse_head_joint,16.659999999999734,-9.619333927979312e-05
mouse_head_joint,16.679999999999733,-9.616389669986347e-05
mouse_head_joint,16.699999999999733,-9.59809512046661e-05
mouse_head_joint,16.719999999999732,-9.603617908116036e-05
mouse_head_joint,16.739999999999732,-9.578362850426458e-05
mouse_head_joint,16.75999999999973,-9.568589052477705e-05
mouse_head_joint,16.77999999999973,-9.554133581524127e-05
mouse_head_joint,16.79999999999973,-9.534318534587527e-05
mouse_head_joint,16.81999999999973,-9.522747225965134e-05
mouse_head_joint,16.83999999999973,-9.519069478081121e-05
mouse_head_joint,16.85999999999973,-9.505394951858648e-05
mouse_head_joint,16.87999999999973,-9.483199346949078e-05
mouse_head_joint,16.89999999999973,-9.471206977718083e-05
mouse_head_joint,16.919999999999728,-9.469305340292777e-05
mouse_head_joint,16.939999999999728,-9.451833184126457e-05
mouse_head_joint,16.959999999999727,-9.44494896923942e-05
mouse_head_joint,16.979999999999727,-9.42698618562332e-05
mouse_head_joint,16.999999999999726,-9.409464287291058e-05
mouse_head_joint,17.019999999999726,-9.407027048524697e-05
mouse_head_joint,17.039999999999726,-9.389572862605888e-05
mouse_head_joint,17.059999999999725,-9.395683899793283e-05
mouse_head_joint,17.079999999999725,-9.371173154182344e-05
mouse_head_joint,17.099999999999724,-9.362000650536828e-05
mouse_head_joint,17.119999999999724,-9.348211907411752e-05
mouse_head_joint,17.139999999999723,-9.328543237696607e-05
mouse_head_joint,17.159999999999723,-9.327358224542337e-05
mouse_head_joint,17.179999999999723,-9.300812156176619e-05
mouse_head_joint,17.199999999999722,-9.300075087814719e-05
mouse_head_joint,17.21999999999972,-9.292641342195651e-05
mouse_head_joint,17.23999999999972,-9.269392537358812e-05
mouse_head_joint,17.25999999999972,-9.267413263547297e-05
mouse_head_joint,17.27999999999972,-9.261283382233643e-05
mouse_head_joint,17.29999999999972,-9.245074670172215e-05
mouse_head_joint,17.31999999999972,-9.23407731159287e-05
mouse_head_joint,17.33999999999972,-9.212957060711346e-05
mouse_head_joint,17.35999999999972,-9.210099583167874e-05
mouse_head_joint,17.37999999999972,-9.192463451590527e-05
mouse_head_joint,17.399999999999718,-9.199147533589525e-05
mouse_head_joint,17.419999999999717,-9.1754004480471e-05
mouse_head_joint,17.439999999999717,-9.159778661338436e-05
mouse_head_joint,17.459999999999717,-9.14224055845736e-05
mouse_head_joint,17.479999999999716,-9.134712934777411e-05
mouse_head_joint,17.499999999999716,-9.134148830103328e-05
mouse_head_joint,17.519999999999715,-9.122611901801747e-05
mouse_head_joint,17.539999999999715,-9.108210127450889e-05
mouse_head_joint,17.559999999999715,-9.101304222181028e-05
mouse_head_joint,17.579999999999714,-9.078795421402219e-05
mouse_head_joint,17.599999999999714,-9.077449068151111e-05
mouse_head_joint,17.619999999999713,-9.062155078343181e-05
mouse_head_joint,17.639999999999713,-9.056364704562725e-05
mouse_head_joint,17.659999999999712,-9.04604042029078e-05
mouse_head_joint,17.679999999999712,-9.023748900371942e-05
mouse_head_joint,17.69999999999971,-9.022474108633105e-05
mouse_head_joint,17.71999999999971,-9.007503140257e-05
mouse_head_joint,17.73999999999971,-9.013661092271974e-05
mouse_head_joint,17.75999999999971,-8.980143365544535e-05
mouse_head_joint,17.77999999999971,-8.975580086101331e-05
mouse_head_joint,17.79999999999971,-8.959346451753447e-05
mouse_head_joint,17.81999999999971,-8.961761741410612e-05
mouse_head_joint,17.83999999999971,-8.943022458396399e-05
mouse_head_joint,17.859999999999708,-8.952793150029947e-05
mouse_head_joint,17.879999999999708,-8.92935829819308e-05
mouse_head_joint,17.899999999999707,-8.920837320847141e-05
mouse_head_joint,17.919999999999707,-8.908494092008112e-05
mouse_head_joint,17.939999999999706,-8.889224958519293e-05
mouse_head_joint,17.959999999999706,-8.893541721821663e-05
mouse_head_joint,17.979999999999706,-8.87842699475172e-05
mouse_head_joint,17.999999999999705,-8.862603324732987e-05
mouse_head_joint,18.019999999999705,-8.84888969094888e-05
mouse_head_joint,18.039999999999704,-8.846616155455678e-05
mouse_head_joint,18.059999999999704,-8.84104440723732e-05
mouse_head_joint,18.079999999999703,-8.83174495358574e-05
mouse_head_joint,18.099999999999703,-8.805994927119087e-05
mouse_head_joint,18.119999999999703,-8.80892476509132e-05
mouse_head_joint,18.139999999999702,-8.786433367191648e-05
mouse_head_joint,18.1599999999997,-8.780490728099721e-05
mouse_head_joint,18.1799999999997,-8.780146552656021e-05
mouse_head_joint,18.1999999999997,-8.755765806434113e-05
mouse_head_joint,18.2199999999997,-8.75674597269338e-05
mouse_head_joint,18.2399999999997,-8.747117505691904e-05
mouse_head_joint,18.2599999999997,-8.729742728252887e-05
mouse_head_joint,18.2799999999997,-8.720600296996395e-05
mouse_head_joint,18.2999999999997,-8.732236262787296e-05
mouse_head_joint,18.3199999999997,-8.696938934793508e-05
mouse_head_joint,18.339999999999698,-8.70721283900977e-05
mouse_head_joint,18.359999999999697,-8.690954412138296e-05
mouse_head_joint,18.379999999999697,-8.680677521866187e-05
mouse_head_joint,18.399999999999697,-8.666007149038535e-05
mouse_head_joint,18.419999999999696,-8.667224418967834e-05
mouse_head_joint,18.439999999999696,-8.652636469275166e-05
mouse_head_joint,18.459999999999695,-8.643008272546382e-05
mouse_head_joint,18.479999999999695,-8.634201174118061e-05
mouse_head_joint,18.499999999999694,-8.618434059659563e-05
mouse_head_joint,18.519999999999694,-8.619810538146311e-05
mouse_head_joint,18.539999999999694,-8.620535856707079e-05
mouse_head_joint,18.559999999999693,-8.587555385464185e-05
mouse_head_joint,18.579999999999693,-8.587286157535345e-05
mouse_head_joint,18.599999999999692,-8.57049836895385e-05
mouse_head_joint,18.619999999999692,-8.570914822669806e-05
mouse_head_joint,18.63999999999969,-8.562373956610969e-05
mouse_head_joint,18.65999999999969,-8.545355126798881e-05
mouse_head_joint,18.67999999999969,-8.53334454342658e-05
mouse_head_joint,18.69999999999969,-8.534551195271689e-05
mouse_head_joint,18.71999999999969,-8.524851220226282e-05
mouse_head_joint,18.73999999999969,-8.510830221730714e-05
mouse_head_joint,18.75999999999969,-8.512570363894412e-05
mouse_head_joint,18.77999999999969,-8.50501674030113e-05
mouse_head_joint,18.799999999999688,-8.489507829256837e-05
mouse_head_joint,18.819999999999688,-8.470792458759036e-05
mouse_head_joint,18.839999999999687,-8.466145224339527e-05
mouse_head_joint,18.859999999999687,-8.45813098564463e-05
mouse_head_joint,18.879999999999686,-8.457467730149659e-05
mouse_head_joint,18.899999999999686,-8.44568604865259e-05
mouse_head_joint,18.919999999999686,-8.429240132290516e-05
mouse_head_joint,18.939999999999685,-8.430334750109125e-05
mouse_head_joint,18.959999999999685,-8.4130387992154e-05
mouse_head_joint,18.979999999999684,-8.409181364665841e-05
mouse_head_joint,18.999999999999684,-8.405326054550244e-05
mouse_head_joint,19.019999999999683,-8.397467302412309e-05
mouse_head_joint,19.039999999999683,-8.37930662527242e-05
mouse_head_joint,19.059999999999683,-8.369146585618381e-05
mouse_head_joint,19.079999999999682,-8.375055713827351e-05
mouse_head_joint,19.09999999999968,-8.374349915207802e-05
mouse_head_joint,19.11999999999968,-8.348990789119881e-05
mouse_head_joint,19.13999999999968,-8.337047912476692e-05
mouse_head_joint,19.15999999999968,-8.336435850964108e-05
mouse_head_joint,19.17999999999968,-8.331919975645974e-05
mouse_head_joint,19.19999999999968,-8.325606625891879e-05
mouse_head_joint,19.21999999999968,-8.327179369427284e-05
mouse_head_joint,19.23999999999968,-8.304301651484991e-05
mouse_head_joint,19.25999999999968,-8.288366173392347e-05
mouse_head_joint,19.279999999999678,-8.280917716518843e-05
mouse_head_joint,19.299999999999677,-8.27329412746991e-05
mouse_head_joint,19.319999999999677,-8.26994566152095e-05
mouse_head_joint,19.339999999999677,-8.278103109216062e-05
mouse_head_joint,19.359999999999676,-8.259215337336201e-05
mouse_head_joint,19.379999999999676,-8.24157842638229e-05
mouse_head_joint,19.399999999999675,-8.241327835722956e-05
mouse_head_joint,19.419999999999675,-8.228527660669727e-05
mouse_head_joint,19.439999999999674,-8.231246332890407e-05
mouse_head_joint,19.459999999999674,-8.218425491346437e-05
mouse_head_joint,19.479999999999674,-8.212651267491822e-05
mouse_head_joint,19.499999999999673,-8.202928998457537e-05
mouse_head_joint,19.519999999999673,-8.188017821009197e-05
mouse_head_joint,19.539999999999672,-8.192112519544992e-05
mouse_head_joint,19.559999999999672,-8.168834783273127e-05
mouse_head_joint,19.57999999999967,-8.173804319966393e-05
mouse_head_joint,19.59999999999967,-8.167668968894759e-05
mouse_head_joint,19.61999999999967,-8.149064620344149e-05
mouse_head_joint,19.63999999999967,-8.142368042829418e-05
mouse_head_joint,19.65999999999967,-8.139505586246543e-05
mouse_head_joint,19.67999999999967,-8.122998388593317e-05
mouse_head_joint,19.69999999999967,-8.123703178242181e-05
mouse_head_joint,19.71999999999967,-8.120931480348759e-05
mouse_head_joint,19.739999999999668,-8.112823161265936e-05
mouse_head_joint,19.759999999999668,-8.100594152793406e-05
mouse_head_joint,19.779999999999667,-8.10376886439812e-05
mouse_head_joint,19.799999999999667,-8.091486142980386e-05
mouse_head_joint,19.819999999999666,-8.079339109645645e-05
mouse_head_joint,19.839999999999666,-8.07590910421041e-05
mouse_head_joint,19.859999999999665,-8.07238967492907e-05
mouse_head_joint,19.879999999999665,-8.057311972464731e-05
mouse_head_joint,19.899999999999665,-8.069495643070468e-05
mouse_head_joint,19.919999999999664,-8.053739032121143e-05
mouse_head_joint,19.939999999999664,-8.032820539671803e-05
mouse_head_joint,19.959999999999663,-8.027832830048709e-05
mouse_head_joint,19.979999999999663,-8.01985962031182e-05
mouse_head_joint,19.999999999999662,-8.017460364229123e-05
mouse_head_joint,20.019999999999662,-8.018122781638937e-05
mouse_head_joint,20.03999999999966,-8.002578386268056e-05
mouse_head_joint,20.05999999999966,-8.000246461126181e-05
mouse_head_joint,20.07999999999966,-7.983477024442465e-05
mouse_head_joint,20.09999999999966,-7.980938632101697e-05
mouse_head_joint,20.11999999999966,-7.984547751682669e-05
mouse_head_joint,20.13999999999966,-7.962124117799618e-05
mouse_head_joint,20.15999999999966,-7.96104196805203e-05
mouse_head_joint,20.17999999999966,-7.959022370229718e-05
mouse_head_joint,20.19999999999966,-7.945235383832738e-05
mouse_head_joint,20.219999999999658,-7.940511865722755e-05
mouse_head_joint,20.239999999999657,-7.941449627857367e-05
mouse_head_joint,20.259999999999657,-7.937791261714011e-05
mouse_head_joint,20.279999999999657,-7.928510566124203e-05
mouse_head_joint,20.299999999999656,-7.911000513693978e-05
mouse_head_joint,20.319999999999656,-7.913894262223664e-05
mouse_head_joint,20.339999999999655,-7.903414297860678e-05
mouse_head_joint,20.359999999999655,-7.901164058932153e-05
mouse_head_joint,20.379999999999654,-7.9006341445087e-05
mouse_head_joint,20.399999999999654,-7.887494068370415e-05
mouse_head_joint,20.419999999999654,-7.871261635550297e-05
mouse_head_joint,20.439999999999653,-7.869167176988157e-05
mouse_head_joint,20.459999999999653,-7.873189466689468e-05
mouse_head_joint,20.479999999999652,-7.861907847228622e-05
mouse_head_joint,20.499999999999652,-7.85727952870019e-05
mouse_head_joint,20.51999999999965,-7.848959207645834e-05
mouse_head_joint,20.53999999999965,-7.845513568405238e-05
mouse_head_joint,20.55999999999965,-7.839704044165785e-05
mouse_head_joint,20.57999999999965,-7.844292948444576e-05
