Name,time,Position
mouse_head_joint,0.0,0.0
mouse_head_joint,0.02,0.0
mouse_head_joint,0.04,0.0
mouse_head_joint,0.06,0.0
mouse_head_joint,0.08,0.0
mouse_head_joint,0.1,0.0
mouse_head_joint,0.12000000000000001,0.0
mouse_head_joint,0.14,0.0
mouse_head_joint,0.16,0.0
mouse_head_joint,0.18,0.0
mouse_head_joint,0.19999999999999998,0.0
mouse_head_joint,0.21999999999999997,-0.001882434036820868
mouse_head_joint,0.23999999999999996,-0.00022180075501321284
mouse_head_joint,0.25999999999999995,2.39541166182633e-05
mouse_head_joint,0.27999999999999997,7.0741377102834235e-06
mouse_head_joint,0.3,6.495466912781467e-06
mouse_head_joint,0.32,-6.79851977380963e-06
mouse_head_joint,0.34,-7.621832122772787e-06
mouse_head_joint,0.36000000000000004,-8.420688910604213e-06
mouse_head_joint,0.38000000000000006,-9.757387898545744e-06
mouse_head_joint,0.4000000000000001,-1.1037211786302237e-05
mouse_head_joint,0.4200000000000001,-1.2514430316024061e-05
mouse_head_joint,0.4400000000000001,-1.4233680885489264e-05
mouse_head_joint,0.46000000000000013,-1.592259072324964e-05
mouse_head_joint,0.48000000000000015,-1.773568426877148e-05
mouse_head_joint,0.5000000000000001,-1.9375649544350892e-05
mouse_head_joint,0.5200000000000001,-2.123850348834111e-05
mouse_head_joint,0.5400000000000001,-2.284332571811376e-05
mouse_head_joint,0.5600000000000002,-2.479071274308353e-05
mouse_head_joint,0.5800000000000002,-2.6501549779567313e-05
mouse_head_joint,0.6000000000000002,-2.821799446639517e-05
mouse_head_joint,0.6200000000000002,-2.9882257669200385e-05
mouse_head_joint,0.6400000000000002,-3.178936499725893e-05
mouse_head_joint,0.6600000000000003,-3.34666350649826e-05
mouse_head_joint,0.6800000000000003,-3.5246317232839885e-05
mouse_head_joint,0.7000000000000003,-3.7036579555227434e-05
mouse_head_joint,0.7200000000000003,-3.868407713270017e-05
mouse_head_joint,0.7400000000000003,-4.033783303381e-05
mouse_head_joint,0.7600000000000003,-4.2144406356747766e-05
mouse_head_joint,0.7800000000000004,-4.393629718979497e-05
mouse_head_joint,0.8000000000000004,-4.555284374863078e-05
mouse_head_joint,0.8200000000000004,-4.754179314314655e-05
mouse_head_joint,0.8400000000000004,-4.913493976133054e-05
mouse_head_joint,0.8600000000000004,-5.0717691044255275e-05
mouse_head_joint,0.8800000000000004,-5.230655139687457e-05
mouse_head_joint,0.9000000000000005,-5.386639536908433e-05
mouse_head_joint,0.9200000000000005,-5.5768294186187006e-05
mouse_head_joint,0.9400000000000005,-5.730629238520635e-05
mouse_head_joint,0.9600000000000005,-5.8969228028615817e-05
mouse_head_joint,0.9800000000000005,-6.0486403286041934e-05
mouse_head_joint,1.0000000000000004,-6.210654141547423e-05
mouse_head_joint,1.0200000000000005,-6.359864055394127e-05
mouse_head_joint,1.0400000000000005,-6.5319836465072e-05
mouse_head_joint,1.0600000000000005,-6.668370304119264e-05
mouse_head_joint,1.0800000000000005,-6.811189868649592e-05
mouse_head_joint,1.1000000000000005,-6.98086631141237e-05
mouse_head_joint,1.1200000000000006,-7.126157744341555e-05
mouse_head_joint,1.1400000000000006,-7.266708151476564e-05
mouse_head_joint,1.1600000000000006,-7.424919309251266e-05
mouse_head_joint,1.1800000000000006,-7.565126467845573e-05
mouse_head_joint,1.2000000000000006,-7.702794528174906e-05
mouse_head_joint,1.2200000000000006,-7.857123678256528e-05
mouse_head_joint,1.2400000000000007,-8.010462267549201e-05
mouse_head_joint,1.2600000000000007,-8.147080462261869e-05
mouse_head_joint,1.2800000000000007,-8.297939337964522e-05
mouse_head_joint,1.3000000000000007,-8.430127896286166e-05
mouse_head_joint,1.3200000000000007,-8.579611928816178e-05
mouse_head_joint,1.3400000000000007,-8.72053499065828e-05
mouse_head_joint,1.3600000000000008,-8.850671591709158e-05
mouse_head_joint,1.3800000000000008,-8.972639912130376e-05
mouse_head_joint,1.4000000000000008,-9.10059353245174e-05
mouse_head_joint,1.4200000000000008,-9.258450481919311e-05
mouse_head_joint,1.4400000000000008,-9.388735926396663e-05
mouse_head_joint,1.4600000000000009,-9.518208893499747e-05
mouse_head_joint,1.4800000000000009,-9.641924375358712e-05
mouse_head_joint,1.5000000000000009,-9.787257819660056e-05
mouse_head_joint,1.520000000000001,-9.892328005900453e-05
mouse_head_joint,1.540000000000001,-0.00010012825555349991
mouse_head_joint,1.560000000000001,-0.00010162270439728616
mouse_head_joint,1.580000000000001,-0.00010280636517467912
mouse_head_joint,1.600000000000001,-0.000103951139780456
mouse_head_joint,1.620000000000001,-0.00010528510142471248
mouse_head_joint,1.640000000000001,-0.00010641044958692447
mouse_head_joint,1.660000000000001,-0.00010755326959266398
mouse_head_joint,1.680000000000001,-0.00010885573517604996
mouse_head_joint,1.700000000000001,-0.00011025667707809106
mouse_head_joint,1.720000000000001,-0.00011139275216454081
mouse_head_joint,1.740000000000001,-0.00011241485329094303
mouse_head_joint,1.7600000000000011,-0.00011350803425358436
mouse_head_joint,1.7800000000000011,-0.00011450116742928174
mouse_head_joint,1.8000000000000012,-0.00011594528614544686
mouse_head_joint,1.8200000000000012,-0.00011687593038800514
mouse_head_joint,1.8400000000000012,-0.00011799832678338618
mouse_head_joint,1.8600000000000012,-0.00011904212501967493
mouse_head_joint,1.8800000000000012,-0.00012022203697803491
mouse_head_joint,1.9000000000000012,-0.00012119095259066626
mouse_head_joint,1.9200000000000013,-0.00012220654104844186
mouse_head_joint,1.9400000000000013,-0.00012332103845480447
mouse_head_joint,1.9600000000000013,-0.00012443787367200088
mouse_head_joint,1.9800000000000013,-0.0001254247615030124
mouse_head_joint,2.0000000000000013,-0.00012656706654734506
mouse_head_joint,2.0200000000000014,-0.0001274949023191141
mouse_head_joint,2.0400000000000014,-0.0001284546181095081
mouse_head_joint,2.0600000000000014,-0.00012956868048874526
mouse_head_joint,2.0800000000000014,-0.0001306297565726311
mouse_head_joint,2.1000000000000014,-0.00013156246387513448
mouse_head_joint,2.1200000000000014,-0.00013262114052370322
mouse_head_joint,2.1400000000000015,-0.0001335231473200693
mouse_head_joint,2.1600000000000015,-0.00013442870243363103
mouse_head_joint,2.1800000000000015,-0.0001353259119944994
mouse_head_joint,2.2000000000000015,-0.00013633587662198465
mouse_head_joint,2.2200000000000015,-0.00013719909830900434
mouse_head_joint,2.2400000000000015,-0.00013806991785791922
mouse_head_joint,2.2600000000000016,-0.000138932586541074
mouse_head_joint,2.2800000000000016,-0.0001398563073014003
mouse_head_joint,2.3000000000000016,-0.0001408510141525099
mouse_head_joint,2.3200000000000016,-0.00014162835698350307
mouse_head_joint,2.3400000000000016,-0.0001425588173393777
mouse_head_joint,2.3600000000000017,-0.0001433787992777269
mouse_head_joint,2.3800000000000017,-0.00014434838576704578
mouse_head_joint,2.4000000000000017,-0.00014520613359003676
mouse_head_joint,2.4200000000000017,-0.0001462864426260424
mouse_head_joint,2.4400000000000017,-0.00014684049731705784
mouse_head_joint,2.4600000000000017,-0.00014772257127582122
mouse_head_joint,2.4800000000000018,-0.00014862322850195397
mouse_head_joint,2.5000000000000018,-0.00014931048118516088
mouse_head_joint,2.520000000000002,-0.000150101299629668
mouse_head_joint,2.540000000000002,-0.00015069887436069962
mouse_head_joint,2.560000000000002,-0.00015158860485797732
mouse_head_joint,2.580000000000002,-0.0001524360449982609
mouse_head_joint,2.600000000000002,-0.00015320425543396965
mouse_head_joint,2.620000000000002,-0.0001539211162020493
mouse_head_joint,2.640000000000002,-0.0001546754264403205
mouse_head_joint,2.660000000000002,-0.0001552984753310227
mouse_head_joint,2.680000000000002,-0.00015613462959862545
mouse_head_joint,2.700000000000002,-0.00015682113924331276
mouse_head_joint,2.720000000000002,-0.00015757917680581102
mouse_head_joint,2.740000000000002,-0.0001582507998536542
mouse_head_joint,2.760000000000002,-0.00015909262299196314
mouse_head_joint,2.780000000000002,-0.00015965924029259781
mouse_head_joint,2.800000000000002,-0.00016024766023559067
mouse_head_joint,2.820000000000002,-0.00016104058062982318
mouse_head_joint,2.840000000000002,-0.0001618034616663877
mouse_head_joint,2.860000000000002,-0.00016251479459317153
mouse_head_joint,2.880000000000002,-0.00016313592744232608
mouse_head_joint,2.900000000000002,-0.00016366580887439142
mouse_head_joint,2.920000000000002,-0.0001643175365906302
mouse_head_joint,2.940000000000002,-0.0001648907873628147
mouse_head_joint,2.960000000000002,-0.00016550978320584164
mouse_head_joint,2.980000000000002,-0.00016609610677775777
mouse_head_joint,3.000000000000002,-0.00016678923708113302
mouse_head_joint,3.0200000000000022,-0.00016726757728946495
mouse_head_joint,3.0400000000000023,-0.00016787126619544068
mouse_head_joint,3.0600000000000023,-0.00016863191748051065
mouse_head_joint,3.0800000000000023,-0.00016911902224858721
mouse_head_joint,3.1000000000000023,-0.00016972959764061102
mouse_head_joint,3.1200000000000023,-0.00017026906969519473
mouse_head_joint,3.1400000000000023,-0.0001707302566620328
mouse_head_joint,3.1600000000000024,-0.00017133266947055859
mouse_head_joint,3.1800000000000024,-0.0001718526607996651
mouse_head_joint,3.2000000000000024,-0.00017244207292588243
mouse_head_joint,3.2200000000000024,-0.00017294932199263258
mouse_head_joint,3.2400000000000024,-0.00017359316113196854
mouse_head_joint,3.2600000000000025,-0.00017420593778894045
mouse_head_joint,3.2800000000000025,-0.00017447103422885135
mouse_head_joint,3.3000000000000025,-0.00017495331607264575
mouse_head_joint,3.3200000000000025,-0.00017558718665622308
mouse_head_joint,3.3400000000000025,-0.0001761393069612538
mouse_head_joint,3.3600000000000025,-0.00017651299622922778
mouse_head_joint,3.3800000000000026,-0.00017697738747557423
mouse_head_joint,3.4000000000000026,-0.0001774293662917259
mouse_head_joint,3.4200000000000026,-0.00017799432604448384
mouse_head_joint,3.4400000000000026,-0.00017834011474349154
mouse_head_joint,3.4600000000000026,-0.00017881938354857851
mouse_head_joint,3.4800000000000026,-0.00017924777222511068
mouse_head_joint,3.5000000000000027,-0.0001798072893191005
mouse_head_joint,3.5200000000000027,-0.00018028499091116146
mouse_head_joint,3.5400000000000027,-0.00018062037866783953
mouse_head_joint,3.5600000000000027,-0.00018102582229317932
mouse_head_joint,3.5800000000000027,-0.00018156490456711083
mouse_head_joint,3.6000000000000028,-0.0001820212842913449
mouse_head_joint,3.6200000000000028,-0.00018240995774654323
mouse_head_joint,3.640000000000003,-0.00018280918045832095
mouse_head_joint,3.660000000000003,-0.00018304770037946838
mouse_head_joint,3.680000000000003,-0.00018355002125503006
mouse_head_joint,3.700000000000003,-0.00018401576634730077
mouse_head_joint,3.720000000000003,-0.0001843772131824295
mouse_head_joint,3.740000000000003,-0.00018463244463085005
mouse_head_joint,3.760000000000003,-0.00018509085498585875
mouse_head_joint,3.780000000000003,-0.00018532849109220706
mouse_head_joint,3.800000000000003,-0.00018578247823963778
mouse_head_joint,3.820000000000003,-0.00018605104026647723
mouse_head_joint,3.840000000000003,-0.0001864718213067107
mouse_head_joint,3.860000000000003,-0.0001868373097346776
mouse_head_joint,3.880000000000003,-0.00018715701571903054
mouse_head_joint,3.900000000000003,-0.0001875216361328924
mouse_head_joint,3.920000000000003,-0.00018774969675305897
mouse_head_joint,3.940000000000003,-0.00018818873506187828
mouse_head_joint,3.960000000000003,-0.00018840731950220402
mouse_head_joint,3.980000000000003,-0.00018870207448973275
mouse_head_joint,4.000000000000003,-0.00018912480431954037
mouse_head_joint,4.020000000000002,-0.00018951833292124576
mouse_head_joint,4.040000000000002,-0.00018977166862299555
mouse_head_joint,4.060000000000001,-0.000189951926157228
mouse_head_joint,4.080000000000001,-0.00019022262067558415
mouse_head_joint,4.1000000000000005,-0.0001905803517656679
mouse_head_joint,4.12,-0.00019074306266908536
mouse_head_joint,4.14,-0.00019109411252049568
mouse_head_joint,4.159999999999999,-0.0001913459428992681
mouse_head_joint,4.179999999999999,-0.00019160801456408194
mouse_head_joint,4.199999999999998,-0.00019173042734266232
mouse_head_joint,4.219999999999998,-0.00019199273765213576
mouse_head_joint,4.2399999999999975,-0.00019235396515160375
mouse_head_joint,4.259999999999997,-0.0001926241018912478
mouse_head_joint,4.279999999999997,-0.00019271875513560133
mouse_head_joint,4.299999999999996,-0.00019306953810538374
mouse_head_joint,4.319999999999996,-0.0001933293323732599
mouse_head_joint,4.339999999999995,-0.0001934552754709884
mouse_head_joint,4.359999999999995,-0.00019379149651221894
mouse_head_joint,4.379999999999995,-0.00019399487842886032
mouse_head_joint,4.399999999999994,-0.00019419162026945713
mouse_head_joint,4.419999999999994,-0.00019435753899887942
mouse_head_joint,4.439999999999993,-0.00019442748837850132
mouse_head_joint,4.459999999999993,-0.00019482529883951827
mouse_head_joint,4.479999999999992,-0.0001950078239145725
mouse_head_joint,4.499999999999992,-0.00019508034358572957
mouse_head_joint,4.519999999999992,-0.0001953490315784734
mouse_head_joint,4.539999999999991,-0.00019540148621466358
mouse_head_joint,4.559999999999991,-0.00019567274065401818
mouse_head_joint,4.57999999999999,-0.00019584084431834015
mouse_head_joint,4.59999999999999,-0.00019589845415346474
mouse_head_joint,4.6199999999999894,-0.0001960529861539939
mouse_head_joint,4.639999999999989,-0.000196326989065021
mouse_head_joint,4.659999999999989,-0.00019637974063346775
mouse_head_joint,4.679999999999988,-0.00019655811971919235
mouse_head_joint,4.699999999999988,-0.00019682356345285257
mouse_head_joint,4.719999999999987,-0.0001968687864151164
mouse_head_joint,4.739999999999987,-0.00019722611709660498
mouse_head_joint,4.7599999999999865,-0.00019725325717789843
mouse_head_joint,4.779999999999986,-0.00019736750589327556
mouse_head_joint,4.799999999999986,-0.00019733413225075935
mouse_head_joint,4.819999999999985,-0.0001976551597504539
mouse_head_joint,4.839999999999985,-0.0001976813066271177
mouse_head_joint,4.859999999999984,-0.00019776845401597853
mouse_head_joint,4.879999999999984,-0.00019787476647525892
mouse_head_joint,4.8999999999999835,-0.00019804778542464874
mouse_head_joint,4.919999999999983,-0.00019814691350017455
mouse_head_joint,4.939999999999983,-0.00019812836520660682
mouse_head_joint,4.959999999999982,-0.00019822075599851274
mouse_head_joint,4.979999999999982,-0.0001984376886836614
mouse_head_joint,4.999999999999981,-0.00019842550497006783
mouse_head_joint,5.019999999999981,-0.0001986597107732635
mouse_head_joint,5.0399999999999805,-0.00019858645994474955
mouse_head_joint,5.05999999999998,-0.0001986903401967055
mouse_head_joint,5.07999999999998,-0.00019876264354845574
mouse_head_joint,5.099999999999979,-0.0001989545665015413
mouse_head_joint,5.119999999999979,-0.00019892659125542167
mouse_head_joint,5.139999999999978,-0.00019920806513606948
mouse_head_joint,5.159999999999978,-0.0001989959633048599
mouse_head_joint,5.1799999999999775,-0.0001992096343288452
mouse_head_joint,5.199999999999977,-0.00019921861102645266
mouse_head_joint,5.219999999999977,-0.0001992686445895231
mouse_head_joint,5.239999999999976,-0.00019928647494094065
mouse_head_joint,5.259999999999976,-0.00019929273599395003
mouse_head_joint,5.279999999999975,-0.00019945867931880912
mouse_head_joint,5.299999999999975,-0.00019946158879413645
mouse_head_joint,5.3199999999999745,-0.00019938856315881992
mouse_head_joint,5.339999999999974,-0.00019953720549281684
mouse_head_joint,5.359999999999974,-0.00019944897708956688
mouse_head_joint,5.379999999999973,-0.00019961103146037829
mouse_head_joint,5.399999999999973,-0.00019961492248476986
mouse_head_joint,5.419999999999972,-0.00019953426266994256
mouse_head_joint,5.439999999999972,-0.00019957386854763115
mouse_head_joint,5.4599999999999715,-0.00019970837979066403
mouse_head_joint,5.479999999999971,-0.0001997201946810634
mouse_head_joint,5.499999999999971,-0.00019972876583551624
mouse_head_joint,5.51999999999997,-0.00019975722563270182
mouse_head_joint,5.53999999999997,-0.00019985526759747074
mouse_head_joint,5.559999999999969,-0.00019977081927713414
mouse_head_joint,5.579999999999969,-0.0001996871918032994
mouse_head_joint,5.599999999999969,-0.0001996826820729325
mouse_head_joint,5.619999999999968,-0.00019975693755469592
mouse_head_joint,5.639999999999968,-0.00019963109561071946
mouse_head_joint,5.659999999999967,-0.0001995752462322642
mouse_head_joint,5.679999999999967,-0.00019965556928536188
mouse_head_joint,5.699999999999966,-0.0001996380609794457
mouse_head_joint,5.719999999999966,-0.00019949382081740907
mouse_head_joint,5.739999999999966,-0.0001994711382611314
mouse_head_joint,5.759999999999965,-0.000199574067185182
mouse_head_joint,5.779999999999965,-0.00019942904133785078
mouse_head_joint,5.799999999999964,-0.0001995162030832276
mouse_head_joint,5.819999999999964,-0.00019938359611693102
mouse_head_joint,5.839999999999963,-0.00019948303564376602
mouse_head_joint,5.859999999999963,-0.0001995377697765477
mouse_head_joint,5.879999999999963,-0.00019928993312934296
mouse_head_joint,5.899999999999962,-0.00019945592255687927
mouse_head_joint,5.919999999999962,-0.00019929210303359923
mouse_head_joint,5.939999999999961,-0.00019908259626610914
mouse_head_joint,5.959999999999961,-0.00019903375514029875
mouse_head_joint,5.9799999999999605,-0.00019909069187828976
mouse_head_joint,5.99999999999996,-0.00019899791253941146
mouse_head_joint,6.01999999999996,-0.0001990244428444754
mouse_head_joint,6.039999999999959,-0.00019896664518714857
mouse_head_joint,6.059999999999959,-0.00019877620043562416
mouse_head_joint,6.079999999999958,-0.00019880689536044827
mouse_head_joint,6.099999999999958,-0.0001987241964540587
mouse_head_joint,6.1199999999999575,-0.00019865676080410566
mouse_head_joint,6.139999999999957,-0.00019858809765160856
mouse_head_joint,6.159999999999957,-0.00019851744471033328
mouse_head_joint,6.179999999999956,-0.00019833892898812877
mouse_head_joint,6.199999999999956,-0.0001982766270796077
mouse_head_joint,6.219999999999955,-0.00019819980646840207
mouse_head_joint,6.239999999999955,-0.00019823599820778526
mouse_head_joint,6.2599999999999545,-0.00019825719374910733
mouse_head_joint,6.279999999999954,-0.00019808457074876884
mouse_head_joint,6.299999999999954,-0.00019780292872528804
mouse_head_joint,6.319999999999953,-0.0001977160862756122
mouse_head_joint,6.339999999999953,-0.00019781057971179905
mouse_head_joint,6.359999999999952,-0.00019764278033296279
mouse_head_joint,6.379999999999952,-0.00019750682795383057
mouse_head_joint,6.3999999999999515,-0.00019749240792332756
mouse_head_joint,6.419999999999951,-0.00019735462794390202
mouse_head_joint,6.439999999999951,-0.0001971656932440169
mouse_head_joint,6.45999999999995,-0.00019703191134112785
mouse_head_joint,6.47999999999995,-0.00019703255806557962
mouse_head_joint,6.499999999999949,-0.00019692906040802427
mouse_head_joint,6.519999999999949,-0.0001968244087153792
mouse_head_joint,6.5399999999999485,-0.00019671183390901348
mouse_head_joint,6.559999999999948,-0.0001966083514846062
mouse_head_joint,6.579999999999948,-0.00019650691177552915
mouse_head_joint,6.599999999999947,-0.00019629148115729578
mouse_head_joint,6.619999999999947,-0.00019628941246807585
mouse_head_joint,6.639999999999946,-0.00019617376031266787
mouse_head_joint,6.659999999999946,-0.00019605653207577234
mouse_head_joint,6.6799999999999455,-0.00019602536758167588
mouse_head_joint,6.699999999999945,-0.00019578143127052527
mouse_head_joint,6.719999999999945,-0.0001954928058243155
mouse_head_joint,6.739999999999944,-0.0001954265073420558
mouse_head_joint,6.759999999999944,-0.0001953011468032173
mouse_head_joint,6.779999999999943,-0.00019511841162600518
mouse_head_joint,6.799999999999943,-0.00019512394193466065
mouse_head_joint,6.8199999999999426,-0.00019494898182603748
mouse_head_joint,6.839999999999942,-0.0001946913647641324
mouse_head_joint,6.859999999999942,-0.00019465902010740166
mouse_head_joint,6.879999999999941,-0.00019440765684386463
mouse_head_joint,6.899999999999941,-0.00019427160328611137
mouse_head_joint,6.91999999999994,-0.0001942431816122081
mouse_head_joint,6.93999999999994,-0.00019410652346074642
mouse_head_joint,6.95999999999994,-0.00019386075710681183
mouse_head_joint,6.979999999999939,-0.00019371910968146722
mouse_head_joint,6.999999999999939,-0.00019369307311745132
mouse_head_joint,7.019999999999938,-0.00019354856544939736
mouse_head_joint,7.039999999999938,-0.0001934887541956698
mouse_head_joint,7.059999999999937,-0.0001933415773267555
mouse_head_joint,7.079999999999937,-0.0001929004516503241
mouse_head_joint,7.099999999999937,-0.00019275062190704517
mouse_head_joint,7.119999999999936,-0.00019277622662805527
mouse_head_joint,7.139999999999936,-0.00019262378359918841
mouse_head_joint,7.159999999999935,-0.00019228753728750547
mouse_head_joint,7.179999999999935,-0.0001921324699711846
mouse_head_joint,7.1999999999999345,-0.00019206366242841
mouse_head_joint,7.219999999999934,-0.00019177881976251143
mouse_head_joint,7.239999999999934,-0.0001916200854585881
mouse_head_joint,7.259999999999933,-0.00019155925659308792
mouse_head_joint,7.279999999999933,-0.00019138740403157328
mouse_head_joint,7.299999999999932,-0.00019111492957346599
mouse_head_joint,7.319999999999932,-0.0001909545602805096
mouse_head_joint,7.3399999999999315,-0.00019089643704006676
mouse_head_joint,7.359999999999931,-0.00019073394591373471
mouse_head_joint,7.379999999999931,-0.0001905669677988442
mouse_head_joint,7.39999999999993,-0.00019029320283170392
mouse_head_joint,7.41999999999993,-0.00019031719942752545
mouse_head_joint,7.439999999999929,-0.00019002082828922795
mouse_head_joint,7.459999999999929,-0.0001898552981005608
mouse_head_joint,7.4799999999999285,-0.00018960987587934852
mouse_head_joint,7.499999999999928,-0.000189436337961979
mouse_head_joint,7.519999999999928,-0.00018928472908896765
mouse_head_joint,7.539999999999927,-0.00018897285561614297
mouse_head_joint,7.559999999999927,-0.00018888236782910184
mouse_head_joint,7.579999999999926,-0.00018867447360904066
mouse_head_joint,7.599999999999926,-0.00018837766079560225
mouse_head_joint,7.6199999999999255,-0.0001883159808739876
mouse_head_joint,7.639999999999925,-0.0001880172289068227
mouse_head_joint,7.659999999999925,-0.0001879409656542208
mouse_head_joint,7.679999999999924,-0.0001876474589135313
mouse_head_joint,7.699999999999924,-0.00018746396955293676
mouse_head_joint,7.719999999999923,-0.0001873893749024802
mouse_head_joint,7.739999999999923,-0.00018720515574432994
mouse_head_joint,7.7599999999999225,-0.0001869112591048605
mouse_head_joint,7.779999999999922,-0.00018683161106380908
mouse_head_joint,7.799999999999922,-0.00018672676475883776
mouse_head_joint,7.819999999999921,-0.00018653783532585066
mouse_head_joint,7.839999999999921,-0.0001862210861087732
mouse_head_joint,7.85999999999992,-0.00018596184852004427
mouse_head_joint,7.87999999999992,-0.00018584215836181528
mouse_head_joint,7.8999999999999195,-0.0001855241183612577
mouse_head_joint,7.919999999999919,-0.00018535305208988717
mouse_head_joint,7.939999999999919,-0.00018507391025845976
mouse_head_joint,7.959999999999918,-0.00018487918544085602
mouse_head_joint,7.979999999999918,-0.0001847687375615692
mouse_head_joint,7.999999999999917,-0.0001845404930742589
mouse_head_joint,8.019999999999918,-0.00018422475043244901
mouse_head_joint,8.039999999999917,-0.0001840269517892068
mouse_head_joint,8.059999999999917,-0.00018382118278736925
mouse_head_joint,8.079999999999917,-0.00018372934686805564
mouse_head_joint,8.099999999999916,-0.00018342135692694939
mouse_head_joint,8.119999999999916,-0.00018332832328926685
mouse_head_joint,8.139999999999915,-0.00018301988192703789
mouse_head_joint,8.159999999999915,-0.00018292422657495422
mouse_head_joint,8.179999999999914,-0.0001827214201943761
mouse_head_joint,8.199999999999914,-0.00018230273555897014
mouse_head_joint,8.219999999999914,-0.00018226815036292976
mouse_head_joint,8.239999999999913,-0.00018189376674726532
mouse_head_joint,8.259999999999913,-0.00018173275956456791
mouse_head_joint,8.279999999999912,-0.00018152664862736145
mouse_head_joint,8.299999999999912,-0.000181255290063298
mouse_head_joint,8.319999999999911,-0.00018118530868971305
mouse_head_joint,8.339999999999911,-0.00018092416440662618
mouse_head_joint,8.35999999999991,-0.0001805864516919442
mouse_head_joint,8.37999999999991,-0.00018047331439952075
mouse_head_joint,8.39999999999991,-0.0001802480563544151
mouse_head_joint,8.41999999999991,-0.00018003775860986337
mouse_head_joint,8.439999999999909,-0.00017971507563441236
mouse_head_joint,8.459999999999908,-0.00017950370909325386
mouse_head_joint,8.479999999999908,-0.0001792900350929827
mouse_head_joint,8.499999999999908,-0.00017918438867070563
mouse_head_joint,8.519999999999907,-0.00017905083152403023
mouse_head_joint,8.539999999999907,-0.0001786505803584859
mouse_head_joint,8.559999999999906,-0.00017854214677903713
mouse_head_joint,8.579999999999906,-0.00017840868343910188
mouse_head_joint,8.599999999999905,-0.00017789578929505723
mouse_head_joint,8.619999999999905,-0.00017784993056579879
mouse_head_joint,8.639999999999905,-0.0001775636998466723
mouse_head_joint,8.659999999999904,-0.00017741753690980744
mouse_head_joint,8.679999999999904,-0.000177145561732317
mouse_head_joint,8.699999999999903,-0.00017687404449517885
mouse_head_joint,8.719999999999903,-0.0001765031012883611
mouse_head_joint,8.739999999999903,-0.00017628485270471117
mouse_head_joint,8.759999999999902,-0.00017606620247079263
mouse_head_joint,8.779999999999902,-0.0001759499151834376
mouse_head_joint,8.799999999999901,-0.00017562772610180133
mouse_head_joint,8.8199999999999,-0.00017551060760734316
mouse_head_joint,8.8399999999999,-0.0001752842365316809
mouse_head_joint,8.8599999999999,-0.0001749551663738913
mouse_head_joint,8.8799999999999,-0.0001748402449193165
mouse_head_joint,8.899999999999899,-0.00017461888630165845
mouse_head_joint,8.919999999999899,-0.00017447476312248966
mouse_head_joint,8.939999999999898,-0.00017417245400963566
mouse_head_joint,8.959999999999898,-0.0001740302069839217
mouse_head_joint,8.979999999999897,-0.00017350929355153255
mouse_head_joint,8.999999999999897,-0.00017345486820019573
mouse_head_joint,9.019999999999897,-0.0001732314386364564
mouse_head_joint,9.039999999999896,-0.00017288049379438064
mouse_head_joint,9.059999999999896,-0.0001726726396267253
mouse_head_joint,9.079999999999895,-0.00017231895142000297
mouse_head_joint,9.099999999999895,-0.0001722235911634229
mouse_head_joint,9.119999999999894,-0.00017196408625252957
mouse_head_joint,9.139999999999894,-0.00017172193461156837
mouse_head_joint,9.159999999999894,-0.0001715133820088255
mouse_head_joint,9.179999999999893,-0.00017116853478693628
mouse_head_joint,9.199999999999893,-0.0001710446778036001
mouse_head_joint,9.219999999999892,-0.0001708117279344279
mouse_head_joint,9.239999999999892,-0.0001705822747917196
mouse_head_joint,9.259999999999891,-0.00017025009914029
mouse_head_joint,9.279999999999891,-0.000170125344912897
mouse_head_joint,9.29999999999989,-0.0001699776114545415
mouse_head_joint,9.31999999999989,-0.00016962146554799773
mouse_head_joint,9.33999999999989,-0.00016932313433226653
mouse_head_joint,9.35999999999989,-0.00016916596350036173
mouse_head_joint,9.379999999999889,-0.0001688672626389831
mouse_head_joint,9.399999999999888,-0.0001686390493489398
mouse_head_joint,9.419999999999888,-0.0001684799061836273
mouse_head_joint,9.439999999999888,-0.00016812393684872973
mouse_head_joint,9.459999999999887,-0.00016782789965930078
mouse_head_joint,9.479999999999887,-0.00016768126894106672
mouse_head_joint,9.499999999999886,-0.00016741732484870653
mouse_head_joint,9.519999999999886,-0.00016709382052315647
mouse_head_joint,9.539999999999885,-0.00016683974454512196
mouse_head_joint,9.559999999999885,-0.00016671189067096748
mouse_head_joint,9.579999999999885,-0.00016637046303280556
mouse_head_joint,9.599999999999884,-0.00016624540818011013
mouse_head_joint,9.619999999999884,-0.0001660121844162532
mouse_head_joint,9.639999999999883,-0.0001657821285894201
mouse_head_joint,9.659999999999883,-0.0001655519647822956
mouse_head_joint,9.679999999999882,-0.00016531811581899092
mouse_head_joint,9.699999999999882,-0.0001651664992650126
mouse_head_joint,9.719999999999882,-0.000164936000460969
mouse_head_joint,9.739999999999881,-0.00016457664407187877
mouse_head_joint,9.75999999999988,-0.00016434455985514518
mouse_head_joint,9.77999999999988,-0.00016411382337722102
mouse_head_joint,9.79999999999988,-0.0001637555923617029
mouse_head_joint,9.81999999999988,-0.00016352472055825018
mouse_head_joint,9.839999999999879,-0.00016336351919843395
mouse_head_joint,9.859999999999879,-0.00016299516213091891
mouse_head_joint,9.879999999999878,-0.00016284599705951308
mouse_head_joint,9.899999999999878,-0.00016258003219604689
mouse_head_joint,9.919999999999877,-0.000162230322173329
mouse_head_joint,9.939999999999877,-0.00016210045742504064
mouse_head_joint,9.959999999999877,-0.00016186218297065125
mouse_head_joint,9.979999999999876,-0.0001615230257216993
mouse_head_joint,9.999999999999876,-0.00016128930239567296
mouse_head_joint,10.019999999999875,-0.00016116501932561533
mouse_head_joint,10.039999999999875,-0.00016100824864384577
mouse_head_joint,10.059999999999874,-0.00016059551516445225
mouse_head_joint,10.079999999999874,-0.00016054560812950314
mouse_head_joint,10.099999999999874,-0.00016018556689179064
mouse_head_joint,10.119999999999873,-0.000159785905979426
mouse_head_joint,10.139999999999873,-0.00015972183545542862
mouse_head_joint,10.159999999999872,-0.0001594905787110079
mouse_head_joint,10.179999999999872,-0.00015913198997896671
mouse_head_joint,10.199999999999871,-0.00015890078530755858
mouse_head_joint,10.219999999999871,-0.00015860184415572576
mouse_head_joint,10.23999999999987,-0.0001584176074604926
mouse_head_joint,10.25999999999987,-0.0001582211674930889
mouse_head_joint,10.27999999999987,-0.00015786183238564178
mouse_head_joint,10.29999999999987,-0.0001576063375470227
mouse_head_joint,10.319999999999869,-0.00015747640295060705
mouse_head_joint,10.339999999999868,-0.00015724550703843931
mouse_head_joint,10.359999999999868,-0.00015700774262494832
mouse_head_joint,10.379999999999868,-0.0001567769803934027
mouse_head_joint,10.399999999999867,-0.0001565429715890687
mouse_head_joint,10.419999999999867,-0.00015630870663940755
mouse_head_joint,10.439999999999866,-0.0001559753214781523
mouse_head_joint,10.459999999999866,-0.0001558477218308596
mouse_head_joint,10.479999999999865,-0.00015556636575375649
mouse_head_joint,10.499999999999865,-0.00015516841007823245
mouse_head_joint,10.519999999999865,-0.00015493824064716222
mouse_head_joint,10.539999999999864,-0.00015480674121626237
mouse_head_joint,10.559999999999864,-0.00015451805571231603
mouse_head_joint,10.579999999999863,-0.00015428819003648897
mouse_head_joint,10.599999999999863,-0.0001539906969920679
mouse_head_joint,10.619999999999862,-0.00015371466016400603
mouse_head_joint,10.639999999999862,-0.00015361285278192582
mouse_head_joint,10.659999999999862,-0.00015325575816937942
mouse_head_joint,10.679999999999861,-0.00015300237873017153
mouse_head_joint,10.69999999999986,-0.00015286736818076463
mouse_head_joint,10.71999999999986,-0.00015264502410872183
mouse_head_joint,10.73999999999986,-0.00015230579480451922
mouse_head_joint,10.75999999999986,-0.00015207389103188973
mouse_head_joint,10.779999999999859,-0.00015184314175531455
mouse_head_joint,10.799999999999859,-0.00015171729639273934
mouse_head_joint,10.819999999999858,-0.0001514890313902839
mouse_head_joint,10.839999999999858,-0.0001513380392390573
mouse_head_joint,10.859999999999857,-0.00015098169913763115
mouse_head_joint,10.879999999999857,-0.00015068572825338578
mouse_head_joint,10.899999999999856,-0.00015052646275037773
mouse_head_joint,10.919999999999856,-0.0001502306697078737
mouse_head_joint,10.939999999999856,-0.0001499583831270357
mouse_head_joint,10.959999999999855,-0.00014965010933298828
mouse_head_joint,10.979999999999855,-0.000149423185257902
mouse_head_joint,10.999999999999854,-0.00014927758894867083
mouse_head_joint,11.019999999999854,-0.000149051008325074
mouse_head_joint,11.039999999999853,-0.00014869762199332115
mouse_head_joint,11.059999999999853,-0.0001485646895771353
mouse_head_joint,11.079999999999853,-0.00014822190455365813
mouse_head_joint,11.099999999999852,-0.00014798699640383717
mouse_head_joint,11.119999999999852,-0.00014786223645124608
mouse_head_joint,11.139999999999851,-0.0001476395849522305
mouse_head_joint,11.159999999999851,-0.000147411739547465
mouse_head_joint,11.17999999999985,-0.0001471867912146152
mouse_head_joint,11.19999999999985,-0.00014685670926883887
mouse_head_joint,11.21999999999985,-0.00014673445552659814
mouse_head_joint,11.23999999999985,-0.00014658679263135355
mouse_head_joint,11.259999999999849,-0.00014616758791152762
mouse_head_joint,11.279999999999848,-0.0001459437593727131
mouse_head_joint,11.299999999999848,-0.00014578838926304627
mouse_head_joint,11.319999999999848,-0.00014543838023950428
mouse_head_joint,11.339999999999847,-0.00014528327756835324
mouse_head_joint,11.359999999999847,-0.0001449250408489533
mouse_head_joint,11.379999999999846,-0.0001447502343392415
mouse_head_joint,11.399999999999846,-0.00014441167336620708
mouse_head_joint,11.419999999999845,-0.00014429000576843265
mouse_head_joint,11.439999999999845,-0.0001439590192768847
mouse_head_joint,11.459999999999845,-0.0001437459310844602
mouse_head_joint,11.479999999999844,-0.00014351597206196942
mouse_head_joint,11.499999999999844,-0.00014329481174435443
mouse_head_joint,11.519999999999843,-0.00014307166357774292
mouse_head_joint,11.539999999999843,-0.00014295438003486538
mouse_head_joint,11.559999999999842,-0.00014267986951566058
mouse_head_joint,11.579999999999842,-0.00014245974719440113
mouse_head_joint,11.599999999999842,-0.0001423675980269934
mouse_head_joint,11.619999999999841,-0.00014202026927634392
mouse_head_joint,11.63999999999984,-0.0001416359627661734
mouse_head_joint,11.65999999999984,-0.00014141692421887342
mouse_head_joint,11.67999999999984,-0.00014123924889108963
mouse_head_joint,11.69999999999984,-0.00014102077137501112
mouse_head_joint,11.719999999999839,-0.00014087028811538005
mouse_head_joint,11.739999999999839,-0.00014059868215809956
mouse_head_joint,11.759999999999838,-0.0001403810326143784
mouse_head_joint,11.779999999999838,-0.000140131330656601
mouse_head_joint,11.799999999999837,-0.00013991427283333024
mouse_head_joint,11.819999999999837,-0.00013958226955779196
mouse_head_joint,11.839999999999836,-0.0001393658138439946
mouse_head_joint,11.859999999999836,-0.00013914016783633798
mouse_head_joint,11.879999999999836,-0.00013892598021403302
mouse_head_joint,11.899999999999835,-0.00013870881965960535
mouse_head_joint,11.919999999999835,-0.0001385967461953186
mouse_head_joint,11.939999999999834,-0.00013838178526714984
mouse_head_joint,11.959999999999834,-0.0001381135689948465
mouse_head_joint,11.979999999999833,-0.00013802654022931904
mouse_head_joint,11.999999999999833,-0.00013768517607903874
mouse_head_joint,12.019999999999833,-0.00013734924706554352
mouse_head_joint,12.039999999999832,-0.00013719359870467684
mouse_head_joint,12.059999999999832,-0.00013698051906541053
mouse_head_joint,12.079999999999831,-0.00013683587561441612
mouse_head_joint,12.099999999999831,-0.00013649762148926214
mouse_head_joint,12.11999999999983,-0.0001362191069231855
mouse_head_joint,12.13999999999983,-0.00013600729634255515
mouse_head_joint,12.15999999999983,-0.00013587662751035623
mouse_head_joint,12.17999999999983,-0.00013563401794147723
mouse_head_joint,12.199999999999829,-0.00013530885416468408
mouse_head_joint,12.219999999999828,-0.00013509838072423008
mouse_head_joint,12.239999999999828,-0.00013488121200211367
mouse_head_joint,12.259999999999827,-0.00013477448619791943
mouse_head_joint,12.279999999999827,-0.00013446105716941048
mouse_head_joint,12.299999999999827,-0.00013435494267532988
mouse_head_joint,12.319999999999826,-0.00013404303143893515
mouse_head_joint,12.339999999999826,-0.00013393622358393031
mouse_head_joint,12.359999999999825,-0.0001337281009199387
mouse_head_joint,12.379999999999825,-0.00013346886736176344
mouse_head_joint,12.399999999999824,-0.0001332665290671997
mouse_head_joint,12.419999999999824,-0.000132991356988299
mouse_head_joint,12.439999999999824,-0.00013278462914456668
mouse_head_joint,12.459999999999823,-0.00013264634425969035
mouse_head_joint,12.479999999999823,-0.00013231497482202315
mouse_head_joint,12.499999999999822,-0.00013204345270967366
mouse_head_joint,12.519999999999822,-0.0001318381157524584
mouse_head_joint,12.539999999999822,-0.00013171389694477398
mouse_head_joint,12.559999999999821,-0.00013147876001085024
mouse_head_joint,12.57999999999982,-0.00013116110245459112
mouse_head_joint,12.59999999999982,-0.0001310574790487351
mouse_head_joint,12.61999999999982,-0.00013085050695504918
mouse_head_joint,12.63999999999982,-0.00013054438316117967
mouse_head_joint,12.659999999999819,-0.00013044434259690263
mouse_head_joint,12.679999999999819,-0.00013013906078018778
mouse_head_joint,12.699999999999818,-0.00013003983942461161
mouse_head_joint,12.719999999999818,-0.000129735905519901
mouse_head_joint,12.739999999999817,-0.0001296360185722989
mouse_head_joint,12.759999999999817,-0.00012938367584869326
mouse_head_joint,12.779999999999816,-0.00012918304128373137
mouse_head_joint,12.799999999999816,-0.0001288212287953172
mouse_head_joint,12.819999999999816,-0.00012878964230278456
mouse_head_joint,12.839999999999815,-0.0001285321937816164
mouse_head_joint,12.859999999999815,-0.00012820096363785893
mouse_head_joint,12.879999999999814,-0.00012800224220210765
mouse_head_joint,12.899999999999814,-0.00012785504793910718
mouse_head_joint,12.919999999999813,-0.00012756404860247983
mouse_head_joint,12.939999999999813,-0.00012736645517996692
mouse_head_joint,12.959999999999813,-0.0001271498720347708
mouse_head_joint,12.979999999999812,-0.0001269530533702934
mouse_head_joint,12.999999999999812,-0.00012675137125750524
mouse_head_joint,13.019999999999811,-0.00012665820323665145
mouse_head_joint,13.03999999999981,-0.00012636038013180695
mouse_head_joint,13.05999999999981,-0.00012616642679930123
mouse_head_joint,13.07999999999981,-0.0001260729175980302
mouse_head_joint,13.09999999999981,-0.000125953027038328
mouse_head_joint,13.11999999999981,-0.00012575887187260548
mouse_head_joint,13.139999999999809,-0.00012556508622107998
mouse_head_joint,13.159999999999808,-0.00012525407880747963
mouse_head_joint,13.179999999999808,-0.0001249930484368278
mouse_head_joint,13.199999999999807,-0.0001247442533953702
mouse_head_joint,13.219999999999807,-0.0001246763842299714
mouse_head_joint,13.239999999999807,-0.00012436029618090316
mouse_head_joint,13.259999999999806,-0.00012423544947370857
mouse_head_joint,13.279999999999806,-0.00012391329170302612
mouse_head_joint,13.299999999999805,-0.00012368183378708153
mouse_head_joint,13.319999999999805,-0.00012349162679914372
mouse_head_joint,13.339999999999804,-0.00012339485667567374
mouse_head_joint,13.359999999999804,-0.0001231925622668939
mouse_head_joint,13.379999999999804,-0.0001229007912444402
mouse_head_joint,13.399999999999803,-0.00012271219768766883
mouse_head_joint,13.419999999999803,-0.00012262676962571106
mouse_head_joint,13.439999999999802,-0.0001223377925008151
mouse_head_joint,13.459999999999802,-0.0001222529597093569
mouse_head_joint,13.479999999999801,-0.00012214094883500337
mouse_head_joint,13.499999999999801,-0.00012195431600670048
mouse_head_joint,13.5199999999998,-0.00012164271909043123
mouse_head_joint,13.5399999999998,-0.0001214568783902692
mouse_head_joint,13.5599999999998,-0.00012111237097300886
mouse_head_joint,13.5799999999998,-0.00012109641991386866
mouse_head_joint,13.599999999999799,-0.000120788070203659
mouse_head_joint,13.619999999999798,-0.00012067019117889544
mouse_head_joint,13.639999999999798,-0.00012043686159390887
mouse_head_joint,13.659999999999798,-0.0001201727788391338
mouse_head_joint,13.679999999999797,-0.00011994999360886993
mouse_head_joint,13.699999999999797,-0.00011986051215551186
mouse_head_joint,13.719999999999796,-0.00011956801147317009
mouse_head_joint,13.739999999999796,-0.0001193862816508684
mouse_head_joint,13.759999999999796,-0.0001192016620787939
mouse_head_joint,13.779999999999795,-0.00011912346652920291
mouse_head_joint,13.799999999999795,-0.00011884273790307986
mouse_head_joint,13.819999999999794,-0.00011876510882924407
mouse_head_joint,13.839999999999794,-0.00011858541350218132
mouse_head_joint,13.859999999999793,-0.00011840763506310026
mouse_head_joint,13.879999999999793,-0.000118228760351613
mouse_head_joint,13.899999999999793,-0.00011799931273603903
mouse_head_joint,13.919999999999792,-0.0001178212274997037
mouse_head_joint,13.939999999999792,-0.00011758712906484448
mouse_head_joint,13.959999999999791,-0.0001174779978505569
mouse_head_joint,13.97999999999979,-0.00011730117376096416
mouse_head_joint,13.99999999999979,-0.00011706762856622532
mouse_head_joint,14.01999999999979,-0.00011676235700175397
mouse_head_joint,14.03999999999979,-0.0001166674509933685
mouse_head_joint,14.059999999999789,-0.0001164659558092751
mouse_head_joint,14.079999999999789,-0.00011629121458334168
mouse_head_joint,14.099999999999788,-0.00011600760385732656
mouse_head_joint,14.119999999999788,-0.00011583370419820938
mouse_head_joint,14.139999999999787,-0.00011565792879331127
mouse_head_joint,14.159999999999787,-0.00011548486859158658
mouse_head_joint,14.179999999999787,-0.00011531560501687466
mouse_head_joint,14.199999999999786,-0.00011524569493737147
mouse_head_joint,14.219999999999786,-0.00011507614286454526
mouse_head_joint,14.239999999999785,-0.00011480394215368506
mouse_head_joint,14.259999999999785,-0.00011452750514973076
mouse_head_joint,14.279999999999784,-0.00011446500143286187
mouse_head_joint,14.299999999999784,-0.0001142352083665088
mouse_head_joint,14.319999999999784,-0.00011414527165154453
mouse_head_joint,14.339999999999783,-0.00011392081524519426
mouse_head_joint,14.359999999999783,-0.00011374919674445039
mouse_head_joint,14.379999999999782,-0.00011351061688280595
mouse_head_joint,14.399999999999782,-0.00011324418428682037
mouse_head_joint,14.419999999999781,-0.00011312648744699061
mouse_head_joint,14.439999999999781,-0.00011304108701803983
mouse_head_joint,14.45999999999978,-0.00011287800045245433
mouse_head_joint,14.47999999999978,-0.00011259877090274983
mouse_head_joint,14.49999999999978,-0.00011261576194243617
mouse_head_joint,14.51999999999978,-0.0001123509251597099
mouse_head_joint,14.539999999999779,-0.00011223487241451835
mouse_head_joint,14.559999999999778,-0.00011205383469903296
mouse_head_joint,14.579999999999778,-0.00011172625247546364
mouse_head_joint,14.599999999999778,-0.00011154901783250182
mouse_head_joint,14.619999999999777,-0.00011140472276860436
mouse_head_joint,14.639999999999777,-0.00011142482296566669
mouse_head_joint,14.659999999999776,-0.00011100953454334928
mouse_head_joint,14.679999999999776,-0.00011100907994521236
mouse_head_joint,14.699999999999775,-0.00011068419135185081
mouse_head_joint,14.719999999999775,-0.00011053645871594853
mouse_head_joint,14.739999999999775,-0.00011037321245499498
mouse_head_joint,14.759999999999774,-0.00011023713473790053
mouse_head_joint,14.779999999999774,-0.00011008350665964173
mouse_head_joint,14.799999999999773,-0.00011000854384946024
mouse_head_joint,14.819999999999773,-0.00010970185408254451
mouse_head_joint,14.839999999999772,-0.00010952429131627639
mouse_head_joint,14.859999999999772,-0.00010938065745058623
mouse_head_joint,14.879999999999772,-0.0001093218015792985
mouse_head_joint,14.899999999999771,-0.00010898557473204562
mouse_head_joint,14.91999999999977,-0.00010893658969290954
mouse_head_joint,14.93999999999977,-0.00010881062542988928
mouse_head_joint,14.95999999999977,-0.00010856017107840898
mouse_head_joint,14.97999999999977,-0.0001084868174991982
mouse_head_joint,14.999999999999769,-0.0001083524298675087
mouse_head_joint,15.019999999999769,-0.000108269685998863
mouse_head_joint,15.039999999999768,-0.00010785752626762957
mouse_head_joint,15.059999999999768,-0.00010782582483326308
mouse_head_joint,15.079999999999767,-0.00010753085719894528
mouse_head_joint,15.099999999999767,-0.00010743136024693456
mouse_head_joint,15.119999999999767,-0.0001073751361797548
mouse_head_joint,15.139999999999766,-0.0001071900764841871
mouse_head_joint,15.159999999999766,-0.000106995201393012
mouse_head_joint,15.179999999999765,-0.00010686488102873426
mouse_head_joint,15.199999999999765,-0.0001066963951936728
mouse_head_joint,15.219999999999764,-0.00010653978054087077
mouse_head_joint,15.239999999999764,-0.00010645022797906023
mouse_head_joint,15.259999999999764,-0.0001062465104011423
mouse_head_joint,15.279999999999763,-0.00010600695876394894
mouse_head_joint,15.299999999999763,-0.00010581341657278642
mouse_head_joint,15.319999999999762,-0.00010563270821517534
mouse_head_joint,15.339999999999762,-0.0001055521715311869
mouse_head_joint,15.359999999999761,-0.00010557399886756968
mouse_head_joint,15.379999999999761,-0.00010521547063024883
mouse_head_joint,15.39999999999976,-0.0001051406589951398
mouse_head_joint,15.41999999999976,-0.00010485442187491145
mouse_head_joint,15.43999999999976,-0.00010485249152836218
mouse_head_joint,15.45999999999976,-0.0001046063277465592
mouse_head_joint,15.479999999999759,-0.00010449438655157905
mouse_head_joint,15.499999999999758,-0.00010436869988872388
mouse_head_joint,15.519999999999758,-0.00010424062368841192
mouse_head_joint,15.539999999999758,-0.00010397620694568843
mouse_head_joint,15.559999999999757,-0.00010392869873232513
mouse_head_joint,15.579999999999757,-0.00010381985341556543
mouse_head_joint,15.599999999999756,-0.00010347903734242436
mouse_head_joint,15.619999999999756,-0.0001034128020345193
mouse_head_joint,15.639999999999755,-0.00010324131907868406
mouse_head_joint,15.659999999999755,-0.00010316766138807054
mouse_head_joint,15.679999999999755,-0.00010295417314942767
mouse_head_joint,15.699999999999754,-0.00010291868293244022
mouse_head_joint,15.719999999999754,-0.0001026102477377222
mouse_head_joint,15.739999999999753,-0.00010260383946292251
mouse_head_joint,15.759999999999753,-0.00010232456101633147
mouse_head_joint,15.779999999999752,-0.0001022027417283411
mouse_head_joint,15.799999999999752,-0.00010216589296163647
mouse_head_joint,15.819999999999752,-0.00010201694876510459
mouse_head_joint,15.839999999999751,-0.00010190258478548486
mouse_head_joint,15.85999999999975,-0.00010161866926861052
mouse_head_joint,15.87999999999975,-0.0001014722547498792
mouse_head_joint,15.89999999999975,-0.00010143134998319425
mouse_head_joint,15.91999999999975,-0.0001013360228609983
mouse_head_joint,15.939999999999749,-0.00010100150991831924
mouse_head_joint,15.959999999999749,-0.0001009498803199449
mouse_head_joint,15.979999999999748,-0.00010085478829324757
mouse_head_joint,15.999999999999748,-0.00010070626199443211
mouse_head_joint,16.019999999999747,-0.00010060941210898733
mouse_head_joint,16.039999999999747,-0.00010047790716427585
mouse_head_joint,16.059999999999746,-0.00010035094003768563
mouse_head_joint,16.079999999999746,-0.00010010068986510134
mouse_head_joint,16.099999999999746,-0.00010001324556885294
mouse_head_joint,16.119999999999745,-9.989399855392378e-05
mouse_head_joint,16.139999999999745,-9.9669176966799e-05
mouse_head_joint,16.159999999999744,-9.962112008032875e-05
mouse_head_joint,16.179999999999744,-9.944716793341968e-05
mouse_head_joint,16.199999999999743,-9.935386391379808e-05
mouse_head_joint,16.219999999999743,-9.919448049178214e-05
mouse_head_joint,16.239999999999743,-9.905930489928494e-05
mouse_head_joint,16.259999999999742,-9.897604956066175e-05
mouse_head_joint,16.279999999999742,-9.879601955287143e-05
mouse_head_joint,16.29999999999974,-9.860001852235456e-05
mouse_head_joint,16.31999999999974,-9.84066336506828e-05
mouse_head_joint,16.33999999999974,-9.827373256054983e-05
mouse_head_joint,16.35999999999974,-9.818427744257008e-05
mouse_head_joint,16.37999999999974,-9.8160554356852e-05
mouse_head_joint,16.39999999999974,-9.786832052949279e-05
mouse_head_joint,16.41999999999974,-9.786952849921704e-05
mouse_head_joint,16.43999999999974,-9.760712922890491e-05
mouse_head_joint,16.459999999999738,-9.760485103615935e-05
mouse_head_joint,16.479999999999738,-9.748891274252713e-05
mouse_head_joint,16.499999999999737,-9.746573176361295e-05
mouse_head_joint,16.519999999999737,-9.717937093522977e-05
mouse_head_joint,16.539999999999736,-9.70942830349486e-05
mouse_head_joint,16.559999999999736,-9.694062252751934e-05
mouse_head_joint,16.579999999999735,-9.671836122926436e-05
mouse_head_joint,16.599999999999735,-9.673692956813085e-05
mouse_head_joint,16.619999999999735,-9.652279053007362e-05
mouse_head_joint,16.639999999999734,-9.63765964190344e-05
mouse_head_joint,16.659999999999734,-9.621438156948159e-05
mouse_head_joint,16.679999999999733,-9.606339761170091e-05
mouse_head_joint,16.699999999999733,-9.598092687923554e-05
mouse_head_joint,16.719999999999732,-9.596368406494804e-05
mouse_head_joint,16.739999999999732,-9.584994092737276e-05
mouse_head_joint,16.75999999999973,-9.568586753161412e-05
mouse_head_joint,16.77999999999973,-9.554131295175239e-05
mouse_head_joint,16.79999999999973,-9.534316195036752e-05
mouse_head_joint,16.81999999999973,-9.52274492176386e-05
mouse_head_joint,16.83999999999973,-9.519067317143026e-05
mouse_head_joint,16.85999999999973,-9.509482103009503e-05
mouse_head_joint,16.87999999999973,-9.495201523712637e-05
mouse_head_joint,16.89999999999973,-9.480673494444147e-05
mouse_head_joint,16.919999999999728,-9.468569345294497e-05
mouse_head_joint,16.939999999999728,-9.468675021473416e-05
mouse_head_joint,16.959999999999727,-9.430521742093134e-05
mouse_head_joint,16.979999999999727,-9.42698393187058e-05
mouse_head_joint,16.999999999999726,-9.41989777665242e-05
mouse_head_joint,17.019999999999726,-9.407086118606856e-05
mouse_head_joint,17.039999999999726,-9.399594823555901e-05
mouse_head_joint,17.059999999999725,-9.383791472661329e-05
mouse_head_joint,17.079999999999725,-9.360730496243974e-05
mouse_head_joint,17.099999999999724,-9.354976831499329e-05
mouse_head_joint,17.119999999999724,-9.348209753134995e-05
mouse_head_joint,17.139999999999723,-9.328541131203849e-05
mouse_head_joint,17.159999999999723,-9.318327779173075e-05
mouse_head_joint,17.179999999999723,-9.315186336600334e-05
mouse_head_joint,17.199999999999722,-9.306321159829878e-05
mouse_head_joint,17.21999999999972,-9.288660301098872e-05
mouse_head_joint,17.23999999999972,-9.279157700348151e-05
mouse_head_joint,17.25999999999972,-9.258146774815401e-05
mouse_head_joint,17.27999999999972,-9.251396987419724e-05
mouse_head_joint,17.29999999999972,-9.245072570784885e-05
mouse_head_joint,17.31999999999972,-9.227861812544091e-05
mouse_head_joint,17.33999999999972,-9.212954999604506e-05
mouse_head_joint,17.35999999999972,-9.209235266727234e-05
mouse_head_joint,17.37999999999972,-9.192461375828742e-05
mouse_head_joint,17.399999999999718,-9.191977745537372e-05
mouse_head_joint,17.419999999999717,-9.170308247785641e-05
mouse_head_joint,17.439999999999717,-9.159776628742122e-05
mouse_head_joint,17.459999999999717,-9.153626298807893e-05
mouse_head_joint,17.479999999999716,-9.145508174679406e-05
mouse_head_joint,17.499999999999716,-9.12520715381504e-05
mouse_head_joint,17.519999999999715,-9.122609899137046e-05
mouse_head_joint,17.539999999999715,-9.1144120754727e-05
mouse_head_joint,17.559999999999715,-9.089483158941647e-05
mouse_head_joint,17.579999999999714,-9.078793424066589e-05
mouse_head_joint,17.599999999999714,-9.069420840912557e-05
mouse_head_joint,17.619999999999713,-9.07201535413904e-05
mouse_head_joint,17.639999999999713,-9.042187235586141e-05
mouse_head_joint,17.659999999999712,-9.051462193010451e-05
mouse_head_joint,17.679999999999712,-9.03397162161923e-05
mouse_head_joint,17.69999999999971,-9.022472155439942e-05
mouse_head_joint,17.71999999999971,-9.012321572665627e-05
mouse_head_joint,17.73999999999971,-9.0065312363663e-05
mouse_head_joint,17.75999999999971,-8.985566675523415e-05
mouse_head_joint,17.77999999999971,-8.975578161063424e-05
mouse_head_joint,17.79999999999971,-8.970022669529953e-05
mouse_head_joint,17.81999999999971,-8.951840361870467e-05
mouse_head_joint,17.83999999999971,-8.943020558227488e-05
mouse_head_joint,17.859999999999708,-8.940936437262792e-05
mouse_head_joint,17.879999999999708,-8.927225991595122e-05
mouse_head_joint,17.899999999999707,-8.917025138277523e-05
mouse_head_joint,17.919999999999707,-8.908492218751007e-05
mouse_head_joint,17.939999999999706,-8.889223090324805e-05
mouse_head_joint,17.959999999999706,-8.89353985629171e-05
mouse_head_joint,17.979999999999706,-8.87842513570547e-05
mouse_head_joint,17.999999999999705,-8.874156729365978e-05
mouse_head_joint,18.019999999999705,-8.848887847889841e-05
mouse_head_joint,18.039999999999704,-8.836758576347137e-05
mouse_head_joint,18.059999999999704,-8.841042574392333e-05
mouse_head_joint,18.079999999999703,-8.838831205082442e-05
mouse_head_joint,18.099999999999703,-8.823003242586225e-05
mouse_head_joint,18.119999999999703,-8.801994858576023e-05
mouse_head_joint,18.139999999999702,-8.797012201977594e-05
mouse_head_joint,18.1599999999997,-8.78944291127226e-05
mouse_head_joint,18.1799999999997,-8.780144758091524e-05
mouse_head_joint,18.1999999999997,-8.769787612639135e-05
mouse_head_joint,18.2199999999997,-8.756744191806831e-05
mouse_head_joint,18.2399999999997,-8.7508459850838e-05
mouse_head_joint,18.2599999999997,-8.739184646078257e-05
mouse_head_joint,18.2799999999997,-8.72959281741359e-05
mouse_head_joint,18.2999999999997,-8.732234507036196e-05
mouse_head_joint,18.3199999999997,-8.696937185348474e-05
mouse_head_joint,18.339999999999698,-8.707211095249079e-05
mouse_head_joint,18.359999999999697,-8.69095267352904e-05
mouse_head_joint,18.379999999999697,-8.67110951725536e-05
mouse_head_joint,18.399999999999697,-8.667209772816875e-05
mouse_head_joint,18.419999999999696,-8.667222699898502e-05
mouse_head_joint,18.439999999999696,-8.642087387755737e-05
mouse_head_joint,18.459999999999695,-8.638631876056735e-05
mouse_head_joint,18.479999999999695,-8.632905182714978e-05
mouse_head_joint,18.499999999999694,-8.617403785837752e-05
mouse_head_joint,18.519999999999694,-8.626845567860641e-05
mouse_head_joint,18.539999999999694,-8.605407947026578e-05
mouse_head_joint,18.559999999999693,-8.591556230097552e-05
mouse_head_joint,18.579999999999693,-8.57938423308724e-05
mouse_head_joint,18.599999999999692,-8.570496704507491e-05
mouse_head_joint,18.619999999999692,-8.57201193067425e-05
mouse_head_joint,18.63999999999969,-8.557614768722743e-05
mouse_head_joint,18.65999999999969,-8.553307249137276e-05
mouse_head_joint,18.67999999999969,-8.538774576205554e-05
mouse_head_joint,18.69999999999969,-8.534549560401672e-05
mouse_head_joint,18.71999999999969,-8.52484959086297e-05
mouse_head_joint,18.73999999999969,-8.520763956898492e-05
mouse_head_joint,18.75999999999969,-8.512568745899785e-05
mouse_head_joint,18.77999999999969,-8.488024336106292e-05
mouse_head_joint,18.799999999999688,-8.485088805620933e-05
mouse_head_joint,18.819999999999688,-8.470790859060884e-05
mouse_head_joint,18.839999999999687,-8.465042829186586e-05
mouse_head_joint,18.859999999999687,-8.466735809697923e-05
mouse_head_joint,18.879999999999686,-8.443664357571379e-05
mouse_head_joint,18.899999999999686,-8.451733179093424e-05
mouse_head_joint,18.919999999999686,-8.429238561369345e-05
mouse_head_joint,18.939999999999685,-8.420905172812354e-05
mouse_head_joint,18.959999999999685,-8.423027169346398e-05
mouse_head_joint,18.979999999999684,-8.409179811152967e-05
mouse_head_joint,18.999999999999684,-8.39161599017757e-05
mouse_head_joint,19.019999999999683,-8.3913988278006e-05
mouse_head_joint,19.039999999999683,-8.379305088013211e-05
mouse_head_joint,19.059999999999683,-8.378534619524203e-05
mouse_head_joint,19.079999999999682,-8.376227494366617e-05
mouse_head_joint,19.09999999999968,-8.367377715323698e-05
mouse_head_joint,19.11999999999968,-8.353993383014569e-05
mouse_head_joint,19.13999999999968,-8.337046403639192e-05
mouse_head_joint,19.15999999999968,-8.327258026952222e-05
mouse_head_joint,19.17999999999968,-8.33191847808834e-05
mouse_head_joint,19.19999999999968,-8.32424930106157e-05
mouse_head_joint,19.21999999999968,-8.315488002708094e-05
mouse_head_joint,19.23999999999968,-8.304300170003387e-05
mouse_head_joint,19.25999999999968,-8.299752424445472e-05
mouse_head_joint,19.279999999999678,-8.280562009144177e-05
mouse_head_joint,19.299999999999677,-8.282038235574163e-05
mouse_head_joint,19.319999999999677,-8.269944202332624e-05
mouse_head_joint,19.339999999999677,-8.266520369470953e-05
mouse_head_joint,19.359999999999676,-8.264533081003833e-05
mouse_head_joint,19.379999999999676,-8.24994205217422e-05
mouse_head_joint,19.399999999999675,-8.232021092702269e-05
mouse_head_joint,19.419999999999675,-8.238424967821345e-05
mouse_head_joint,19.439999999999674,-8.231244905321233e-05
mouse_head_joint,19.459999999999674,-8.213433134240944e-05
mouse_head_joint,19.479999999999674,-8.205845147379875e-05
mouse_head_joint,19.499999999999673,-8.192710985710505e-05
mouse_head_joint,19.519999999999673,-8.197873427562286e-05
mouse_head_joint,19.539999999999672,-8.19070234729935e-05
mouse_head_joint,19.559999999999672,-8.194078122780724e-05
mouse_head_joint,19.57999999999967,-8.167007242132485e-05
mouse_head_joint,19.59999999999967,-8.167667583158789e-05
mouse_head_joint,19.61999999999967,-8.149063240558974e-05
mouse_head_joint,19.63999999999967,-8.151034682324365e-05
mouse_head_joint,19.65999999999967,-8.155826988609505e-05
mouse_head_joint,19.67999999999967,-8.133732901161039e-05
mouse_head_joint,19.69999999999967,-8.135013801968682e-05
mouse_head_joint,19.71999999999967,-8.111278198175143e-05
mouse_head_joint,19.739999999999668,-8.112821811945281e-05
mouse_head_joint,19.759999999999668,-8.100592809423546e-05
mouse_head_joint,19.779999999999667,-8.103767525380334e-05
mouse_head_joint,19.799999999999667,-8.091484809824578e-05
mouse_head_joint,19.819999999999666,-8.079337780930729e-05
mouse_head_joint,19.839999999999666,-8.066747438828514e-05
mouse_head_joint,19.859999999999665,-8.062544266795868e-05
mouse_head_joint,19.879999999999665,-8.06715232748445e-05
mouse_head_joint,19.899999999999665,-8.069494333717842e-05
mouse_head_joint,19.919999999999664,-8.047803859767555e-05
mouse_head_joint,19.939999999999664,-8.040680670351463e-05
mouse_head_joint,19.959999999999663,-8.026007764705412e-05
mouse_head_joint,19.979999999999663,-8.028451611519216e-05
mouse_head_joint,19.999999999999662,-8.017459080988942e-05
mouse_head_joint,20.019999999999662,-8.001444571181793e-05
mouse_head_joint,20.03999999999966,-8.002577112620202e-05
mouse_head_joint,20.05999999999966,-7.991901847148597e-05
mouse_head_joint,20.07999999999966,-7.992621263408495e-05
mouse_head_joint,20.09999999999966,-7.99079999262986e-05
mouse_head_joint,20.11999999999966,-7.991405668583695e-05
mouse_head_joint,20.13999999999966,-7.962122868487853e-05
mouse_head_joint,20.15999999999966,-7.96778635221429e-05
mouse_head_joint,20.17999999999966,-7.959021129888555e-05
mouse_head_joint,20.19999999999966,-7.956453205260061e-05
mouse_head_joint,20.219999999999658,-7.948823787362613e-05
mouse_head_joint,20.239999999999657,-7.953029307472548e-05
mouse_head_joint,20.259999999999657,-7.927093748349989e-05
mouse_head_joint,20.279999999999657,-7.928509349142132e-05
mouse_head_joint,20.299999999999656,-7.920392802240883e-05
mouse_head_joint,20.319999999999656,-7.905371615279932e-05
mouse_head_joint,20.339999999999655,-7.913098120138073e-05
mouse_head_joint,20.359999999999655,-7.887868082434579e-05
mouse_head_joint,20.379999999999654,-7.889406716632408e-05
mouse_head_joint,20.399999999999654,-7.887492879898872e-05
mouse_head_joint,20.419999999999654,-7.881031815326622e-05
mouse_head_joint,20.439999999999653,-7.879010976985512e-05
mouse_head_joint,20.459999999999653,-7.880012191385788e-05
mouse_head_joint,20.479999999999652,-7.861906678119368e-05
mouse_head_joint,20.499999999999652,-7.857278362966014e-05
