Name,time,Position
mouse_head_joint,0.0,0.0
mouse_head_joint,0.02,0.0
mouse_head_joint,0.04,0.0
mouse_head_joint,0.06,0.0
mouse_head_joint,0.08,0.0
mouse_head_joint,0.1,0.0
mouse_head_joint,0.12000000000000001,0.0
mouse_head_joint,0.14,0.0
mouse_head_joint,0.16,0.0
mouse_head_joint,0.18,0.0
mouse_head_joint,0.19999999999999998,0.0
mouse_head_joint,0.21999999999999997,-0.0019383634625862456
mouse_head_joint,0.23999999999999996,-0.00015746241221936685
mouse_head_joint,0.25999999999999995,3.231963890915068e-05
mouse_head_joint,0.27999999999999997,7.0741377102834235e-06
mouse_head_joint,0.3,6.495466912781467e-06
mouse_head_joint,0.32,-6.7253120654697796e-06
mouse_head_joint,0.34,-7.610328476737038e-06
mouse_head_joint,0.36000000000000004,-8.547272513759196e-06
mouse_head_joint,0.38000000000000006,-9.757387898545744e-06
mouse_head_joint,0.4000000000000001,-1.1090257904911027e-05
mouse_head_joint,0.4200000000000001,-1.2660964858746127e-05
mouse_head_joint,0.4400000000000001,-1.41457232620823e-05
mouse_head_joint,0.46000000000000013,-1.592259072324964e-05
mouse_head_joint,0.48000000000000015,-1.7528585315673695e-05
mouse_head_joint,0.5000000000000001,-1.9283988572205146e-05
mouse_head_joint,0.5200000000000001,-2.1040204377875682e-05
mouse_head_joint,0.5400000000000001,-2.3100977273315948e-05
mouse_head_joint,0.5600000000000002,-2.4600070667624152e-05
mouse_head_joint,0.5800000000000002,-2.6501549779567313e-05
mouse_head_joint,0.6000000000000002,0.0002147924882685004
mouse_head_joint,0.6200000000000002,0.0007482271456895617
mouse_head_joint,0.6400000000000002,0.0005777263687232193
mouse_head_joint,0.6600000000000003,0.0004412081415683389
mouse_head_joint,0.6800000000000003,0.002220789102628906
mouse_head_joint,0.7000000000000003,0.007154252736373934
mouse_head_joint,0.7200000000000003,0.009534418943740519
mouse_head_joint,0.7400000000000003,0.010034385523611355
mouse_head_joint,0.7600000000000003,0.010594472603970395
mouse_head_joint,0.7800000000000004,0.011278994033297352
mouse_head_joint,0.8000000000000004,0.012467288789189901
mouse_head_joint,0.8200000000000004,0.013696023888804199
mouse_head_joint,0.8400000000000004,0.011712849385404844
mouse_head_joint,0.8600000000000004,0.01208994088884463
mouse_head_joint,0.8800000000000004,0.012824124566330752
mouse_head_joint,0.9000000000000005,0.011893923892363212
mouse_head_joint,0.9200000000000005,0.012808401498030975
mouse_head_joint,0.9400000000000005,0.012384651101058353
mouse_head_joint,0.9600000000000005,0.010620220226861932
mouse_head_joint,0.9800000000000005,0.009054162151323375
mouse_head_joint,1.0000000000000004,0.010355964395492911
mouse_head_joint,1.0200000000000005,0.012203856748895348
mouse_head_joint,1.0400000000000005,0.01190436922852367
mouse_head_joint,1.0600000000000005,0.012011422744368616
mouse_head_joint,1.0800000000000005,0.012361381679170336
mouse_head_joint,1.1000000000000005,0.013011029077817149
mouse_head_joint,1.1200000000000006,0.015659957984195394
mouse_head_joint,1.1400000000000006,0.015947040071246477
mouse_head_joint,1.1600000000000006,0.01619805370352534
mouse_head_joint,1.1800000000000006,0.015432800133827307
mouse_head_joint,1.2000000000000006,0.013536548537198989
mouse_head_joint,1.2200000000000006,0.012934538332360468
mouse_head_joint,1.2400000000000007,0.01282462640115778
mouse_head_joint,1.2600000000000007,0.012185404659617483
mouse_head_joint,1.2800000000000007,0.0121550171166529
mouse_head_joint,1.3000000000000007,0.013862670128928833
mouse_head_joint,1.3200000000000007,0.01527275356688751
mouse_head_joint,1.3400000000000007,0.0149856847250609
mouse_head_joint,1.3600000000000008,0.014186572712646672
mouse_head_joint,1.3800000000000008,0.012143221592098463
mouse_head_joint,1.4000000000000008,0.011518800228075499
mouse_head_joint,1.4200000000000008,0.011652196086982869
mouse_head_joint,1.4400000000000008,0.01157212222552495
mouse_head_joint,1.4600000000000009,0.012834684587613943
mouse_head_joint,1.4800000000000009,0.011260973185533985
mouse_head_joint,1.5000000000000009,0.008035602197483449
mouse_head_joint,1.520000000000001,0.009223637028438425
mouse_head_joint,1.540000000000001,0.008243173826328665
mouse_head_joint,1.560000000000001,0.007504467665593317
mouse_head_joint,1.580000000000001,0.007201164670624927
mouse_head_joint,1.600000000000001,0.006962392580676102
mouse_head_joint,1.620000000000001,0.0069666970434401065
mouse_head_joint,1.640000000000001,0.00691945078369649
mouse_head_joint,1.660000000000001,0.007232030648719245
mouse_head_joint,1.680000000000001,0.005645926860978534
mouse_head_joint,1.700000000000001,0.0025690060858210018
mouse_head_joint,1.720000000000001,0.00062665109599358
mouse_head_joint,1.740000000000001,-3.059613636846592e-05
mouse_head_joint,1.7600000000000011,0.001273253780392558
mouse_head_joint,1.7800000000000011,0.0007163092496993428
mouse_head_joint,1.8000000000000012,-0.00024555507487722394
mouse_head_joint,1.8200000000000012,0.00029416079308663967
mouse_head_joint,1.8400000000000012,0.0004897699216428464
mouse_head_joint,1.8600000000000012,0.0011901489833148204
mouse_head_joint,1.8800000000000012,0.0008886060377193417
mouse_head_joint,1.9000000000000012,-0.0004189005549655178
mouse_head_joint,1.9200000000000013,0.00021736793278570588
mouse_head_joint,1.9400000000000013,0.00016209136358735776
mouse_head_joint,1.9600000000000013,-0.000903839551075869
mouse_head_joint,1.9800000000000013,0.0010064915082708126
mouse_head_joint,2.0000000000000013,0.0007275567205784483
mouse_head_joint,2.0200000000000014,0.0007983212681592633
mouse_head_joint,2.0400000000000014,0.0002963565975351301
mouse_head_joint,2.0600000000000014,-0.0005706466307175972
mouse_head_joint,2.0800000000000014,0.0009243043831217435
mouse_head_joint,2.1000000000000014,0.0016618379757549206
mouse_head_joint,2.1200000000000014,0.0009559660651108359
mouse_head_joint,2.1400000000000015,0.0007122467355475948
mouse_head_joint,2.1600000000000015,0.0018184714152287285
mouse_head_joint,2.1800000000000015,0.00235150888471658
mouse_head_joint,2.2000000000000015,0.00241440209759336
mouse_head_joint,2.2200000000000015,0.00017532720173374372
mouse_head_joint,2.2400000000000015,-0.002414759058354754
mouse_head_joint,2.2600000000000016,-0.003428280561968755
mouse_head_joint,2.2800000000000016,-0.0037047897121906814
mouse_head_joint,2.3000000000000016,-0.00297761172718225
mouse_head_joint,2.3200000000000016,-0.002412623820291948
mouse_head_joint,2.3400000000000016,-0.0031518889475661283
mouse_head_joint,2.3600000000000017,-0.005195671951956804
mouse_head_joint,2.3800000000000017,-0.006431201746155857
mouse_head_joint,2.4000000000000017,-0.009240699583050294
mouse_head_joint,2.4200000000000017,-0.010237941274541917
mouse_head_joint,2.4400000000000017,-0.008338591128209671
mouse_head_joint,2.4600000000000017,-0.00771572408336052
mouse_head_joint,2.4800000000000018,-0.007750347990146622
mouse_head_joint,2.5000000000000018,-0.0064421274881842905
mouse_head_joint,2.520000000000002,-0.0048704000815504855
mouse_head_joint,2.540000000000002,-0.005332407454051946
mouse_head_joint,2.560000000000002,-0.005596644131877326
mouse_head_joint,2.580000000000002,-0.005281726549861254
mouse_head_joint,2.600000000000002,-0.005813338151496872
mouse_head_joint,2.620000000000002,-0.007150802182708027
mouse_head_joint,2.640000000000002,-0.007685067281803626
mouse_head_joint,2.660000000000002,-0.007823804645761712
mouse_head_joint,2.680000000000002,-0.006158619526158482
mouse_head_joint,2.700000000000002,-0.00556294128952306
mouse_head_joint,2.720000000000002,-0.00472173110800167
mouse_head_joint,2.740000000000002,-0.005338281677765622
mouse_head_joint,2.760000000000002,-0.00836577843205255
mouse_head_joint,2.780000000000002,-0.007388365934860808
mouse_head_joint,2.800000000000002,-0.006048301266255329
mouse_head_joint,2.820000000000002,-0.006587346668481153
mouse_head_joint,2.840000000000002,-0.005279424242483621
mouse_head_joint,2.860000000000002,-0.00513357108143353
mouse_head_joint,2.880000000000002,-0.006888482685910802
mouse_head_joint,2.900000000000002,-0.006072565992724321
mouse_head_joint,2.920000000000002,-0.004941466355122159
mouse_head_joint,2.940000000000002,-0.006224920216748586
mouse_head_joint,2.960000000000002,-0.00786658164117604
mouse_head_joint,2.980000000000002,-0.006710506084731449
mouse_head_joint,3.000000000000002,-0.0035693427692642388
mouse_head_joint,3.0200000000000022,-0.003111849823508095
mouse_head_joint,3.0400000000000023,-0.004183633456380065
mouse_head_joint,3.0600000000000023,-0.005103913517574554
mouse_head_joint,3.0800000000000023,-0.0052279203533203145
mouse_head_joint,3.1000000000000023,-0.003930395794810693
mouse_head_joint,3.1200000000000023,-0.003044701991473886
mouse_head_joint,3.1400000000000023,-0.003060360890275504
mouse_head_joint,3.1600000000000024,-0.002894260633168777
mouse_head_joint,3.1800000000000024,-0.0021985374935731272
mouse_head_joint,3.2000000000000024,-0.0016176505737242053
mouse_head_joint,3.2200000000000024,-0.001177404295789053
mouse_head_joint,3.2400000000000024,-0.0012430153696358914
mouse_head_joint,3.2600000000000025,-0.0015401845472764464
mouse_head_joint,3.2800000000000025,-0.0002414781711044256
mouse_head_joint,3.3000000000000025,-0.0002963974463670027
mouse_head_joint,3.3200000000000025,-0.0007204116857488785
mouse_head_joint,3.3400000000000025,0.00017785837460593257
mouse_head_joint,3.3600000000000025,-0.00041112874664950283
mouse_head_joint,3.3800000000000026,-0.002141892482291574
mouse_head_joint,3.4000000000000026,-0.0029316861400863203
mouse_head_joint,3.4200000000000026,-0.0026979558889363986
mouse_head_joint,3.4400000000000026,-0.0020737190729169797
mouse_head_joint,3.4600000000000026,-0.003298263145292246
mouse_head_joint,3.4800000000000026,-0.0031141873996407554
mouse_head_joint,3.5000000000000027,-0.0025337144021824187
mouse_head_joint,3.5200000000000027,-0.004083188077598443
mouse_head_joint,3.5400000000000027,-0.0074299533086170655
mouse_head_joint,3.5600000000000027,-0.012398580871591847
mouse_head_joint,3.5800000000000027,-0.013189718540649764
mouse_head_joint,3.6000000000000028,-0.01327017783531037
mouse_head_joint,3.6200000000000028,-0.013201235991182614
mouse_head_joint,3.640000000000003,-0.011739446290652822
mouse_head_joint,3.660000000000003,-0.01034153444479724
mouse_head_joint,3.680000000000003,-0.01309218715839311
mouse_head_joint,3.700000000000003,-0.015603339988703446
mouse_head_joint,3.720000000000003,-0.01533647059584542
mouse_head_joint,3.740000000000003,-0.013603594536975017
mouse_head_joint,3.760000000000003,-0.01483708356114466
mouse_head_joint,3.780000000000003,-0.016680205775705836
mouse_head_joint,3.800000000000003,-0.01752532942475238
mouse_head_joint,3.820000000000003,-0.0165433492626077
mouse_head_joint,3.840000000000003,-0.01715158700655639
mouse_head_joint,3.860000000000003,-0.01741531193490964
mouse_head_joint,3.880000000000003,-0.01768573460839118
mouse_head_joint,3.900000000000003,-0.01988332118884717
mouse_head_joint,3.920000000000003,-0.019376577916289328
mouse_head_joint,3.940000000000003,-0.01835807074989315
mouse_head_joint,3.960000000000003,-0.01840579914235363
mouse_head_joint,3.980000000000003,-0.017617266201860993
mouse_head_joint,4.000000000000003,-0.018756795212092392
mouse_head_joint,4.020000000000002,-0.017966419174379133
mouse_head_joint,4.040000000000002,-0.016953610675924935
mouse_head_joint,4.060000000000001,-0.016825696555257785
mouse_head_joint,4.080000000000001,-0.015992371477579148
mouse_head_joint,4.1000000000000005,-0.018521062183714854
mouse_head_joint,4.12,-0.021326819371997097
mouse_head_joint,4.14,-0.021438146310331696
mouse_head_joint,4.159999999999999,-0.021610020138102648
mouse_head_joint,4.179999999999999,-0.020682625515861197
mouse_head_joint,4.199999999999998,-0.018768914621428046
mouse_head_joint,4.219999999999998,-0.018210363957585685
mouse_head_joint,4.2399999999999975,-0.018849357724613824
mouse_head_joint,4.259999999999997,-0.01971170871921757
mouse_head_joint,4.279999999999997,-0.019958777284320384
mouse_head_joint,4.299999999999996,-0.021187672281889114
mouse_head_joint,4.319999999999996,-0.02309133825398657
mouse_head_joint,4.339999999999995,-0.02295629515549713
mouse_head_joint,4.359999999999995,-0.02409027444166334
mouse_head_joint,4.379999999999995,-0.023654743287591984
mouse_head_joint,4.399999999999994,-0.02330292616787233
mouse_head_joint,4.419999999999994,-0.023772563460973117
mouse_head_joint,4.439999999999993,-0.024443952538302227
mouse_head_joint,4.459999999999993,-0.025070407436852626
mouse_head_joint,4.479999999999992,-0.024329881994391123
mouse_head_joint,4.499999999999992,-0.02316609337933606
mouse_head_joint,4.519999999999992,-0.02248194700722994
mouse_head_joint,4.539999999999991,-0.023009970973947524
mouse_head_joint,4.559999999999991,-0.021561407681735645
mouse_head_joint,4.57999999999999,-0.019897221645435614
mouse_head_joint,4.59999999999999,-0.021263040992548277
mouse_head_joint,4.6199999999999894,-0.02076763878840815
mouse_head_joint,4.639999999999989,-0.019089186585856233
mouse_head_joint,4.659999999999989,-0.01857371358870008
mouse_head_joint,4.679999999999988,-0.018464782816552727
mouse_head_joint,4.699999999999988,-0.018836394823484426
mouse_head_joint,4.719999999999987,-0.02011385786636488
mouse_head_joint,4.739999999999987,-0.021655202505549198
mouse_head_joint,4.7599999999999865,-0.022189286555868826
mouse_head_joint,4.779999999999986,-0.01965841180502359
mouse_head_joint,4.799999999999986,-0.019659654571871243
mouse_head_joint,4.819999999999985,-0.020897247258716334
mouse_head_joint,4.839999999999985,-0.01963085760450234
mouse_head_joint,4.859999999999984,-0.017942572715483607
mouse_head_joint,4.879999999999984,-0.016494668387989186
mouse_head_joint,4.8999999999999835,-0.017149377021421053
mouse_head_joint,4.919999999999983,-0.0188767100283167
mouse_head_joint,4.939999999999983,-0.019901311719876524
mouse_head_joint,4.959999999999982,-0.018228247550541532
mouse_head_joint,4.979999999999982,-0.014830341256545587
mouse_head_joint,4.999999999999981,-0.011469342754748979
mouse_head_joint,5.019999999999981,-0.010825591053372108
mouse_head_joint,5.0399999999999805,-0.010241492333400437
mouse_head_joint,5.05999999999998,-0.009795258095138593
mouse_head_joint,5.07999999999998,-0.012351540680111128
mouse_head_joint,5.099999999999979,-0.012003323999387305
mouse_head_joint,5.119999999999979,-0.011518373370035917
mouse_head_joint,5.139999999999978,-0.012842113985779946
mouse_head_joint,5.159999999999978,-0.01303987851624111
mouse_head_joint,5.1799999999999775,-0.01135753413131635
mouse_head_joint,5.199999999999977,-0.008701423385306661
mouse_head_joint,5.219999999999977,-0.008825528457123255
mouse_head_joint,5.239999999999976,-0.010152923506508316
mouse_head_joint,5.259999999999976,-0.009047794635992368
mouse_head_joint,5.279999999999975,-0.011258138720694255
mouse_head_joint,5.299999999999975,-0.015228039443419661
mouse_head_joint,5.3199999999999745,-0.014226564892941163
mouse_head_joint,5.339999999999974,-0.014335841870826371
mouse_head_joint,5.359999999999974,-0.016160985059531896
mouse_head_joint,5.379999999999973,-0.016837176767985795
mouse_head_joint,5.399999999999973,-0.01791539704683487
mouse_head_joint,5.419999999999972,-0.018444389231714098
mouse_head_joint,5.439999999999972,-0.018547882202430976
mouse_head_joint,5.4599999999999715,-0.019411792804198136
mouse_head_joint,5.479999999999971,-0.019691257542195473
mouse_head_joint,5.499999999999971,-0.01882516218545227
mouse_head_joint,5.51999999999997,-0.019300941797517623
mouse_head_joint,5.53999999999997,-0.02037807324258445
mouse_head_joint,5.559999999999969,-0.020978741789743793
mouse_head_joint,5.579999999999969,-0.01885104030517848
mouse_head_joint,5.599999999999969,-0.013612429673990789
mouse_head_joint,5.619999999999968,-0.012419748756771654
mouse_head_joint,5.639999999999968,-0.012546665294010495
mouse_head_joint,5.659999999999967,-0.012328169620412055
mouse_head_joint,5.679999999999967,-0.01236763201491442
mouse_head_joint,5.699999999999966,-0.01243111215885051
mouse_head_joint,5.719999999999966,-0.012198729832342714
mouse_head_joint,5.739999999999966,-0.011521944691541108
mouse_head_joint,5.759999999999965,-0.010873377406399598
mouse_head_joint,5.779999999999965,-0.011480585228826001
mouse_head_joint,5.799999999999964,-0.010852695553831282
mouse_head_joint,5.819999999999964,-0.009666090492600254
mouse_head_joint,5.839999999999963,-0.00846270027024243
mouse_head_joint,5.859999999999963,-0.008070084215656692
mouse_head_joint,5.879999999999963,-0.008014499683335785
mouse_head_joint,5.899999999999962,-0.006957847154457575
mouse_head_joint,5.919999999999962,-0.0076055148117601945
mouse_head_joint,5.939999999999961,-0.008302354598497708
mouse_head_joint,5.959999999999961,-0.00889407254611374
mouse_head_joint,5.9799999999999605,-0.010017867360645916
mouse_head_joint,5.99999999999996,-0.011347373140401906
mouse_head_joint,6.01999999999996,-0.010130689189858266
mouse_head_joint,6.039999999999959,-0.008567557843758955
mouse_head_joint,6.059999999999959,-0.006466496522768317
mouse_head_joint,6.079999999999958,-0.0057678137356953485
mouse_head_joint,6.099999999999958,-0.006569203596328954
mouse_head_joint,6.1199999999999575,-0.007984545478048055
mouse_head_joint,6.139999999999957,-0.007189148646951082
mouse_head_joint,6.159999999999957,-0.0065121209035687855
mouse_head_joint,6.179999999999956,-0.007918999112035863
mouse_head_joint,6.199999999999956,-0.009522418224351625
mouse_head_joint,6.219999999999955,-0.010765602341630043
mouse_head_joint,6.239999999999955,-0.010356171817069715
mouse_head_joint,6.2599999999999545,-0.009301274460658426
mouse_head_joint,6.279999999999954,-0.009647256638070978
mouse_head_joint,6.299999999999954,-0.011435896182466543
mouse_head_joint,6.319999999999953,-0.011597965948646483
mouse_head_joint,6.339999999999953,-0.011858553700883512
mouse_head_joint,6.359999999999952,-0.013267881616656929
mouse_head_joint,6.379999999999952,-0.013614475570937756
mouse_head_joint,6.3999999999999515,-0.012207199493504461
mouse_head_joint,6.419999999999951,-0.012928330835207724
mouse_head_joint,6.439999999999951,-0.015372328232918342
mouse_head_joint,6.45999999999995,-0.016255354119364185
mouse_head_joint,6.47999999999995,-0.014574730810758219
mouse_head_joint,6.499999999999949,-0.012991974708256748
mouse_head_joint,6.519999999999949,-0.013135923607284994
mouse_head_joint,6.5399999999999485,-0.014594440478886028
mouse_head_joint,6.559999999999948,-0.01629385134177852
mouse_head_joint,6.579999999999948,-0.016541913555863097
mouse_head_joint,6.599999999999947,-0.01553797443435645
mouse_head_joint,6.619999999999947,-0.013659390944515515
mouse_head_joint,6.639999999999946,-0.01225668283142678
mouse_head_joint,6.659999999999946,-0.011968769221158304
mouse_head_joint,6.6799999999999455,-0.012851771364998932
mouse_head_joint,6.699999999999945,-0.012692354958126373
mouse_head_joint,6.719999999999945,-0.010846544604486752
mouse_head_joint,6.739999999999944,-0.013617225812408762
mouse_head_joint,6.759999999999944,-0.01675349758371958
mouse_head_joint,6.779999999999943,-0.016677214345683034
mouse_head_joint,6.799999999999943,-0.01679513345983974
mouse_head_joint,6.8199999999999426,-0.016048764900687296
mouse_head_joint,6.839999999999942,-0.015422064227379018
mouse_head_joint,6.859999999999942,-0.01517705519543533
mouse_head_joint,6.879999999999941,-0.015267825629665666
mouse_head_joint,6.899999999999941,-0.01735904064799154
mouse_head_joint,6.91999999999994,-0.019061442635632808
mouse_head_joint,6.93999999999994,-0.017966111994641487
mouse_head_joint,6.95999999999994,-0.01848597814064945
mouse_head_joint,6.979999999999939,-0.019890238383093006
mouse_head_joint,6.999999999999939,-0.018927427936733743
mouse_head_joint,7.019999999999938,-0.0183964265523473
mouse_head_joint,7.039999999999938,-0.019795358868990753
mouse_head_joint,7.059999999999937,-0.01993973813264205
mouse_head_joint,7.079999999999937,-0.019524434135275825
mouse_head_joint,7.099999999999937,-0.01883683875776665
mouse_head_joint,7.119999999999936,-0.017451806553268057
mouse_head_joint,7.139999999999936,-0.01964972124165243
mouse_head_joint,7.159999999999935,-0.021613508569139128
mouse_head_joint,7.179999999999935,-0.020985946208736728
mouse_head_joint,7.1999999999999345,-0.020406371515304222
mouse_head_joint,7.219999999999934,-0.01952083553332251
mouse_head_joint,7.239999999999934,-0.020675491509344113
mouse_head_joint,7.259999999999933,-0.02321308542889966
mouse_head_joint,7.279999999999933,-0.02382187996027696
mouse_head_joint,7.299999999999932,-0.022262020854400433
mouse_head_joint,7.319999999999932,-0.018233575372179622
mouse_head_joint,7.3399999999999315,-0.017681742712885473
mouse_head_joint,7.359999999999931,-0.018595903956726723
mouse_head_joint,7.379999999999931,-0.019143177284100865
mouse_head_joint,7.39999999999993,-0.020596176424157342
mouse_head_joint,7.41999999999993,-0.020040341266871486
mouse_head_joint,7.439999999999929,-0.018665094408366834
mouse_head_joint,7.459999999999929,-0.01726535706857657
mouse_head_joint,7.4799999999999285,-0.015958780108675796
mouse_head_joint,7.499999999999928,-0.015469238992261047
mouse_head_joint,7.519999999999928,-0.013916021586029892
mouse_head_joint,7.539999999999927,-0.013895217228387047
mouse_head_joint,7.559999999999927,-0.01571725191968998
mouse_head_joint,7.579999999999926,-0.016784087126199942
mouse_head_joint,7.599999999999926,-0.015522682746410332
mouse_head_joint,7.6199999999999255,-0.011590494555838937
mouse_head_joint,7.639999999999925,-0.010059752366885277
mouse_head_joint,7.659999999999925,-0.0124366822127282
mouse_head_joint,7.679999999999924,-0.01401074492011567
mouse_head_joint,7.699999999999924,-0.012594415018150507
mouse_head_joint,7.719999999999923,-0.012602365440142371
mouse_head_joint,7.739999999999923,-0.014690902061579969
mouse_head_joint,7.7599999999999225,-0.01742828615037606
mouse_head_joint,7.779999999999922,-0.017401401269540706
mouse_head_joint,7.799999999999922,-0.015319795114796975
mouse_head_joint,7.819999999999921,-0.015673597182026988
mouse_head_joint,7.839999999999921,-0.017879107260378113
mouse_head_joint,7.85999999999992,-0.01964502202959917
mouse_head_joint,7.87999999999992,-0.01866587523571095
mouse_head_joint,7.8999999999999195,-0.017343159714775958
mouse_head_joint,7.919999999999919,-0.01738460043544343
mouse_head_joint,7.939999999999919,-0.016886207626880534
mouse_head_joint,7.959999999999918,-0.014875409710378484
mouse_head_joint,7.979999999999918,-0.012570318138058312
mouse_head_joint,7.999999999999917,-0.010420575464893389
mouse_head_joint,8.019999999999918,-0.009785971318780007
mouse_head_joint,8.039999999999917,-0.013575308225566296
mouse_head_joint,8.059999999999917,-0.017003567279637366
mouse_head_joint,8.079999999999917,-0.017924788367174926
mouse_head_joint,8.099999999999916,-0.020245873158112104
mouse_head_joint,8.119999999999916,-0.0206093087937278
mouse_head_joint,8.139999999999915,-0.020253348955511008
mouse_head_joint,8.159999999999915,-0.019004425954993742
mouse_head_joint,8.179999999999914,-0.018990187946524628
mouse_head_joint,8.199999999999914,-0.019072119419028866
mouse_head_joint,8.219999999999914,-0.019082484658323295
mouse_head_joint,8.239999999999913,-0.016898483540179754
mouse_head_joint,8.259999999999913,-0.013728004533351879
mouse_head_joint,8.279999999999912,-0.013356749361170372
mouse_head_joint,8.299999999999912,-0.013085909437028143
mouse_head_joint,8.319999999999911,-0.014056997668577154
mouse_head_joint,8.339999999999911,-0.0159753324077343
mouse_head_joint,8.35999999999991,-0.016312778100077807
mouse_head_joint,8.37999999999991,-0.017415196368800068
mouse_head_joint,8.39999999999991,-0.018414272172607937
mouse_head_joint,8.41999999999991,-0.018661794433596057
mouse_head_joint,8.439999999999909,-0.019594643323772587
mouse_head_joint,8.459999999999908,-0.021053070445230304
mouse_head_joint,8.479999999999908,-0.020263313019419193
mouse_head_joint,8.499999999999908,-0.019112129672301137
mouse_head_joint,8.519999999999907,-0.019053534091383106
mouse_head_joint,8.539999999999907,-0.018109820885350736
mouse_head_joint,8.559999999999906,-0.0172953007112282
mouse_head_joint,8.579999999999906,-0.016883984602670488
mouse_head_joint,8.599999999999905,-0.016221718538141694
mouse_head_joint,8.619999999999905,-0.015573429859191634
mouse_head_joint,8.639999999999905,-0.016141452831011094
mouse_head_joint,8.659999999999904,-0.01548617692945431
mouse_head_joint,8.679999999999904,-0.01440509496877862
mouse_head_joint,8.699999999999903,-0.013023855910488713
mouse_head_joint,8.719999999999903,-0.01193533435513583
mouse_head_joint,8.739999999999903,-0.011201440370747662
mouse_head_joint,8.759999999999902,-0.009788538074061215
mouse_head_joint,8.779999999999902,-0.008984496429288669
mouse_head_joint,8.799999999999901,-0.008270736159791348
mouse_head_joint,8.8199999999999,-0.008423779891410632
mouse_head_joint,8.8399999999999,-0.0074965612384740865
mouse_head_joint,8.8599999999999,-0.0046554045022553225
mouse_head_joint,8.8799999999999,-0.0016168366442688153
mouse_head_joint,8.899999999999899,0.0011025287884613988
mouse_head_joint,8.919999999999899,0.004296764062604375
mouse_head_joint,8.939999999999898,0.003026925700678973
mouse_head_joint,8.959999999999898,0.0009056081632889956
mouse_head_joint,8.979999999999897,0.0027277321915981645
mouse_head_joint,8.999999999999897,0.004094854278515747
mouse_head_joint,9.019999999999897,0.0029845162039920936
mouse_head_joint,9.039999999999896,0.003317241552318606
mouse_head_joint,9.059999999999896,0.0036766807272252677
mouse_head_joint,9.079999999999895,0.0026284326181960083
mouse_head_joint,9.099999999999895,0.0018247097868089313
mouse_head_joint,9.119999999999894,0.001476165800141871
mouse_head_joint,9.139999999999894,0.003011010163527672
mouse_head_joint,9.159999999999894,0.004181934955625799
mouse_head_joint,9.179999999999893,0.0022432114127068914
mouse_head_joint,9.199999999999893,-0.0028665757740347075
mouse_head_joint,9.219999999999892,-0.006416160678934801
mouse_head_joint,9.239999999999892,-0.005267264070999644
mouse_head_joint,9.259999999999891,-0.005554342584948024
mouse_head_joint,9.279999999999891,-0.0064869472678594775
mouse_head_joint,9.29999999999989,-0.004192797731047193
mouse_head_joint,9.31999999999989,-0.0030459086008489678
mouse_head_joint,9.33999999999989,-0.006034710408667543
mouse_head_joint,9.35999999999989,-0.009461343780398757
mouse_head_joint,9.379999999999889,-0.009504971740510015
mouse_head_joint,9.399999999999888,-0.008357096156875521
mouse_head_joint,9.419999999999888,-0.006372787949211478
mouse_head_joint,9.439999999999888,-0.007623503166631629
mouse_head_joint,9.459999999999887,-0.011703828876345135
mouse_head_joint,9.479999999999887,-0.011564372234931675
mouse_head_joint,9.499999999999886,-0.009863984730058561
mouse_head_joint,9.519999999999886,-0.00930085818782711
mouse_head_joint,9.539999999999885,-0.009653365745644571
mouse_head_joint,9.559999999999885,-0.009742126784985317
mouse_head_joint,9.579999999999885,-0.00929556115650243
mouse_head_joint,9.599999999999884,-0.008074797214008278
mouse_head_joint,9.619999999999884,-0.006833147576830179
mouse_head_joint,9.639999999999883,-0.00702843732360936
mouse_head_joint,9.659999999999883,-0.007104138773841306
mouse_head_joint,9.679999999999882,-0.005801433909939924
mouse_head_joint,9.699999999999882,-0.00563657625986469
mouse_head_joint,9.719999999999882,-0.00632612887469719
mouse_head_joint,9.739999999999881,-0.006377265955116229
mouse_head_joint,9.75999999999988,-0.005564134377548768
mouse_head_joint,9.77999999999988,-0.00444340827033507
mouse_head_joint,9.79999999999988,-0.004098715757832494
mouse_head_joint,9.81999999999988,-0.004107485585075565
mouse_head_joint,9.839999999999879,-0.003265684563285909
mouse_head_joint,9.859999999999879,-5.72477827223139e-05
mouse_head_joint,9.879999999999878,0.002506439047331277
mouse_head_joint,9.899999999999878,0.0027079741509119515
mouse_head_joint,9.919999999999877,0.00263217179745201
mouse_head_joint,9.939999999999877,0.003666614282808567
mouse_head_joint,9.959999999999877,0.003822945465475236
mouse_head_joint,9.979999999999876,0.0010145475410423543
mouse_head_joint,9.999999999999876,0.0027004442199363154
mouse_head_joint,10.019999999999875,0.006138488254561203
mouse_head_joint,10.039999999999875,0.005316501012496921
mouse_head_joint,10.059999999999874,0.004342548251573319
mouse_head_joint,10.079999999999874,0.005152669332126436
mouse_head_joint,10.099999999999874,0.0052177300634301815
mouse_head_joint,10.119999999999873,0.004709369082702253
mouse_head_joint,10.139999999999873,0.0063185623807644475
mouse_head_joint,10.159999999999872,0.008240956119511367
mouse_head_joint,10.179999999999872,0.010237566200808956
mouse_head_joint,10.199999999999871,0.010590102541610413
mouse_head_joint,10.219999999999871,0.009947127043701265
mouse_head_joint,10.23999999999987,0.01061731398246657
mouse_head_joint,10.25999999999987,0.009935650180068478
mouse_head_joint,10.27999999999987,0.009347909041372837
mouse_head_joint,10.29999999999987,0.010910436338716245
mouse_head_joint,10.319999999999869,0.011245416565934363
mouse_head_joint,10.339999999999868,0.011357255207145478
mouse_head_joint,10.359999999999868,0.010322862788798126
mouse_head_joint,10.379999999999868,0.009315780309794519
mouse_head_joint,10.399999999999867,0.011236841892688254
mouse_head_joint,10.419999999999867,0.01159272722102589
mouse_head_joint,10.439999999999866,0.01047674828285583
mouse_head_joint,10.459999999999866,0.010249071166173351
mouse_head_joint,10.479999999999865,0.01114716718800235
mouse_head_joint,10.499999999999865,0.011631784112393184
mouse_head_joint,10.519999999999865,0.010985062536259527
mouse_head_joint,10.539999999999864,0.01064309330527724
mouse_head_joint,10.559999999999864,0.010286029183242285
mouse_head_joint,10.579999999999863,0.009881277592026727
mouse_head_joint,10.599999999999863,0.008505575585970426
mouse_head_joint,10.619999999999862,0.008521091787604185
mouse_head_joint,10.639999999999862,0.009838615804679485
mouse_head_joint,10.659999999999862,0.010812214037556167
mouse_head_joint,10.679999999999861,0.01230766779080028
mouse_head_joint,10.69999999999986,0.011898716242294327
mouse_head_joint,10.71999999999986,0.010823882226871362
mouse_head_joint,10.73999999999986,0.010394186345571654
mouse_head_joint,10.75999999999986,0.009514779646885074
mouse_head_joint,10.779999999999859,0.009657643186598008
mouse_head_joint,10.799999999999859,0.010013159106764036
mouse_head_joint,10.819999999999858,0.010003461860831564
mouse_head_joint,10.839999999999858,0.010647360112480797
mouse_head_joint,10.859999999999857,0.009877496092396854
mouse_head_joint,10.879999999999857,0.00925351577411071
mouse_head_joint,10.899999999999856,0.01046130688865432
mouse_head_joint,10.919999999999856,0.01049922293236083
mouse_head_joint,10.939999999999856,0.010432240169930829
mouse_head_joint,10.959999999999855,0.011509110361851427
mouse_head_joint,10.979999999999855,0.01288817929092545
mouse_head_joint,10.999999999999854,0.013725851056230809
mouse_head_joint,11.019999999999854,0.014165235557231703
mouse_head_joint,11.039999999999853,0.015823274196288928
mouse_head_joint,11.059999999999853,0.016210243354383813
mouse_head_joint,11.079999999999853,0.016175327770149295
mouse_head_joint,11.099999999999852,0.01698866328073212
mouse_head_joint,11.119999999999852,0.016065988133685316
mouse_head_joint,11.139999999999851,0.014734767512435631
mouse_head_joint,11.159999999999851,0.01573120985159271
mouse_head_joint,11.17999999999985,0.015855498622735276
mouse_head_joint,11.19999999999985,0.015599795271452166
mouse_head_joint,11.21999999999985,0.017000885311407643
mouse_head_joint,11.23999999999985,0.016929144523891715
mouse_head_joint,11.259999999999849,0.016663035978802476
mouse_head_joint,11.279999999999848,0.01767065503814358
mouse_head_joint,11.299999999999848,0.017975324897029132
mouse_head_joint,11.319999999999848,0.019189093469314855
mouse_head_joint,11.339999999999847,0.021068145070982425
mouse_head_joint,11.359999999999847,0.02093839663816066
mouse_head_joint,11.379999999999846,0.02014198782401877
mouse_head_joint,11.399999999999846,0.02093130994467085
mouse_head_joint,11.419999999999845,0.02130297536268344
mouse_head_joint,11.439999999999845,0.02119206023877851
mouse_head_joint,11.459999999999845,0.021421650815944382
mouse_head_joint,11.479999999999844,0.019669796897720637
mouse_head_joint,11.499999999999844,0.01840026377373416
mouse_head_joint,11.519999999999843,0.019701344153715716
mouse_head_joint,11.539999999999843,0.020800933352667528
mouse_head_joint,11.559999999999842,0.021580377817841168
mouse_head_joint,11.579999999999842,0.020017220044127093
mouse_head_joint,11.599999999999842,0.0182847160396733
mouse_head_joint,11.619999999999841,0.018567669181606128
mouse_head_joint,11.63999999999984,0.0183131456629555
mouse_head_joint,11.65999999999984,0.01841624997426372
mouse_head_joint,11.67999999999984,0.01884191770168453
mouse_head_joint,11.69999999999984,0.019070534808769857
mouse_head_joint,11.719999999999839,0.01821044718359044
mouse_head_joint,11.739999999999839,0.017865060902690466
mouse_head_joint,11.759999999999838,0.01750826502360514
mouse_head_joint,11.779999999999838,0.01643563839698725
mouse_head_joint,11.799999999999837,0.014957410008055838
mouse_head_joint,11.819999999999837,0.01383376731322894
mouse_head_joint,11.839999999999836,0.013423923332976706
mouse_head_joint,11.859999999999836,0.012911446653389724
mouse_head_joint,11.879999999999836,0.0131136611305811
mouse_head_joint,11.899999999999835,0.01418663146421384
mouse_head_joint,11.919999999999835,0.014577350537523515
mouse_head_joint,11.939999999999834,0.011951473080385355
mouse_head_joint,11.959999999999834,0.010831104526392465
mouse_head_joint,11.979999999999833,0.011654045039815486
mouse_head_joint,11.999999999999833,0.0123587549935964
mouse_head_joint,12.019999999999833,0.011316537150938721
mouse_head_joint,12.039999999999832,0.009955998304175928
mouse_head_joint,12.059999999999832,0.01058630005582284
mouse_head_joint,12.079999999999831,0.012857920949593371
mouse_head_joint,12.099999999999831,0.012371691996068357
mouse_head_joint,12.11999999999983,0.010063188067765516
mouse_head_joint,12.13999999999983,0.009303155017843956
mouse_head_joint,12.15999999999983,0.008150977906361767
mouse_head_joint,12.17999999999983,0.007350137550681701
mouse_head_joint,12.199999999999829,0.007947827146876918
mouse_head_joint,12.219999999999828,0.00824893347843414
mouse_head_joint,12.239999999999828,0.0086402875435585
mouse_head_joint,12.259999999999827,0.008289789760937083
mouse_head_joint,12.279999999999827,0.007664348478561678
mouse_head_joint,12.299999999999827,0.006143525401133942
mouse_head_joint,12.319999999999826,0.00462496967599435
mouse_head_joint,12.339999999999826,0.005004734521008913
mouse_head_joint,12.359999999999825,0.005564050227596873
mouse_head_joint,12.379999999999825,0.0035845565956984515
mouse_head_joint,12.399999999999824,0.0031300464486001545
mouse_head_joint,12.419999999999824,0.00332202311283325
mouse_head_joint,12.439999999999824,0.00423020431172727
mouse_head_joint,12.459999999999823,0.005156421936008293
mouse_head_joint,12.479999999999823,0.004380988554919973
mouse_head_joint,12.499999999999822,0.0037754302497789993
mouse_head_joint,12.519999999999822,0.0035936546448667173
mouse_head_joint,12.539999999999822,0.0032226334927303313
mouse_head_joint,12.559999999999821,0.0017380486951550367
mouse_head_joint,12.57999999999982,0.0007788812811666546
mouse_head_joint,12.59999999999982,0.0011366812939606064
mouse_head_joint,12.61999999999982,0.0017246958670922297
mouse_head_joint,12.63999999999982,0.0019951834265512502
mouse_head_joint,12.659999999999819,0.0020433059017985755
mouse_head_joint,12.679999999999819,0.0008714057456771229
mouse_head_joint,12.699999999999818,0.0014498848593964553
mouse_head_joint,12.719999999999818,0.002514109176156687
mouse_head_joint,12.739999999999817,0.0010065612200955698
mouse_head_joint,12.759999999999817,0.00016905537655365066
mouse_head_joint,12.779999999999816,0.0014450127326233186
mouse_head_joint,12.799999999999816,0.0023002228108710554
mouse_head_joint,12.819999999999816,0.0029979138049442966
mouse_head_joint,12.839999999999815,0.002551007175510378
mouse_head_joint,12.859999999999815,0.0038849233334037336
mouse_head_joint,12.879999999999814,0.004557697898068369
mouse_head_joint,12.899999999999814,0.004754228189026932
mouse_head_joint,12.919999999999813,0.004021166477213178
mouse_head_joint,12.939999999999813,0.003995733178577154
mouse_head_joint,12.959999999999813,0.004805470461278993
mouse_head_joint,12.979999999999812,0.00422210521080757
mouse_head_joint,12.999999999999812,0.005769783070287637
mouse_head_joint,13.019999999999811,0.004589588132735578
mouse_head_joint,13.03999999999981,0.0038678320294769364
mouse_head_joint,13.05999999999981,0.0052463742749262465
mouse_head_joint,13.07999999999981,0.007058228327723626
mouse_head_joint,13.09999999999981,0.01150776131817377
mouse_head_joint,13.11999999999981,0.014125321984583827
mouse_head_joint,13.139999999999809,0.015812858154395038
mouse_head_joint,13.159999999999808,0.014875991144482903
mouse_head_joint,13.179999999999808,0.013865095261380134
mouse_head_joint,13.199999999999807,0.012780217891710244
mouse_head_joint,13.219999999999807,0.009218642693887169
mouse_head_joint,13.239999999999807,0.007873190244838568
mouse_head_joint,13.259999999999806,0.00928722283424488
mouse_head_joint,13.279999999999806,0.008605732108816433
mouse_head_joint,13.299999999999805,0.0070991710446843825
mouse_head_joint,13.319999999999805,0.0069237867824023525
mouse_head_joint,13.339999999999804,0.006390634319216382
mouse_head_joint,13.359999999999804,0.005890553576120006
mouse_head_joint,13.379999999999804,0.00516257895147465
mouse_head_joint,13.399999999999803,0.005833779145308249
mouse_head_joint,13.419999999999803,0.006447502968581986
mouse_head_joint,13.439999999999802,0.005476872980290537
mouse_head_joint,13.459999999999802,0.0049766341261889835
mouse_head_joint,13.479999999999801,0.005146262729752493
mouse_head_joint,13.499999999999801,0.005274120079276301
mouse_head_joint,13.5199999999998,0.0048181906720987655
mouse_head_joint,13.5399999999998,0.004463102116796236
mouse_head_joint,13.5599999999998,0.00439991775324966
mouse_head_joint,13.5799999999998,0.0034354712549138355
mouse_head_joint,13.599999999999799,0.0026959789753986385
mouse_head_joint,13.619999999999798,0.0052272032924784995
mouse_head_joint,13.639999999999798,0.006502178753523324
mouse_head_joint,13.659999999999798,0.006371691659401435
mouse_head_joint,13.679999999999797,0.008724446728900936
mouse_head_joint,13.699999999999797,0.008548744924572915
mouse_head_joint,13.719999999999796,0.007971885967263503
mouse_head_joint,13.739999999999796,0.008421790813014418
mouse_head_joint,13.759999999999796,0.008578844428507537
mouse_head_joint,13.779999999999795,0.011170749063979635
mouse_head_joint,13.799999999999795,0.013857852824642691
mouse_head_joint,13.819999999999794,0.012484289053702469
mouse_head_joint,13.839999999999794,0.012382978224153796
mouse_head_joint,13.859999999999793,0.01232852274017393
mouse_head_joint,13.879999999999793,0.011408409081920645
mouse_head_joint,13.899999999999793,0.012331620428590817
mouse_head_joint,13.919999999999792,0.013394765500852834
mouse_head_joint,13.939999999999792,0.013612829965333084
mouse_head_joint,13.959999999999791,0.0157220170765342
mouse_head_joint,13.97999999999979,0.01717499819573387
mouse_head_joint,13.99999999999979,0.017889324794778894
mouse_head_joint,14.01999999999979,0.017224671651846712
mouse_head_joint,14.03999999999979,0.017231028242608026
mouse_head_joint,14.059999999999789,0.017802915241892592
mouse_head_joint,14.079999999999789,0.0180765820034825
mouse_head_joint,14.099999999999788,0.02011289056209975
mouse_head_joint,14.119999999999788,0.01626822100014902
mouse_head_joint,14.139999999999787,0.011654462771894636
mouse_head_joint,14.159999999999787,0.009518830550859114
mouse_head_joint,14.179999999999787,0.005985187429836891
mouse_head_joint,14.199999999999786,0.004579422870285121
mouse_head_joint,14.219999999999786,0.003090731858240936
mouse_head_joint,14.239999999999785,0.0015469073026945779
mouse_head_joint,14.259999999999785,0.0023397517437384607
mouse_head_joint,14.279999999999784,0.002156929229824911
mouse_head_joint,14.299999999999784,0.000529485352037895
mouse_head_joint,14.319999999999784,0.00010490580093680535
mouse_head_joint,14.339999999999783,0.00024180447169275254
mouse_head_joint,14.359999999999783,0.000310019416167151
mouse_head_joint,14.379999999999782,0.00013361634170383496
mouse_head_joint,14.399999999999782,0.002084923558292928
mouse_head_joint,14.419999999999781,0.005197272611710879
mouse_head_joint,14.439999999999781,0.0057295377344868115
mouse_head_joint,14.45999999999978,0.0057096646134313644
mouse_head_joint,14.47999999999978,0.0063185237369580705
mouse_head_joint,14.49999999999978,0.006625247549947311
mouse_head_joint,14.51999999999978,0.005903670008959416
mouse_head_joint,14.539999999999779,0.0054006263411094935
mouse_head_joint,14.559999999999778,0.0056341044122376616
mouse_head_joint,14.579999999999778,0.006470808426441543
mouse_head_joint,14.599999999999778,0.0038229333092951734
mouse_head_joint,14.619999999999777,0.0012426605641939759
mouse_head_joint,14.639999999999777,0.0009311820754316358
mouse_head_joint,14.659999999999776,0.0017387249968718876
mouse_head_joint,14.679999999999776,0.0030314178468451303
mouse_head_joint,14.699999999999775,0.002515640901215477
mouse_head_joint,14.719999999999775,0.00241141406812595
mouse_head_joint,14.739999999999775,0.002839213796872464
mouse_head_joint,14.759999999999774,0.0017722637251660345
mouse_head_joint,14.779999999999774,0.0015862554476830937
mouse_head_joint,14.799999999999773,0.0030822958895679875
mouse_head_joint,14.819999999999773,0.002812921188003692
mouse_head_joint,14.839999999999772,0.0015247177667347955
mouse_head_joint,14.859999999999772,0.002934755984620452
mouse_head_joint,14.879999999999772,0.005208084719299677
mouse_head_joint,14.899999999999771,0.006537446802183489
mouse_head_joint,14.91999999999977,0.005828749792708088
mouse_head_joint,14.93999999999977,0.005234996211543219
mouse_head_joint,14.95999999999977,0.006319045054413053
mouse_head_joint,14.97999999999977,0.007155287121145548
mouse_head_joint,14.999999999999769,0.008276067191320458
mouse_head_joint,15.019999999999769,0.00948868955297133
mouse_head_joint,15.039999999999768,0.00775180581705559
mouse_head_joint,15.059999999999768,0.008446342428883646
mouse_head_joint,15.079999999999767,0.008670068548811471
mouse_head_joint,15.099999999999767,0.008830969754523466
mouse_head_joint,15.119999999999767,0.011035502828059762
mouse_head_joint,15.139999999999766,0.01202992761712629
mouse_head_joint,15.159999999999766,0.011254477166104948
mouse_head_joint,15.179999999999765,0.009044962126607103
mouse_head_joint,15.199999999999765,0.007064868871813346
mouse_head_joint,15.219999999999764,0.006295569671877388
mouse_head_joint,15.239999999999764,0.006322809886491143
mouse_head_joint,15.259999999999764,0.006976388321801252
mouse_head_joint,15.279999999999763,0.007962170306320182
mouse_head_joint,15.299999999999763,0.008865697571884823
mouse_head_joint,15.319999999999762,0.009313827641593164
mouse_head_joint,15.339999999999762,0.00865472603995876
mouse_head_joint,15.359999999999761,0.0080910291012124
mouse_head_joint,15.379999999999761,0.008138339110397297
mouse_head_joint,15.39999999999976,0.009693618694773143
mouse_head_joint,15.41999999999976,0.011136602942436902
mouse_head_joint,15.43999999999976,0.01019962236249139
mouse_head_joint,15.45999999999976,0.009738614109852328
mouse_head_joint,15.479999999999759,0.009658148505464759
mouse_head_joint,15.499999999999758,0.011073552387401264
mouse_head_joint,15.519999999999758,0.015453388004744717
mouse_head_joint,15.539999999999758,0.017200373537033187
mouse_head_joint,15.559999999999757,0.017781396944891448
mouse_head_joint,15.579999999999757,0.018344602446821234
mouse_head_joint,15.599999999999756,0.01670162836098843
mouse_head_joint,15.619999999999756,0.013941172332686769
mouse_head_joint,15.639999999999755,0.015318420539353284
mouse_head_joint,15.659999999999755,0.01726938180743076
mouse_head_joint,15.679999999999755,0.016431974587636233
mouse_head_joint,15.699999999999754,0.01573771362381482
mouse_head_joint,15.719999999999754,0.01566101045422741
mouse_head_joint,15.739999999999753,0.014975986620214599
mouse_head_joint,15.759999999999753,0.016135610716432325
mouse_head_joint,15.779999999999752,0.017480994710818543
mouse_head_joint,15.799999999999752,0.017379858063200082
mouse_head_joint,15.819999999999752,0.019322739101190756
mouse_head_joint,15.839999999999751,0.020692758572042003
mouse_head_joint,15.85999999999975,0.01989665766340032
mouse_head_joint,15.87999999999975,0.016728525760452584
mouse_head_joint,15.89999999999975,0.014187816341659776
mouse_head_joint,15.91999999999975,0.014480938286633993
mouse_head_joint,15.939999999999749,0.01451802333558394
mouse_head_joint,15.959999999999749,0.013991025470001972
mouse_head_joint,15.979999999999748,0.014735438743888274
mouse_head_joint,15.999999999999748,0.016538565319913268
mouse_head_joint,16.019999999999747,0.01632720595310566
mouse_head_joint,16.039999999999747,0.017375676117804773
mouse_head_joint,16.059999999999746,0.017700151380701357
mouse_head_joint,16.079999999999746,0.016435476128348725
mouse_head_joint,16.099999999999746,0.01619177108362546
mouse_head_joint,16.119999999999745,0.01765089535907105
mouse_head_joint,16.139999999999745,0.01647604232306321
mouse_head_joint,16.159999999999744,0.014453533146264519
mouse_head_joint,16.179999999999744,0.013627220480159075
mouse_head_joint,16.199999999999743,0.013760267159601547
mouse_head_joint,16.219999999999743,0.013756272541374237
mouse_head_joint,16.239999999999743,0.013645357278850412
mouse_head_joint,16.259999999999742,0.014263717891425998
mouse_head_joint,16.279999999999742,0.01497436488929349
mouse_head_joint,16.29999999999974,0.015071180636859083
mouse_head_joint,16.31999999999974,0.014169196889506352
mouse_head_joint,16.33999999999974,0.013646374181100818
mouse_head_joint,16.35999999999974,0.014600479467504535
mouse_head_joint,16.37999999999974,0.014227202111332105
mouse_head_joint,16.39999999999974,0.013528695405467417
mouse_head_joint,16.41999999999974,0.012526669121598388
mouse_head_joint,16.43999999999974,0.01158937680052663
mouse_head_joint,16.459999999999738,0.012822456061134524
mouse_head_joint,16.479999999999738,0.012468497191141736
mouse_head_joint,16.499999999999737,0.011337361020305359
mouse_head_joint,16.519999999999737,0.011329593762715362
mouse_head_joint,16.539999999999736,0.01096725240115859
mouse_head_joint,16.559999999999736,0.012368801964407261
mouse_head_joint,16.579999999999735,0.015126688054821535
mouse_head_joint,16.599999999999735,0.014752767392633537
mouse_head_joint,16.619999999999735,0.014945734320448878
mouse_head_joint,16.639999999999734,0.015368604442793199
mouse_head_joint,16.659999999999734,0.014109202163705703
mouse_head_joint,16.679999999999733,0.013391960084492283
mouse_head_joint,16.699999999999733,0.015230390468679467
mouse_head_joint,16.719999999999732,0.016271822702471184
mouse_head_joint,16.739999999999732,0.016181306193562506
mouse_head_joint,16.75999999999973,0.01563585143257029
mouse_head_joint,16.77999999999973,0.01549182783545966
mouse_head_joint,16.79999999999973,0.016072612316208712
mouse_head_joint,16.81999999999973,0.016859866501301113
mouse_head_joint,16.83999999999973,0.016732258441688685
mouse_head_joint,16.85999999999973,0.01810933989258423
mouse_head_joint,16.87999999999973,0.018902612876669167
mouse_head_joint,16.89999999999973,0.019416129372268998
mouse_head_joint,16.919999999999728,0.018830970971274397
mouse_head_joint,16.939999999999728,0.01865842232443793
mouse_head_joint,16.959999999999727,0.018679071100415
mouse_head_joint,16.979999999999727,0.018525781723260693
mouse_head_joint,16.999999999999726,0.01767170203622115
mouse_head_joint,17.019999999999726,0.017706965304506106
mouse_head_joint,17.039999999999726,0.017616403715361884
mouse_head_joint,17.059999999999725,0.013009572171911898
mouse_head_joint,17.079999999999725,0.01090759980377598
mouse_head_joint,17.099999999999724,0.011465505709825408
mouse_head_joint,17.119999999999724,0.011639237330936858
mouse_head_joint,17.139999999999723,0.012722541753912964
mouse_head_joint,17.159999999999723,0.012047763151104007
mouse_head_joint,17.179999999999723,0.012349444913394514
mouse_head_joint,17.199999999999722,0.012573392431480812
mouse_head_joint,17.21999999999972,0.012579832185970474
mouse_head_joint,17.23999999999972,0.01372215038402036
mouse_head_joint,17.25999999999972,0.012570773213703923
mouse_head_joint,17.27999999999972,0.011747546460133762
mouse_head_joint,17.29999999999972,0.013348354492928038
mouse_head_joint,17.31999999999972,0.01242066942489739
mouse_head_joint,17.33999999999972,0.011393876485340293
mouse_head_joint,17.35999999999972,0.011222245602508174
mouse_head_joint,17.37999999999972,0.010188704866511245
mouse_head_joint,17.399999999999718,0.01088560831207186
mouse_head_joint,17.419999999999717,0.010659232646903938
mouse_head_joint,17.439999999999717,0.009388827281570755
mouse_head_joint,17.459999999999717,0.010830204353566408
mouse_head_joint,17.479999999999716,0.010764416930531873
mouse_head_joint,17.499999999999716,0.00720363512540434
mouse_head_joint,17.519999999999715,0.002877869365918606
mouse_head_joint,17.539999999999715,0.0022521779748965187
mouse_head_joint,17.559999999999715,0.0030354479581955474
mouse_head_joint,17.579999999999714,0.003976326759615567
mouse_head_joint,17.599999999999714,0.005165597181763459
mouse_head_joint,17.619999999999713,0.00342256362288218
mouse_head_joint,17.639999999999713,0.0028052621081302576
mouse_head_joint,17.659999999999712,0.004174116117096283
mouse_head_joint,17.679999999999712,0.0039583222013082064
mouse_head_joint,17.69999999999971,0.003788029259481185
mouse_head_joint,17.71999999999971,0.004285287394372617
mouse_head_joint,17.73999999999971,0.003358138010792544
mouse_head_joint,17.75999999999971,0.003999062995005964
mouse_head_joint,17.77999999999971,0.00493930839919976
mouse_head_joint,17.79999999999971,0.004257792214923839
mouse_head_joint,17.81999999999971,0.004143183874748324
mouse_head_joint,17.83999999999971,0.004504509149950486
mouse_head_joint,17.859999999999708,0.005134972161788376
mouse_head_joint,17.879999999999708,0.005539173717977519
mouse_head_joint,17.899999999999707,0.005574093216070608
mouse_head_joint,17.919999999999707,0.005839243821806228
mouse_head_joint,17.939999999999706,0.0059670435990746284
mouse_head_joint,17.959999999999706,0.008044929167115633
mouse_head_joint,17.979999999999706,0.01032714935109702
mouse_head_joint,17.999999999999705,0.011379623380084247
mouse_head_joint,18.019999999999705,0.014633482030099287
mouse_head_joint,18.039999999999704,0.015168614162289096
mouse_head_joint,18.059999999999704,0.014849942269068883
mouse_head_joint,18.079999999999703,0.013428141214757439
mouse_head_joint,18.099999999999703,0.012937316145446687
mouse_head_joint,18.119999999999703,0.012046738764947662
mouse_head_joint,18.139999999999702,0.010302930824145129
mouse_head_joint,18.1599999999997,0.010892939194058648
mouse_head_joint,18.1799999999997,0.011162951021273848
mouse_head_joint,18.1999999999997,0.010126608394515735
mouse_head_joint,18.2199999999997,0.010636895376984867
mouse_head_joint,18.2399999999997,0.011263153778810597
mouse_head_joint,18.2599999999997,0.011174016960865174
mouse_head_joint,18.2799999999997,0.009897811399663503
mouse_head_joint,18.2999999999997,0.008832740705142506
mouse_head_joint,18.3199999999997,0.009370886120473543
mouse_head_joint,18.339999999999698,0.00936530889987619
mouse_head_joint,18.359999999999697,0.009320317602817596
mouse_head_joint,18.379999999999697,0.009697065544351346
mouse_head_joint,18.399999999999697,0.009854890731028298
mouse_head_joint,18.419999999999696,0.009462179948330096
mouse_head_joint,18.439999999999696,0.009413844989173192
mouse_head_joint,18.459999999999695,0.010541981771432951
mouse_head_joint,18.479999999999695,0.011686683754608573
mouse_head_joint,18.499999999999694,0.011231286171707211
mouse_head_joint,18.519999999999694,0.012472581446274056
mouse_head_joint,18.539999999999694,0.012709060930748528
mouse_head_joint,18.559999999999693,0.010818338760819834
mouse_head_joint,18.579999999999693,0.01134006987288494
mouse_head_joint,18.599999999999692,0.011834860221659582
mouse_head_joint,18.619999999999692,0.008615587581289219
mouse_head_joint,18.63999999999969,0.006526142811697611
mouse_head_joint,18.65999999999969,0.0063855253736333495
mouse_head_joint,18.67999999999969,0.004447481831875599
mouse_head_joint,18.69999999999969,0.0038606935218146177
mouse_head_joint,18.71999999999969,0.005788590114359948
mouse_head_joint,18.73999999999969,0.007091472558524714
mouse_head_joint,18.75999999999969,0.006697582729131568
mouse_head_joint,18.77999999999969,0.007593712915584305
mouse_head_joint,18.799999999999688,0.008307712483312635
mouse_head_joint,18.819999999999688,0.008531195314928297
mouse_head_joint,18.839999999999687,0.008926712297816053
mouse_head_joint,18.859999999999687,0.00912331958676571
mouse_head_joint,18.879999999999686,0.009032342177376584
mouse_head_joint,18.899999999999686,0.011042446094384317
mouse_head_joint,18.919999999999686,0.012431935218818246
mouse_head_joint,18.939999999999685,0.012304993563949651
mouse_head_joint,18.959999999999685,0.01338651508809896
mouse_head_joint,18.979999999999684,0.013961543432619017
mouse_head_joint,18.999999999999684,0.012357703445307067
mouse_head_joint,19.019999999999683,0.01137359970234364
mouse_head_joint,19.039999999999683,0.01006849626622941
mouse_head_joint,19.059999999999683,0.01045771722865485
mouse_head_joint,19.079999999999682,0.008759999059996026
mouse_head_joint,19.09999999999968,0.00836902985513266
mouse_head_joint,19.11999999999968,0.010169584604685866
mouse_head_joint,19.13999999999968,0.009855563955132318
mouse_head_joint,19.15999999999968,0.008351432721508623
mouse_head_joint,19.17999999999968,0.007877819344106918
mouse_head_joint,19.19999999999968,0.007884671018317135
mouse_head_joint,19.21999999999968,0.007845953150305007
mouse_head_joint,19.23999999999968,0.007611113850670037
mouse_head_joint,19.25999999999968,0.00695929201401313
mouse_head_joint,19.279999999999678,0.00667035960668283
mouse_head_joint,19.299999999999677,0.006781791411917482
mouse_head_joint,19.319999999999677,0.005865492030579844
mouse_head_joint,19.339999999999677,0.0035247670962945676
mouse_head_joint,19.359999999999676,0.0016758750600605055
mouse_head_joint,19.379999999999676,0.0019533064956744894
mouse_head_joint,19.399999999999675,0.005322914151189906
mouse_head_joint,19.419999999999675,0.005765886324706315
mouse_head_joint,19.439999999999674,0.003545606201575069
mouse_head_joint,19.459999999999674,0.0025155471118631922
mouse_head_joint,19.479999999999674,0.003969998015759479
mouse_head_joint,19.499999999999673,0.0033567610215712307
mouse_head_joint,19.519999999999673,0.0024441847308480646
mouse_head_joint,19.539999999999672,0.0022907870713932965
mouse_head_joint,19.559999999999672,0.0018926582006635329
mouse_head_joint,19.57999999999967,0.002878692638396352
mouse_head_joint,19.59999999999967,0.004068800600936839
mouse_head_joint,19.61999999999967,0.004311195463745143
mouse_head_joint,19.63999999999967,0.0027193451470148844
mouse_head_joint,19.65999999999967,0.002740319707151606
mouse_head_joint,19.67999999999967,0.003297287905835944
mouse_head_joint,19.69999999999967,0.002603837404580034
mouse_head_joint,19.71999999999967,0.002409802601643918
mouse_head_joint,19.739999999999668,0.0020950932925849486
mouse_head_joint,19.759999999999668,0.0020978214399134387
mouse_head_joint,19.779999999999667,0.0024898912984330224
mouse_head_joint,19.799999999999667,0.0017511863305141873
mouse_head_joint,19.819999999999666,0.0004549182478701397
mouse_head_joint,19.839999999999666,-0.0005093979734702714
mouse_head_joint,19.859999999999665,-0.0012234636271983845
mouse_head_joint,19.879999999999665,-0.0025533331907041656
mouse_head_joint,19.899999999999665,-0.002454122485609389
mouse_head_joint,19.919999999999664,-0.0005923610620186537
mouse_head_joint,19.939999999999664,0.0012038981664979076
mouse_head_joint,19.959999999999663,0.0069580424364055204
mouse_head_joint,19.979999999999663,0.009523374278085583
mouse_head_joint,19.999999999999662,0.008047867804069853
mouse_head_joint,20.019999999999662,0.0077655844782489325
mouse_head_joint,20.03999999999966,0.00822358638583598
mouse_head_joint,20.05999999999966,0.00626748239684094
mouse_head_joint,20.07999999999966,0.0072566207174959985
mouse_head_joint,20.09999999999966,0.00907577458703468
mouse_head_joint,20.11999999999966,0.008594444287902014
mouse_head_joint,20.13999999999966,0.008190207596995513
mouse_head_joint,20.15999999999966,0.007436388194133947
mouse_head_joint,20.17999999999966,0.0060579090605452635
mouse_head_joint,20.19999999999966,0.0052302504562442564
mouse_head_joint,20.219999999999658,0.0050837143268926965
mouse_head_joint,20.239999999999657,0.004095808600793838
mouse_head_joint,20.259999999999657,0.0034425758976048826
mouse_head_joint,20.279999999999657,0.004315363453318177
mouse_head_joint,20.299999999999656,0.0034292532997408642
mouse_head_joint,20.319999999999656,0.0047522394665762135
mouse_head_joint,20.339999999999655,0.002912494976623492
mouse_head_joint,20.359999999999655,0.0023308276160953767
mouse_head_joint,20.379999999999654,0.003499389920897933
mouse_head_joint,20.399999999999654,0.004093442820995108
mouse_head_joint,20.419999999999654,0.004316410083272437
mouse_head_joint,20.439999999999653,0.004104586722591286
mouse_head_joint,20.459999999999653,0.0028231976582837603
mouse_head_joint,20.479999999999652,0.0010235121627601984
mouse_head_joint,20.499999999999652,0.002401394914365085
mouse_head_joint,20.51999999999965,0.0020362852541717658
mouse_head_joint,20.53999999999965,8.885272147640677e-05
