Name,time,Position
mouse_head_joint,0.0,0.0
mouse_head_joint,0.02,0.0
mouse_head_joint,0.04,0.0
mouse_head_joint,0.06,0.0
mouse_head_joint,0.08,0.0
mouse_head_joint,0.1,0.0
mouse_head_joint,0.12000000000000001,0.0
mouse_head_joint,0.14,0.0
mouse_head_joint,0.16,0.0
mouse_head_joint,0.18,0.0
mouse_head_joint,0.19999999999999998,0.0
mouse_head_joint,0.21999999999999997,-0.0019383634625862456
mouse_head_joint,0.23999999999999996,-0.00022180075501321284
mouse_head_joint,0.25999999999999995,2.7684641790592934e-05
mouse_head_joint,0.27999999999999997,7.0741377102834235e-06
mouse_head_joint,0.3,6.526700548903364e-06
mouse_head_joint,0.32,-6.7253120654697796e-06
mouse_head_joint,0.34,-7.425495728519138e-06
mouse_head_joint,0.36000000000000004,-8.420688910604213e-06
mouse_head_joint,0.38000000000000006,-9.583923892719781e-06
mouse_head_joint,0.4000000000000001,-1.1305903134584128e-05
mouse_head_joint,0.4200000000000001,-1.2514430316024061e-05
mouse_head_joint,0.4400000000000001,-1.4233680885489264e-05
mouse_head_joint,0.46000000000000013,-1.580810959644907e-05
mouse_head_joint,0.48000000000000015,-1.7528585315673695e-05
mouse_head_joint,0.5000000000000001,-1.9283988572205146e-05
mouse_head_joint,0.5200000000000001,-2.1159156720962358e-05
mouse_head_joint,0.5400000000000001,-2.284332571811376e-05
mouse_head_joint,0.5600000000000002,-2.4728116025052316e-05
mouse_head_joint,0.5800000000000002,-2.6420931687809457e-05
mouse_head_joint,0.6000000000000002,-2.8187979240534844e-05
mouse_head_joint,0.6200000000000002,-2.9882257669200385e-05
mouse_head_joint,0.6400000000000002,-3.178936499725893e-05
mouse_head_joint,0.6600000000000003,-3.358456254431985e-05
mouse_head_joint,0.6800000000000003,-3.537321641733371e-05
mouse_head_joint,0.7000000000000003,-3.7036579555227434e-05
mouse_head_joint,0.7200000000000003,-3.8691610722452197e-05
mouse_head_joint,0.7400000000000003,-4.050923114728988e-05
mouse_head_joint,0.7600000000000003,-4.2144406356747766e-05
mouse_head_joint,0.7800000000000004,-4.377006868683253e-05
mouse_head_joint,0.8000000000000004,-4.57443294115123e-05
mouse_head_joint,0.8200000000000004,-4.734909409886967e-05
mouse_head_joint,0.8400000000000004,-4.896338040261128e-05
mouse_head_joint,0.8600000000000004,-5.054544931404337e-05
mouse_head_joint,0.8800000000000004,-5.230655139687457e-05
mouse_head_joint,0.9000000000000005,-5.386639536908433e-05
mouse_head_joint,0.9200000000000005,-5.55992457380583e-05
mouse_head_joint,0.9400000000000005,-5.756523393607438e-05
mouse_head_joint,0.9600000000000005,-5.8969228028615817e-05
mouse_head_joint,0.9800000000000005,-6.0413930717651e-05
mouse_head_joint,1.0000000000000004,-6.195993825652835e-05
mouse_head_joint,1.0200000000000005,-6.359864055394127e-05
mouse_head_joint,1.0400000000000005,-6.521317520036263e-05
mouse_head_joint,1.0600000000000005,-6.668370304119264e-05
mouse_head_joint,1.0800000000000005,-6.811189868649592e-05
mouse_head_joint,1.1000000000000005,-6.969718751381748e-05
mouse_head_joint,1.1200000000000006,-7.124327848906375e-05
mouse_head_joint,1.1400000000000006,-7.268672063709403e-05
mouse_head_joint,1.1600000000000006,-7.408009513021341e-05
mouse_head_joint,1.1800000000000006,-7.563783452546602e-05
mouse_head_joint,1.2000000000000006,-7.719310941833868e-05
mouse_head_joint,1.2200000000000006,-7.857123678256528e-05
mouse_head_joint,1.2400000000000007,-8.011407132979542e-05
mouse_head_joint,1.2600000000000007,-8.163438235886389e-05
mouse_head_joint,1.2800000000000007,-8.280543394434403e-05
mouse_head_joint,1.3000000000000007,-8.46153079274714e-05
mouse_head_joint,1.3200000000000007,-8.562428253178211e-05
mouse_head_joint,1.3400000000000007,-8.710854015259173e-05
mouse_head_joint,1.3600000000000008,-8.850671591709158e-05
mouse_head_joint,1.3800000000000008,-8.972639912130376e-05
mouse_head_joint,1.4000000000000008,-9.11834592063343e-05
mouse_head_joint,1.4200000000000008,-9.258450481919311e-05
mouse_head_joint,1.4400000000000008,-9.379780105245317e-05
mouse_head_joint,1.4600000000000009,-9.528657267665608e-05
mouse_head_joint,1.4800000000000009,-9.652255654124531e-05
mouse_head_joint,1.5000000000000009,-9.774844745180644e-05
mouse_head_joint,1.520000000000001,-9.896429344280477e-05
mouse_head_joint,1.540000000000001,-0.00010012825555349991
mouse_head_joint,1.560000000000001,-0.00010148654085817554
mouse_head_joint,1.580000000000001,-0.00010280636517467912
mouse_head_joint,1.600000000000001,-0.000103951139780456
mouse_head_joint,1.620000000000001,-0.000105114403851303
mouse_head_joint,1.640000000000001,-0.00010643834043833067
mouse_head_joint,1.660000000000001,-0.00010772282333970651
mouse_head_joint,1.680000000000001,-0.00010885573517604996
mouse_head_joint,1.700000000000001,-0.00010994936605879246
mouse_head_joint,1.720000000000001,-0.00011131224874016965
mouse_head_joint,1.740000000000001,-0.00011249405622937303
mouse_head_joint,1.7600000000000011,-0.00011341814608201162
mouse_head_joint,1.7800000000000011,-0.00011450116742928174
mouse_head_joint,1.8000000000000012,-0.0001158128056619745
mouse_head_joint,1.8200000000000012,-0.00011693278267621565
mouse_head_joint,1.8400000000000012,-0.00011792984378988791
mouse_head_joint,1.8600000000000012,-0.0001191062122494202
mouse_head_joint,1.8800000000000012,-0.00012016636120470992
mouse_head_joint,1.9000000000000012,-0.0001213477189558887
mouse_head_joint,1.9200000000000013,-0.00012220654104844186
mouse_head_joint,1.9400000000000013,-0.00012348386195526473
mouse_head_joint,1.9600000000000013,-0.00012448022301647654
mouse_head_joint,1.9800000000000013,-0.00012546773389399135
mouse_head_joint,2.0000000000000013,-0.00012640285404064144
mouse_head_joint,2.0200000000000014,-0.0001274949023191141
mouse_head_joint,2.0400000000000014,-0.000128617936693054
mouse_head_joint,2.0600000000000014,-0.00012968850348915595
mouse_head_joint,2.0800000000000014,-0.00013046850216724692
mouse_head_joint,2.1000000000000014,-0.00013169720627193016
mouse_head_joint,2.1200000000000014,-0.00013260919956969985
mouse_head_joint,2.1400000000000015,-0.0001334685050347062
mouse_head_joint,2.1600000000000015,-0.00013442870243363103
mouse_head_joint,2.1800000000000015,-0.00013538075579866415
mouse_head_joint,2.2000000000000015,-0.00013626888325468656
mouse_head_joint,2.2200000000000015,-0.00013727456015111272
mouse_head_joint,2.2400000000000015,-0.00013814592288685645
mouse_head_joint,2.2600000000000016,-0.00013915246852924668
mouse_head_joint,2.2800000000000016,-0.000139924803110425
mouse_head_joint,2.3000000000000016,-0.0001408510141525099
mouse_head_joint,2.3200000000000016,-0.0001417841324506952
mouse_head_joint,2.3400000000000016,-0.00014261253810232688
mouse_head_joint,2.3600000000000017,-0.0001433787992777269
mouse_head_joint,2.3800000000000017,-0.00014419092260276045
mouse_head_joint,2.4000000000000017,-0.0001451523627213902
mouse_head_joint,2.4200000000000017,-0.0001460010361862274
mouse_head_joint,2.4400000000000017,-0.00014684049731705784
mouse_head_joint,2.4600000000000017,-0.00014772257127582122
mouse_head_joint,2.4800000000000018,-0.00014862322850195397
mouse_head_joint,2.5000000000000018,-0.0001493869376485435
mouse_head_joint,2.520000000000002,-0.00014995111047788612
mouse_head_joint,2.540000000000002,-0.00015069887436069962
mouse_head_joint,2.560000000000002,-0.00015158860485797732
mouse_head_joint,2.580000000000002,-0.0001524360449982609
mouse_head_joint,2.600000000000002,-0.00015320425543396965
mouse_head_joint,2.620000000000002,-0.0001538351782146563
mouse_head_joint,2.640000000000002,-0.0001546754264403205
mouse_head_joint,2.660000000000002,-0.00015544099627007313
mouse_head_joint,2.680000000000002,-0.00015613462959862545
mouse_head_joint,2.700000000000002,-0.0001568377185243719
mouse_head_joint,2.720000000000002,-0.00015757917680581102
mouse_head_joint,2.740000000000002,-0.0001582507998536542
mouse_head_joint,2.760000000000002,-0.00015900230311505226
mouse_head_joint,2.780000000000002,-0.00015965924029259781
mouse_head_joint,2.800000000000002,-0.00016048659398393283
mouse_head_joint,2.820000000000002,-0.0001612522923073456
mouse_head_joint,2.840000000000002,-0.0001617632415022996
mouse_head_joint,2.860000000000002,-0.00016239138480944604
mouse_head_joint,2.880000000000002,-0.00016292765880443483
mouse_head_joint,2.900000000000002,-0.00016366580887439142
mouse_head_joint,2.920000000000002,-0.00016440034701759032
mouse_head_joint,2.940000000000002,-0.00016493789505567236
mouse_head_joint,2.960000000000002,-0.00016562364824590503
mouse_head_joint,2.980000000000002,-0.00016609610677775777
mouse_head_joint,3.000000000000002,-0.00016681987282485267
mouse_head_joint,3.0200000000000022,-0.0001674420690660483
mouse_head_joint,3.0400000000000023,-0.00016795831628790836
mouse_head_joint,3.0600000000000023,-0.00016843054183102169
mouse_head_joint,3.0800000000000023,-0.0001692587597972306
mouse_head_joint,3.1000000000000023,-0.00016972959764061102
mouse_head_joint,3.1200000000000023,-0.00017026906969519473
mouse_head_joint,3.1400000000000023,-0.00017087522524139587
mouse_head_joint,3.1600000000000024,-0.00017133266947055859
mouse_head_joint,3.1800000000000024,-0.00017192879142680084
mouse_head_joint,3.2000000000000024,-0.0001725109041021966
mouse_head_joint,3.2200000000000024,-0.0001730921828055898
mouse_head_joint,3.2400000000000024,-0.0001737111760986565
mouse_head_joint,3.2600000000000025,-0.00017420593778894045
mouse_head_joint,3.2800000000000025,-0.00017460345779607422
mouse_head_joint,3.3000000000000025,-0.00017508920479869516
mouse_head_joint,3.3200000000000025,-0.00017566923255429856
mouse_head_joint,3.3400000000000025,-0.0001761393069612538
mouse_head_joint,3.3600000000000025,-0.0001766391831727887
mouse_head_joint,3.3800000000000026,-0.00017709657087650044
mouse_head_joint,3.4000000000000026,-0.0001774293662917259
mouse_head_joint,3.4200000000000026,-0.00017799432604448384
mouse_head_joint,3.4400000000000026,-0.00017838545787629556
mouse_head_joint,3.4600000000000026,-0.00017890442541279583
mouse_head_joint,3.4800000000000026,-0.0001793846688915579
mouse_head_joint,3.5000000000000027,-0.00017972866508930707
mouse_head_joint,3.5200000000000027,-0.00018014550110478922
mouse_head_joint,3.5400000000000027,-0.00018069613865812073
mouse_head_joint,3.5600000000000027,-0.00018102582229317932
mouse_head_joint,3.5800000000000027,-0.00018162732754944955
mouse_head_joint,3.6000000000000028,-0.00018188369233396173
mouse_head_joint,3.6200000000000028,-0.00018240995774654323
mouse_head_joint,3.640000000000003,-0.00018290616039617902
mouse_head_joint,3.660000000000003,-0.00018317809013357333
mouse_head_joint,3.680000000000003,-0.00018355002125503006
mouse_head_joint,3.700000000000003,-0.00018391681041052266
mouse_head_joint,3.720000000000003,-0.0001842809819194713
mouse_head_joint,3.740000000000003,-0.0001847400389198839
mouse_head_joint,3.760000000000003,-0.0001850969009415948
mouse_head_joint,3.780000000000003,-0.00018532849109220706
mouse_head_joint,3.800000000000003,-0.00018568192957690854
mouse_head_joint,3.820000000000003,-0.00018605104026647723
mouse_head_joint,3.840000000000003,-0.0001864718213067107
mouse_head_joint,3.860000000000003,-0.0001868373097346776
mouse_head_joint,3.880000000000003,-0.00018707245144966578
mouse_head_joint,3.900000000000003,-0.0001875216361328924
mouse_head_joint,3.920000000000003,-0.00018783126247257087
mouse_head_joint,3.940000000000003,-0.00018805431790536176
mouse_head_joint,3.960000000000003,-0.00018848842435836843
mouse_head_joint,3.980000000000003,-0.0001888349125165334
mouse_head_joint,4.000000000000003,-0.00018912480431954037
mouse_head_joint,4.020000000000002,-0.00018941612357981086
mouse_head_joint,4.040000000000002,-0.0001896963737486601
mouse_head_joint,4.060000000000001,-0.000189951926157228
mouse_head_joint,4.080000000000001,-0.00019022262067558415
mouse_head_joint,4.1000000000000005,-0.0001904817448723506
mouse_head_joint,4.12,-0.0001908414525857438
mouse_head_joint,4.14,-0.00019109411252049568
mouse_head_joint,4.159999999999999,-0.00019124029261696762
mouse_head_joint,4.179999999999999,-0.00019159341980135025
mouse_head_joint,4.199999999999998,-0.00019185070341620758
mouse_head_joint,4.219999999999998,-0.00019199273765213576
mouse_head_joint,4.2399999999999975,-0.00019235396515160375
mouse_head_joint,4.259999999999997,-0.00019249374346852477
mouse_head_joint,4.279999999999997,-0.0001927625751481088
mouse_head_joint,4.299999999999996,-0.00019298297566905376
mouse_head_joint,4.319999999999996,-0.0001931992355670431
mouse_head_joint,4.339999999999995,-0.0001934552754709884
mouse_head_joint,4.359999999999995,-0.00019366291082612008
mouse_head_joint,4.379999999999995,-0.000193992670233456
mouse_head_joint,4.399999999999994,-0.00019419162026945713
mouse_head_joint,4.419999999999994,-0.0001943865759024277
mouse_head_joint,4.439999999999993,-0.00019453337297292705
mouse_head_joint,4.459999999999993,-0.00019481428041867588
mouse_head_joint,4.479999999999992,-0.00019487893446612503
mouse_head_joint,4.499999999999992,-0.00019505695928589972
mouse_head_joint,4.519999999999992,-0.0001953362212345766
mouse_head_joint,4.539999999999991,-0.00019540148621466358
mouse_head_joint,4.559999999999991,-0.00019556226074790573
mouse_head_joint,4.57999999999999,-0.00019572464340278373
mouse_head_joint,4.59999999999999,-0.00019589845415346474
mouse_head_joint,4.6199999999999894,-0.0001960529861539939
mouse_head_joint,4.639999999999989,-0.000196326989065021
mouse_head_joint,4.659999999999989,-0.00019650598272757946
mouse_head_joint,4.679999999999988,-0.00019655811971919235
mouse_head_joint,4.699999999999988,-0.00019669730340332592
mouse_head_joint,4.719999999999987,-0.00019695898991312077
mouse_head_joint,4.739999999999987,-0.00019711576032399591
mouse_head_joint,4.7599999999999865,-0.00019735392367881133
mouse_head_joint,4.779999999999986,-0.00019747823315974244
mouse_head_joint,4.799999999999986,-0.00019733413225075935
mouse_head_joint,4.819999999999985,-0.000197567888712058
mouse_head_joint,4.839999999999985,-0.00019776841422114444
mouse_head_joint,4.859999999999984,-0.00019787827583606088
mouse_head_joint,4.879999999999984,-0.00019784374804654448
mouse_head_joint,4.8999999999999835,-0.000198068223440373
mouse_head_joint,4.919999999999983,-0.0001980456625565452
mouse_head_joint,4.939999999999983,-0.0001982427504909623
mouse_head_joint,4.959999999999982,-0.00019822075599851274
mouse_head_joint,4.979999999999982,-0.0001984376886836614
mouse_head_joint,4.999999999999981,-0.00019842550497006783
mouse_head_joint,5.019999999999981,-0.00019860534635096627
mouse_head_joint,5.0399999999999805,-0.00019858645994474955
mouse_head_joint,5.05999999999998,-0.0001986903401967055
mouse_head_joint,5.07999999999998,-0.00019876264354845574
mouse_head_joint,5.099999999999979,-0.00019886077622111031
mouse_head_joint,5.119999999999979,-0.0001991456074490472
mouse_head_joint,5.139999999999978,-0.00019920806513606948
mouse_head_joint,5.159999999999978,-0.00019926750054555242
mouse_head_joint,5.1799999999999775,-0.00019905207909864941
mouse_head_joint,5.199999999999977,-0.00019910522005872622
mouse_head_joint,5.219999999999977,-0.0001993274105549503
mouse_head_joint,5.239999999999976,-0.00019939966448845325
mouse_head_joint,5.259999999999976,-0.00019933037554231703
mouse_head_joint,5.279999999999975,-0.00019933344691658306
mouse_head_joint,5.299999999999975,-0.0001993712984580398
mouse_head_joint,5.3199999999999745,-0.00019950422164249915
mouse_head_joint,5.339999999999974,-0.0001994201652610883
mouse_head_joint,5.359999999999974,-0.00019944897708956688
mouse_head_joint,5.379999999999973,-0.0001994750198752726
mouse_head_joint,5.399999999999973,-0.00019951398109707696
mouse_head_joint,5.419999999999972,-0.00019953426266994256
mouse_head_joint,5.439999999999972,-0.00019967147193700185
mouse_head_joint,5.4599999999999715,-0.00019958848218948333
mouse_head_joint,5.479999999999971,-0.0001997201946810634
mouse_head_joint,5.499999999999971,-0.00019963240266829274
mouse_head_joint,5.51999999999997,-0.00019975722563270182
mouse_head_joint,5.53999999999997,-0.00019968859726837707
mouse_head_joint,5.559999999999969,-0.0001995785275283879
mouse_head_joint,5.579999999999969,-0.00019957668291592512
mouse_head_joint,5.599999999999969,-0.0001996826820729325
mouse_head_joint,5.619999999999968,-0.00019975693755469592
mouse_head_joint,5.639999999999968,-0.00019968328156760862
mouse_head_joint,5.659999999999967,-0.00019970332570729
mouse_head_joint,5.679999999999967,-0.00019965556928536188
mouse_head_joint,5.699999999999966,-0.00019951759208947095
mouse_head_joint,5.719999999999966,-0.00019949382081740907
mouse_head_joint,5.739999999999966,-0.0001994711382611314
mouse_head_joint,5.759999999999965,-0.00019945668574550268
mouse_head_joint,5.779999999999965,-0.0001995326344390591
mouse_head_joint,5.799999999999964,-0.00019939906923216455
mouse_head_joint,5.819999999999964,-0.00019948379952605677
mouse_head_joint,5.839999999999963,-0.00019934878518146348
mouse_head_joint,5.859999999999963,-0.00019944559647111504
mouse_head_joint,5.879999999999963,-0.00019940590865719088
mouse_head_joint,5.899999999999962,-0.00019945592255687927
mouse_head_joint,5.919999999999962,-0.00019929210303359923
mouse_head_joint,5.939999999999961,-0.00019924554590744492
mouse_head_joint,5.959999999999961,-0.00019914180119418035
mouse_head_joint,5.9799999999999605,-0.00019916979049394712
mouse_head_joint,5.99999999999996,-0.00019908014178682265
mouse_head_joint,6.01999999999996,-0.0001990244428444754
mouse_head_joint,6.039999999999959,-0.000198836186907414
mouse_head_joint,6.059999999999959,-0.00019874638914707532
mouse_head_joint,6.079999999999958,-0.0001986841232648473
mouse_head_joint,6.099999999999958,-0.0001986198137187145
mouse_head_joint,6.1199999999999575,-0.00019865775115945894
mouse_head_joint,6.139999999999957,-0.0001984763520717081
mouse_head_joint,6.159999999999957,-0.00019851744471033328
mouse_head_joint,6.179999999999956,-0.00019833892898812877
mouse_head_joint,6.199999999999956,-0.0001983917698353821
mouse_head_joint,6.219999999999955,-0.00019819980646840207
mouse_head_joint,6.239999999999955,-0.00019813450228500784
mouse_head_joint,6.2599999999999545,-0.00019813571379145856
mouse_head_joint,6.279999999999954,-0.00019817425575485714
mouse_head_joint,6.299999999999954,-0.0001980894499631347
mouse_head_joint,6.319999999999953,-0.0001977160862756122
mouse_head_joint,6.339999999999953,-0.00019762741018958252
mouse_head_joint,6.359999999999952,-0.0001977198988756257
mouse_head_joint,6.379999999999952,-0.00019762741785722682
mouse_head_joint,6.3999999999999515,-0.00019741246876225915
mouse_head_joint,6.419999999999951,-0.0001973961799137669
mouse_head_joint,6.439999999999951,-0.0001971656932440169
mouse_head_joint,6.45999999999995,-0.00019703191134112785
mouse_head_joint,6.47999999999995,-0.00019703255806557962
mouse_head_joint,6.499999999999949,-0.000196814385025057
mouse_head_joint,6.519999999999949,-0.00019681886249856007
mouse_head_joint,6.5399999999999485,-0.00019661324765785082
mouse_head_joint,6.559999999999948,-0.0001964954868336477
mouse_head_joint,6.579999999999948,-0.00019649785813591336
mouse_head_joint,6.599999999999947,-0.00019628154482820293
mouse_head_joint,6.619999999999947,-0.00019628073269828406
mouse_head_joint,6.639999999999946,-0.00019617376031266787
mouse_head_joint,6.659999999999946,-0.00019585452341619458
mouse_head_joint,6.6799999999999455,-0.00019602536758167588
mouse_head_joint,6.699999999999945,-0.00019571920193239833
mouse_head_joint,6.719999999999945,-0.00019559701402549479
mouse_head_joint,6.739999999999944,-0.0001954733106730444
mouse_head_joint,6.759999999999944,-0.0001953011468032173
mouse_head_joint,6.779999999999943,-0.00019525234778416944
mouse_head_joint,6.799999999999943,-0.00019498993459610148
mouse_head_joint,6.8199999999999426,-0.00019486000116675228
mouse_head_joint,6.839999999999942,-0.00019481752352312753
mouse_head_joint,6.859999999999942,-0.00019455841216942105
mouse_head_joint,6.879999999999941,-0.00019451654434821108
mouse_head_joint,6.899999999999941,-0.00019427252721015975
mouse_head_joint,6.91999999999994,-0.00019413416605740252
mouse_head_joint,6.93999999999994,-0.00019411261548984982
mouse_head_joint,6.95999999999994,-0.0001939722314743264
mouse_head_joint,6.979999999999939,-0.00019383050577914673
mouse_head_joint,6.999999999999939,-0.00019368745156445044
mouse_head_joint,7.019999999999938,-0.00019350990203559348
mouse_head_joint,7.039999999999938,-0.0001934887541956698
mouse_head_joint,7.059999999999937,-0.00019321670455330064
mouse_head_joint,7.079999999999937,-0.0001930681882802432
mouse_head_joint,7.099999999999937,-0.00019275062190704517
mouse_head_joint,7.119999999999936,-0.00019270223603307102
mouse_head_joint,7.139999999999936,-0.00019252906536770809
mouse_head_joint,7.159999999999935,-0.0001923463386175328
mouse_head_joint,7.179999999999935,-0.0001921324699711846
mouse_head_joint,7.1999999999999345,-0.00019206366242841
mouse_head_joint,7.219999999999934,-0.00019190614807396145
mouse_head_joint,7.239999999999934,-0.00019171921521188295
mouse_head_joint,7.259999999999933,-0.0001914419873676465
mouse_head_joint,7.279999999999933,-0.00019127732749790738
mouse_head_joint,7.299999999999932,-0.00019122470948129688
mouse_head_joint,7.319999999999932,-0.00019095141344926958
mouse_head_joint,7.3399999999999315,-0.00019090318155168262
mouse_head_joint,7.359999999999931,-0.00019073394591373471
mouse_head_joint,7.379999999999931,-0.0001905669677988442
mouse_head_joint,7.39999999999993,-0.00019048648642172594
mouse_head_joint,7.41999999999993,-0.00019023270134077563
mouse_head_joint,7.439999999999929,-0.00019002082828922795
mouse_head_joint,7.459999999999929,-0.0001898494112912985
mouse_head_joint,7.4799999999999285,-0.00018960987587934852
mouse_head_joint,7.499999999999928,-0.000189436337961979
mouse_head_joint,7.519999999999928,-0.00018928472908896765
mouse_head_joint,7.539999999999927,-0.00018903404971659654
mouse_head_joint,7.559999999999927,-0.0001887961467632593
mouse_head_joint,7.579999999999926,-0.00018861847536477683
mouse_head_joint,7.599999999999926,-0.00018839775613788134
mouse_head_joint,7.6199999999999255,-0.0001882180974321912
mouse_head_joint,7.639999999999925,-0.00018813533649275627
mouse_head_joint,7.659999999999925,-0.00018783563196755892
mouse_head_joint,7.679999999999924,-0.00018775840592155646
mouse_head_joint,7.699999999999924,-0.00018746506111178007
mouse_head_joint,7.719999999999923,-0.00018728059671424546
mouse_head_joint,7.739999999999923,-0.00018709525943272354
mouse_head_joint,7.7599999999999225,-0.0001869112591048605
mouse_head_joint,7.779999999999922,-0.00018672411795961352
mouse_head_joint,7.799999999999922,-0.00018659984566671284
mouse_head_joint,7.819999999999921,-0.00018653783532585066
mouse_head_joint,7.839999999999921,-0.00018615251304598956
mouse_head_joint,7.85999999999992,-0.00018596184852004427
mouse_head_joint,7.87999999999992,-0.00018577038564071557
mouse_head_joint,7.8999999999999195,-0.00018564986130886751
mouse_head_joint,7.919999999999919,-0.00018533100440176753
mouse_head_joint,7.939999999999919,-0.00018507391025845976
mouse_head_joint,7.959999999999918,-0.00018493241857964193
mouse_head_joint,7.979999999999918,-0.00018463993513062604
mouse_head_joint,7.999999999999917,-0.00018452622516118566
mouse_head_joint,8.019999999999918,-0.00018434343474815762
mouse_head_joint,8.039999999999917,-0.0001841312497496972
mouse_head_joint,8.059999999999917,-0.00018392866862271262
mouse_head_joint,8.079999999999917,-0.0001836219089215163
mouse_head_joint,8.099999999999916,-0.00018352933714638198
mouse_head_joint,8.119999999999916,-0.0001832206465381958
mouse_head_joint,8.139999999999915,-0.00018301988192703789
mouse_head_joint,8.159999999999915,-0.000182817773392685
mouse_head_joint,8.179999999999914,-0.00018267584257447567
mouse_head_joint,8.199999999999914,-0.00018240268466040988
mouse_head_joint,8.219999999999914,-0.00018226949256749947
mouse_head_joint,8.239999999999913,-0.00018189376674726532
mouse_head_joint,8.259999999999913,-0.00018178821011449742
mouse_head_joint,8.279999999999912,-0.00018152664862736145
mouse_head_joint,8.299999999999912,-0.000181255290063298
mouse_head_joint,8.319999999999911,-0.00018118530868971305
mouse_head_joint,8.339999999999911,-0.00018092416440662618
mouse_head_joint,8.35999999999991,-0.0001805864516919442
mouse_head_joint,8.37999999999991,-0.00018047331439952075
mouse_head_joint,8.39999999999991,-0.0001802480563544151
mouse_head_joint,8.41999999999991,-0.00018003775860986337
mouse_head_joint,8.439999999999909,-0.00017971507563441236
mouse_head_joint,8.459999999999908,-0.00017950370909325386
mouse_head_joint,8.479999999999908,-0.00017939687049395303
mouse_head_joint,8.499999999999908,-0.00017907759385238364
mouse_head_joint,8.519999999999907,-0.0001788640630815408
mouse_head_joint,8.539999999999907,-0.0001786505803584859
mouse_head_joint,8.559999999999906,-0.00017862320942718668
mouse_head_joint,8.579999999999906,-0.00017828051038826231
mouse_head_joint,8.599999999999905,-0.00017789578929505723
mouse_head_joint,8.619999999999905,-0.00017784993056579879
mouse_head_joint,8.639999999999905,-0.00017763395456071862
mouse_head_joint,8.659999999999904,-0.00017741753690980744
mouse_head_joint,8.679999999999904,-0.00017709142644228848
mouse_head_joint,8.699999999999903,-0.00017679059400066421
mouse_head_joint,8.719999999999903,-0.0001765728285487711
mouse_head_joint,8.739999999999903,-0.00017643803508438083
mouse_head_joint,8.759999999999902,-0.00017618536588859257
mouse_head_joint,8.779999999999902,-0.00017583793064801512
mouse_head_joint,8.799999999999901,-0.0001757243668780717
mouse_head_joint,8.8199999999999,-0.00017550448731729063
mouse_head_joint,8.8399999999999,-0.0001752842365316809
mouse_head_joint,8.8599999999999,-0.0001749551663738913
mouse_head_joint,8.8799999999999,-0.00017473419157010284
mouse_head_joint,8.899999999999899,-0.00017451140349233896
mouse_head_joint,8.919999999999899,-0.0001742896998564447
mouse_head_joint,8.939999999999898,-0.00017417245400963566
mouse_head_joint,8.959999999999898,-0.0001740302069839217
mouse_head_joint,8.979999999999897,-0.00017360824106305017
mouse_head_joint,8.999999999999897,-0.0001733851430607558
mouse_head_joint,9.019999999999897,-0.0001732314386364564
mouse_head_joint,9.039999999999896,-0.0001729515469666154
mouse_head_joint,9.059999999999896,-0.00017272747595420412
mouse_head_joint,9.079999999999895,-0.0001724482549496642
mouse_head_joint,9.099999999999895,-0.0001722235911634229
mouse_head_joint,9.119999999999894,-0.00017186936209512282
mouse_head_joint,9.139999999999894,-0.00017173886377541692
mouse_head_joint,9.159999999999894,-0.0001713942628445153
mouse_head_joint,9.179999999999893,-0.0001712706782397433
mouse_head_joint,9.199999999999893,-0.00017103798941064952
mouse_head_joint,9.219999999999892,-0.0001708117279344279
mouse_head_joint,9.239999999999892,-0.0001705852333646618
mouse_head_joint,9.259999999999891,-0.00017025009914029
mouse_head_joint,9.279999999999891,-0.0001700211166353327
mouse_head_joint,9.29999999999989,-0.00016979394374061485
mouse_head_joint,9.31999999999989,-0.0001697501660906653
mouse_head_joint,9.33999999999989,-0.0001692244400350873
mouse_head_joint,9.35999999999989,-0.0001689966087052852
mouse_head_joint,9.379999999999889,-0.0001687685882476586
mouse_head_joint,9.399999999999888,-0.0001687083157548841
mouse_head_joint,9.419999999999888,-0.0001684799061836273
mouse_head_joint,9.439999999999888,-0.00016812393684872973
mouse_head_joint,9.459999999999887,-0.00016796549658693039
mouse_head_joint,9.479999999999887,-0.00016768126894106672
mouse_head_joint,9.499999999999886,-0.0001673230636525247
mouse_head_joint,9.519999999999886,-0.0001671880613214327
mouse_head_joint,9.539999999999885,-0.00016683974454512196
mouse_head_joint,9.559999999999885,-0.00016671189067096748
mouse_head_joint,9.579999999999885,-0.00016648221198245494
mouse_head_joint,9.599999999999884,-0.00016624540818011013
mouse_head_joint,9.619999999999884,-0.00016601547668315675
mouse_head_joint,9.639999999999883,-0.0001658574244443045
mouse_head_joint,9.659999999999883,-0.00016544469826218489
mouse_head_joint,9.679999999999882,-0.00016531811581899092
mouse_head_joint,9.699999999999882,-0.0001651664992650126
mouse_head_joint,9.719999999999882,-0.0001648072297149028
mouse_head_joint,9.739999999999881,-0.00016440771807069154
mouse_head_joint,9.75999999999988,-0.00016427561578691297
mouse_head_joint,9.77999999999988,-0.00016398639871972875
mouse_head_joint,9.79999999999988,-0.0001637555923617029
mouse_head_joint,9.81999999999988,-0.00016352472055825018
mouse_head_joint,9.839999999999879,-0.00016336351919843395
mouse_head_joint,9.859999999999879,-0.00016307706475249262
mouse_head_joint,9.879999999999878,-0.00016271724266925247
mouse_head_joint,9.899999999999878,-0.00016248615010994172
mouse_head_joint,9.919999999999877,-0.000162230322173329
mouse_head_joint,9.939999999999877,-0.00016199915898162942
mouse_head_joint,9.959999999999877,-0.00016175783597738302
mouse_head_joint,9.979999999999876,-0.00016152662015489483
mouse_head_joint,9.999999999999876,-0.00016129179000223814
mouse_head_joint,10.019999999999875,-0.00016116501932561533
mouse_head_joint,10.039999999999875,-0.00016100824864384577
mouse_head_joint,10.059999999999874,-0.00016069874248625382
mouse_head_joint,10.079999999999874,-0.00016041688049117653
mouse_head_joint,10.099999999999874,-0.00016018556689179064
mouse_head_joint,10.119999999999873,-0.000159785905979426
mouse_head_joint,10.139999999999873,-0.0001596531528988976
mouse_head_joint,10.159999999999872,-0.0001594905787110079
mouse_head_joint,10.179999999999872,-0.00015913198997896671
mouse_head_joint,10.199999999999871,-0.00015897003511167185
mouse_head_joint,10.219999999999871,-0.0001586834449351926
mouse_head_joint,10.23999999999987,-0.0001584176074604926
mouse_head_joint,10.25999999999987,-0.00015818650201637752
mouse_head_joint,10.27999999999987,-0.00015782732893310225
mouse_head_joint,10.29999999999987,-0.00015772442364614392
mouse_head_joint,10.319999999999869,-0.00015737539942328738
mouse_head_joint,10.339999999999868,-0.00015724550703843931
mouse_head_joint,10.359999999999868,-0.00015690374460408663
mouse_head_joint,10.379999999999868,-0.00015677365788580033
mouse_head_joint,10.399999999999867,-0.0001564364270310037
mouse_head_joint,10.419999999999867,-0.00015631235692392664
mouse_head_joint,10.439999999999866,-0.0001560781744398554
mouse_head_joint,10.459999999999866,-0.00015592533934150055
mouse_head_joint,10.479999999999865,-0.00015569494436373787
mouse_head_joint,10.499999999999865,-0.0001553360674089177
mouse_head_joint,10.519999999999865,-0.0001550368105744937
mouse_head_joint,10.539999999999864,-0.00015487521980439567
mouse_head_joint,10.559999999999864,-0.0001545868805052919
mouse_head_joint,10.579999999999863,-0.00015428819003648897
mouse_head_joint,10.599999999999863,-0.00015412721344709723
mouse_head_joint,10.619999999999862,-0.00015384239402038702
mouse_head_joint,10.639999999999862,-0.00015348515047097777
mouse_head_joint,10.659999999999862,-0.00015334916002984755
mouse_head_joint,10.679999999999861,-0.00015311987989008458
mouse_head_joint,10.69999999999986,-0.00015277325479789994
mouse_head_joint,10.71999999999986,-0.00015264502410872183
mouse_head_joint,10.73999999999986,-0.0001524095249525459
mouse_head_joint,10.75999999999986,-0.00015218080427903402
mouse_head_joint,10.779999999999859,-0.0001519457068512864
mouse_head_joint,10.799999999999859,-0.00015161474610803083
mouse_head_joint,10.819999999999858,-0.0001514890313902839
mouse_head_joint,10.839999999999858,-0.0001513380392390573
mouse_head_joint,10.859999999999857,-0.00015081480697087812
mouse_head_joint,10.879999999999857,-0.0001507538792031582
mouse_head_joint,10.899999999999856,-0.00015045811811376097
mouse_head_joint,10.919999999999856,-0.00015029900843277488
mouse_head_joint,10.939999999999856,-0.00015007171898862026
mouse_head_joint,10.959999999999855,-0.0001497312792873018
mouse_head_joint,10.979999999999855,-0.0001494705258879847
mouse_head_joint,10.999999999999854,-0.00014927758894867083
mouse_head_joint,11.019999999999854,-0.00014892398605326207
mouse_head_joint,11.039999999999853,-0.00014879087638242083
mouse_head_joint,11.059999999999853,-0.0001485484778136481
mouse_head_joint,11.079999999999853,-0.0001482127438832137
mouse_head_joint,11.099999999999852,-0.00014798699640383717
mouse_head_joint,11.119999999999852,-0.00014775864434568575
mouse_head_joint,11.139999999999851,-0.00014753330848726876
mouse_head_joint,11.159999999999851,-0.0001473081708098789
mouse_head_joint,11.17999999999985,-0.0001471867912146152
mouse_head_joint,11.19999999999985,-0.00014695897324745744
mouse_head_joint,11.21999999999985,-0.00014681112316594636
mouse_head_joint,11.23999999999985,-0.0001464598847107368
mouse_head_joint,11.259999999999849,-0.00014623583699435727
mouse_head_joint,11.279999999999848,-0.00014601074784703627
mouse_head_joint,11.299999999999848,-0.00014572014835145808
mouse_head_joint,11.319999999999848,-0.0001455649943258308
mouse_head_joint,11.339999999999847,-0.00014521522562915834
mouse_head_joint,11.359999999999847,-0.00014506033127936746
mouse_head_joint,11.379999999999846,-0.00014478336980960904
mouse_head_joint,11.399999999999846,-0.00014456091040049301
mouse_head_joint,11.419999999999845,-0.0001441895227722867
mouse_head_joint,11.439999999999845,-0.0001440836656891875
mouse_head_joint,11.459999999999845,-0.0001437459310844602
mouse_head_joint,11.479999999999844,-0.00014351597206196942
mouse_head_joint,11.499999999999844,-0.00014329481174435443
mouse_head_joint,11.519999999999843,-0.0001431772258380093
mouse_head_joint,11.539999999999843,-0.00014285102571243158
mouse_head_joint,11.559999999999842,-0.00014273398226105627
mouse_head_joint,11.579999999999842,-0.0001424091967914265
mouse_head_joint,11.599999999999842,-0.00014229135960519557
mouse_head_joint,11.619999999999841,-0.00014202026927634392
mouse_head_joint,11.63999999999984,-0.00014180091798454697
mouse_head_joint,11.65999999999984,-0.00014151608802315252
mouse_head_joint,11.67999999999984,-0.00014129732703693776
mouse_head_joint,11.69999999999984,-0.00014114700490885923
mouse_head_joint,11.719999999999839,-0.00014081660399867246
mouse_head_joint,11.739999999999839,-0.0001405177682798353
mouse_head_joint,11.759999999999838,-0.00014030012314858453
mouse_head_joint,11.779999999999838,-0.00014003823781116864
mouse_head_joint,11.799999999999837,-0.00013991427283333024
mouse_head_joint,11.819999999999837,-0.0001395743848844333
mouse_head_joint,11.839999999999836,-0.0001394661905465
mouse_head_joint,11.859999999999836,-0.0001392500132242347
mouse_head_joint,11.879999999999836,-0.00013902917274410953
mouse_head_joint,11.899999999999835,-0.00013870881965960535
mouse_head_joint,11.919999999999835,-0.0001385967461953186
mouse_head_joint,11.939999999999834,-0.0001382778668208573
mouse_head_joint,11.959999999999834,-0.0001381135689948465
mouse_head_joint,11.979999999999833,-0.00013773522233240243
mouse_head_joint,11.999999999999833,-0.00013781247043542777
mouse_head_joint,12.019999999999833,-0.0001373075320705297
mouse_head_joint,12.039999999999832,-0.00013709413528584236
mouse_head_joint,12.059999999999832,-0.00013704865386809928
mouse_head_joint,12.079999999999831,-0.00013671007245985578
mouse_head_joint,12.099999999999831,-0.00013649762148926214
mouse_head_joint,12.11999999999983,-0.0001362191069231855
mouse_head_joint,12.13999999999983,-0.0001360881314589335
mouse_head_joint,12.15999999999983,-0.00013575210803828952
mouse_head_joint,12.17999999999983,-0.00013554096190038223
mouse_head_joint,12.199999999999829,-0.0001354231837495945
mouse_head_joint,12.219999999999828,-0.00013519868898370646
mouse_head_joint,12.239999999999828,-0.000134984289374529
mouse_head_joint,12.259999999999827,-0.00013477448619791943
mouse_head_joint,12.279999999999827,-0.00013446105716941048
mouse_head_joint,12.299999999999827,-0.0001342519375153728
mouse_head_joint,12.319999999999826,-0.0001341461377597497
mouse_head_joint,12.339999999999826,-0.00013393622358393031
mouse_head_joint,12.359999999999825,-0.0001335137761477867
mouse_head_joint,12.379999999999825,-0.0001333060412305187
mouse_head_joint,12.399999999999824,-0.0001330986348033747
mouse_head_joint,12.419999999999824,-0.000132991356988299
mouse_head_joint,12.439999999999824,-0.00013278462914456668
mouse_head_joint,12.459999999999823,-0.00013252101254312976
mouse_head_joint,12.479999999999823,-0.00013224912631937258
mouse_head_joint,12.499999999999822,-0.00013217639363816147
mouse_head_joint,12.519999999999822,-0.0001318381157524584
mouse_head_joint,12.539999999999822,-0.0001315903299117238
mouse_head_joint,12.559999999999821,-0.00013138571667070664
mouse_head_joint,12.57999999999982,-0.00013116110245459112
mouse_head_joint,12.59999999999982,-0.0001309572196639408
mouse_head_joint,12.61999999999982,-0.00013074753396846717
mouse_head_joint,12.63999999999982,-0.00013054424416214516
mouse_head_joint,12.659999999999819,-0.00013044454108346315
mouse_head_joint,12.679999999999819,-0.00013013906078018778
mouse_head_joint,12.699999999999818,-0.00013003983942461161
mouse_head_joint,12.719999999999818,-0.0001298373617641957
mouse_head_joint,12.739999999999817,-0.00012942295154161343
mouse_head_joint,12.759999999999817,-0.00012951004749783834
mouse_head_joint,12.779999999999816,-0.00012918304128373137
mouse_head_joint,12.799999999999816,-0.0001289213911412901
mouse_head_joint,12.819999999999816,-0.00012878964230278456
mouse_head_joint,12.839999999999815,-0.00012846532255661458
mouse_head_joint,12.859999999999815,-0.00012833306988646598
mouse_head_joint,12.879999999999814,-0.00012800224220210765
mouse_head_joint,12.899999999999814,-0.00012788462456292393
mouse_head_joint,12.919999999999813,-0.00012756404860247983
mouse_head_joint,12.939999999999813,-0.0001274595012699109
mouse_head_joint,12.959999999999813,-0.0001271498720347708
mouse_head_joint,12.979999999999812,-0.0001269477794663132
mouse_head_joint,12.999999999999812,-0.0001268568207191123
mouse_head_joint,13.019999999999811,-0.00012655532746119746
mouse_head_joint,13.03999999999981,-0.000126462520299242
mouse_head_joint,13.05999999999981,-0.0001262678272277995
mouse_head_joint,13.07999999999981,-0.0001260729175980302
mouse_head_joint,13.09999999999981,-0.0001258783558748533
mouse_head_joint,13.11999999999981,-0.00012575887187260548
mouse_head_joint,13.139999999999809,-0.00012543921750651776
mouse_head_joint,13.159999999999808,-0.00012524582783957072
mouse_head_joint,13.179999999999808,-0.00012489250092162507
mouse_head_joint,13.199999999999807,-0.0001248004835439076
mouse_head_joint,13.219999999999807,-0.0001246763842299714
mouse_head_joint,13.239999999999807,-0.000124254710206273
mouse_head_joint,13.259999999999806,-0.00012410430173925846
mouse_head_joint,13.279999999999806,-0.00012391329170302612
mouse_head_joint,13.299999999999805,-0.0001238033740227351
mouse_head_joint,13.319999999999805,-0.00012349162679914372
mouse_head_joint,13.339999999999804,-0.00012339485667567374
mouse_head_joint,13.359999999999804,-0.0001230940798198077
mouse_head_joint,13.379999999999804,-0.0001229007912444402
mouse_head_joint,13.399999999999803,-0.00012271219768766883
mouse_head_joint,13.419999999999803,-0.00012252558208381004
mouse_head_joint,13.439999999999802,-0.00012244103973291232
mouse_head_joint,13.459999999999802,-0.0001222529597093569
mouse_head_joint,13.479999999999801,-0.00012206666775060881
mouse_head_joint,13.499999999999801,-0.00012188005451729822
mouse_head_joint,13.5199999999998,-0.0001217680657275011
mouse_head_joint,13.5399999999998,-0.0001214568783902692
mouse_head_joint,13.5599999999998,-0.00012121331943504288
mouse_head_joint,13.5799999999998,-0.00012097264665644758
mouse_head_joint,13.599999999999799,-0.000120788070203659
mouse_head_joint,13.619999999999798,-0.00012067019117889544
mouse_head_joint,13.639999999999798,-0.00012035616431393947
mouse_head_joint,13.659999999999798,-0.00012025347511013251
mouse_head_joint,13.679999999999797,-0.00011994999360886993
mouse_head_joint,13.699999999999797,-0.00011986051215551186
mouse_head_joint,13.719999999999796,-0.00011967834145565348
mouse_head_joint,13.739999999999796,-0.0001193862816508684
mouse_head_joint,13.759999999999796,-0.00011930511418967171
mouse_head_joint,13.779999999999795,-0.00011902075947745061
mouse_head_joint,13.799999999999795,-0.00011894294899850166
mouse_head_joint,13.819999999999794,-0.00011876510882924407
mouse_head_joint,13.839999999999794,-0.00011848592814533987
mouse_head_joint,13.859999999999793,-0.00011840763506310026
mouse_head_joint,13.879999999999793,-0.0001183026271984744
mouse_head_joint,13.899999999999793,-0.00011812412360345803
mouse_head_joint,13.919999999999792,-0.00011766339775931556
mouse_head_joint,13.939999999999792,-0.00011748576895698193
mouse_head_joint,13.959999999999791,-0.0001174779978505569
mouse_head_joint,13.97999999999979,-0.000117177993685047
mouse_head_joint,13.99999999999979,-0.00011706762856622532
mouse_head_joint,14.01999999999979,-0.00011676235700175397
mouse_head_joint,14.03999999999979,-0.0001165479941214187
mouse_head_joint,14.059999999999789,-0.00011637285826537891
mouse_head_joint,14.079999999999789,-0.0001161981160020531
mouse_head_joint,14.099999999999788,-0.00011611686717039049
mouse_head_joint,14.119999999999788,-0.00011583370419820938
mouse_head_joint,14.139999999999787,-0.00011576035124249984
mouse_head_joint,14.159999999999787,-0.00011548486859158658
mouse_head_joint,14.179999999999787,-0.00011531930690011905
mouse_head_joint,14.199999999999786,-0.00011514338010165659
mouse_head_joint,14.219999999999786,-0.00011507385821918348
mouse_head_joint,14.239999999999785,-0.00011480394215368506
mouse_head_joint,14.259999999999785,-0.00011452750514973076
mouse_head_joint,14.279999999999784,-0.00011436372315110077
mouse_head_joint,14.299999999999784,-0.0001142352083665088
mouse_head_joint,14.319999999999784,-0.00011414527165154453
mouse_head_joint,14.339999999999783,-0.00011382624860090118
mouse_head_joint,14.359999999999783,-0.00011364837371008463
mouse_head_joint,14.379999999999782,-0.00011361119334729608
mouse_head_joint,14.399999999999782,-0.00011339792508202606
mouse_head_joint,14.419999999999781,-0.00011319560480060886
mouse_head_joint,14.439999999999781,-0.00011292620397895803
mouse_head_joint,14.45999999999978,-0.00011285315361853065
mouse_head_joint,14.47999999999978,-0.00011259877090274983
mouse_head_joint,14.49999999999978,-0.0001125374000894297
mouse_head_joint,14.51999999999978,-0.00011247414104786913
mouse_head_joint,14.539999999999779,-0.00011214063793474338
mouse_head_joint,14.559999999999778,-0.00011192385513236758
mouse_head_joint,14.579999999999778,-0.00011172625247546364
mouse_head_joint,14.599999999999778,-0.00011154901783250182
mouse_head_joint,14.619999999999777,-0.00011140472276860436
mouse_head_joint,14.639999999999777,-0.00011142482296566669
mouse_head_joint,14.659999999999776,-0.00011100953454334928
mouse_head_joint,14.679999999999776,-0.00011100907994521236
mouse_head_joint,14.699999999999775,-0.0001108194426615583
mouse_head_joint,14.719999999999775,-0.00011053645871594853
mouse_head_joint,14.739999999999775,-0.00011047541212239054
mouse_head_joint,14.759999999999774,-0.00011023713473790053
mouse_head_joint,14.779999999999774,-0.00010998031356113103
mouse_head_joint,14.799999999999773,-0.00011000854384946024
mouse_head_joint,14.819999999999773,-0.00010981267532450545
mouse_head_joint,14.839999999999772,-0.00010962335914577181
mouse_head_joint,14.859999999999772,-0.0001094825630634233
mouse_head_joint,14.879999999999772,-0.0001092791068471044
mouse_head_joint,14.899999999999771,-0.00010926058103954972
mouse_head_joint,14.91999999999977,-0.00010887995978148268
mouse_head_joint,14.93999999999977,-0.00010868656293805401
mouse_head_joint,14.95999999999977,-0.00010856017107840898
mouse_head_joint,14.97999999999977,-0.00010838487053632662
mouse_head_joint,14.999999999999769,-0.0001082513879708813
mouse_head_joint,15.019999999999769,-0.00010819493007829806
mouse_head_joint,15.039999999999768,-0.00010785752626762957
mouse_head_joint,15.059999999999768,-0.00010770675966220722
mouse_head_joint,15.079999999999767,-0.00010764488828574059
mouse_head_joint,15.099999999999767,-0.00010753108050565174
mouse_head_joint,15.119999999999767,-0.00010736949556111597
mouse_head_joint,15.139999999999766,-0.00010720204584568904
mouse_head_joint,15.159999999999766,-0.000106995201393012
mouse_head_joint,15.179999999999765,-0.00010686488102873426
mouse_head_joint,15.199999999999765,-0.0001065967873143947
mouse_head_joint,15.219999999999764,-0.00010653978054087077
mouse_head_joint,15.239999999999764,-0.00010624745885046138
mouse_head_joint,15.259999999999764,-0.00010609528861582618
mouse_head_joint,15.279999999999763,-0.00010600695876394894
mouse_head_joint,15.299999999999763,-0.00010589713051345484
mouse_head_joint,15.319999999999762,-0.00010573627954801879
mouse_head_joint,15.339999999999762,-0.0001056526701237459
mouse_head_joint,15.359999999999761,-0.00010549956077987588
mouse_head_joint,15.379999999999761,-0.00010516972928531487
mouse_head_joint,15.39999999999976,-0.00010507068889964444
mouse_head_joint,15.41999999999976,-0.0001049437503368722
mouse_head_joint,15.43999999999976,-0.00010475292079803467
mouse_head_joint,15.45999999999976,-0.00010478195599272766
mouse_head_joint,15.479999999999759,-0.00010466329078795411
mouse_head_joint,15.499999999999758,-0.00010441133718419593
mouse_head_joint,15.519999999999758,-0.00010411761400508368
mouse_head_joint,15.539999999999758,-0.00010407769910614206
mouse_head_joint,15.559999999999757,-0.00010382707827449877
mouse_head_joint,15.579999999999757,-0.00010371977189205239
mouse_head_joint,15.599999999999756,-0.00010347903734242436
mouse_head_joint,15.619999999999756,-0.0001034128020345193
mouse_head_joint,15.639999999999755,-0.00010332620113562285
mouse_head_joint,15.659999999999755,-0.00010316277610655789
mouse_head_joint,15.679999999999755,-0.00010295417314942767
mouse_head_joint,15.699999999999754,-0.0001029921972541814
mouse_head_joint,15.719999999999754,-0.0001026102477377222
mouse_head_joint,15.739999999999753,-0.00010257240409750068
mouse_head_joint,15.759999999999753,-0.00010243816106569881
mouse_head_joint,15.779999999999752,-0.0001022027417283411
mouse_head_joint,15.799999999999752,-0.0001021727975629716
mouse_head_joint,15.819999999999752,-0.00010213831292738007
mouse_head_joint,15.839999999999751,-0.00010178985739184299
mouse_head_joint,15.85999999999975,-0.0001016979483354774
mouse_head_joint,15.87999999999975,-0.0001014722547498792
mouse_head_joint,15.89999999999975,-0.00010142643658905826
mouse_head_joint,15.91999999999975,-0.00010123640448878035
mouse_head_joint,15.939999999999749,-0.00010100150991831924
mouse_head_joint,15.959999999999749,-0.00010106909585694268
mouse_head_joint,15.979999999999748,-0.00010077035171818238
mouse_head_joint,15.999999999999748,-0.00010070626199443211
mouse_head_joint,16.019999999999747,-0.00010050874304301516
mouse_head_joint,16.039999999999747,-0.00010043072879906134
mouse_head_joint,16.059999999999746,-0.0001002834541470321
mouse_head_joint,16.079999999999746,-0.00010010068986510134
mouse_head_joint,16.099999999999746,-0.00010001324556885294
mouse_head_joint,16.119999999999745,-9.989399855392378e-05
mouse_head_joint,16.139999999999745,-9.97699565008503e-05
mouse_head_joint,16.159999999999744,-9.974201479412415e-05
mouse_head_joint,16.179999999999744,-9.944716793341968e-05
mouse_head_joint,16.199999999999743,-9.935386391379808e-05
mouse_head_joint,16.219999999999743,-9.909970391408507e-05
mouse_head_joint,16.239999999999743,-9.896377500417941e-05
mouse_head_joint,16.259999999999742,-9.897604956066175e-05
mouse_head_joint,16.279999999999742,-9.879601955287143e-05
mouse_head_joint,16.29999999999974,-9.866314343742744e-05
mouse_head_joint,16.31999999999974,-9.851751862033353e-05
mouse_head_joint,16.33999999999974,-9.827373256054983e-05
mouse_head_joint,16.35999999999974,-9.819215315154395e-05
mouse_head_joint,16.37999999999974,-9.823341589054735e-05
mouse_head_joint,16.39999999999974,-9.786832052949279e-05
mouse_head_joint,16.41999999999974,-9.786952849921704e-05
mouse_head_joint,16.43999999999974,-9.75981067252718e-05
mouse_head_joint,16.459999999999738,-9.75052246632302e-05
mouse_head_joint,16.479999999999738,-9.748045780177961e-05
mouse_head_joint,16.499999999999737,-9.746573176361295e-05
mouse_head_joint,16.519999999999737,-9.724302300551102e-05
mouse_head_joint,16.539999999999736,-9.70942830349486e-05
mouse_head_joint,16.559999999999736,-9.684218797367805e-05
mouse_head_joint,16.579999999999735,-9.672760753076659e-05
mouse_head_joint,16.599999999999735,-9.663766167467003e-05
mouse_head_joint,16.619999999999735,-9.641762722800706e-05
mouse_head_joint,16.639999999999734,-9.643926897062727e-05
mouse_head_joint,16.659999999999734,-9.628803840922018e-05
mouse_head_joint,16.679999999999733,-9.616387380972924e-05
mouse_head_joint,16.699999999999733,-9.60813303478858e-05
mouse_head_joint,16.719999999999732,-9.60361553028477e-05
mouse_head_joint,16.739999999999732,-9.567950528666103e-05
mouse_head_joint,16.75999999999973,-9.568586753161412e-05
mouse_head_joint,16.77999999999973,-9.543149808433071e-05
mouse_head_joint,16.79999999999973,-9.543641103526568e-05
mouse_head_joint,16.81999999999973,-9.52274492176386e-05
mouse_head_joint,16.83999999999973,-9.531059407574816e-05
mouse_head_joint,16.85999999999973,-9.503214013140138e-05
mouse_head_joint,16.87999999999973,-9.48319707871903e-05
mouse_head_joint,16.89999999999973,-9.480673494444147e-05
mouse_head_joint,16.919999999999728,-9.459211006479507e-05
mouse_head_joint,16.939999999999728,-9.468675021473416e-05
mouse_head_joint,16.959999999999727,-9.444946806080878e-05
mouse_head_joint,16.979999999999727,-9.42698393187058e-05
mouse_head_joint,16.999999999999726,-9.411465380182449e-05
mouse_head_joint,17.019999999999726,-9.397137528743826e-05
mouse_head_joint,17.039999999999726,-9.399594823555901e-05
mouse_head_joint,17.059999999999725,-9.39568176017147e-05
mouse_head_joint,17.079999999999725,-9.371170963046183e-05
mouse_head_joint,17.099999999999724,-9.361998491019818e-05
mouse_head_joint,17.119999999999724,-9.348209753134995e-05
mouse_head_joint,17.139999999999723,-9.328541131203849e-05
mouse_head_joint,17.159999999999723,-9.328343282977158e-05
mouse_head_joint,17.179999999999723,-9.315186336600334e-05
mouse_head_joint,17.199999999999722,-9.30007295130153e-05
mouse_head_joint,17.21999999999972,-9.288660301098872e-05
mouse_head_joint,17.23999999999972,-9.269956630220122e-05
mouse_head_joint,17.25999999999972,-9.258146774815401e-05
mouse_head_joint,17.27999999999972,-9.268176084997748e-05
mouse_head_joint,17.29999999999972,-9.245072570784885e-05
mouse_head_joint,17.31999999999972,-9.227861812544091e-05
mouse_head_joint,17.33999999999972,-9.212954999604506e-05
mouse_head_joint,17.35999999999972,-9.209235266727234e-05
mouse_head_joint,17.37999999999972,-9.192461375828742e-05
mouse_head_joint,17.399999999999718,-9.19914547221623e-05
mouse_head_joint,17.419999999999717,-9.164929580940395e-05
mouse_head_joint,17.439999999999717,-9.166767117640973e-05
mouse_head_joint,17.459999999999717,-9.142848484522403e-05
mouse_head_joint,17.479999999999716,-9.134710898717202e-05
mouse_head_joint,17.499999999999716,-9.134146806566434e-05
mouse_head_joint,17.519999999999715,-9.108353384057466e-05
mouse_head_joint,17.539999999999715,-9.103379174035808e-05
mouse_head_joint,17.559999999999715,-9.101302226977026e-05
mouse_head_joint,17.579999999999714,-9.088250908462214e-05
mouse_head_joint,17.599999999999714,-9.068274884516114e-05
mouse_head_joint,17.619999999999713,-9.062153110495075e-05
mouse_head_joint,17.639999999999713,-9.052787907570803e-05
mouse_head_joint,17.659999999999712,-9.039853809689191e-05
mouse_head_joint,17.679999999999712,-9.023746940339805e-05
mouse_head_joint,17.69999999999971,-9.012719162981853e-05
mouse_head_joint,17.71999999999971,-9.00642686039177e-05
mouse_head_joint,17.73999999999971,-8.987728795961658e-05
mouse_head_joint,17.75999999999971,-8.980141435444011e-05
mouse_head_joint,17.77999999999971,-8.975578161063424e-05
mouse_head_joint,17.79999999999971,-8.968549120513813e-05
mouse_head_joint,17.81999999999971,-8.951840361870467e-05
mouse_head_joint,17.83999999999971,-8.943020558227488e-05
mouse_head_joint,17.859999999999708,-8.940936437262792e-05
mouse_head_joint,17.879999999999708,-8.933392177734589e-05
mouse_head_joint,17.899999999999707,-8.920835435155539e-05
mouse_head_joint,17.919999999999707,-8.899041339560654e-05
mouse_head_joint,17.939999999999706,-8.898305248283833e-05
mouse_head_joint,17.959999999999706,-8.89353985629171e-05
mouse_head_joint,17.979999999999706,-8.881151374851015e-05
mouse_head_joint,17.999999999999705,-8.874156729365978e-05
mouse_head_joint,18.019999999999705,-8.8572939752396e-05
mouse_head_joint,18.039999999999704,-8.846417063868017e-05
mouse_head_joint,18.059999999999704,-8.842044765522417e-05
mouse_head_joint,18.079999999999703,-8.838831205082442e-05
mouse_head_joint,18.099999999999703,-8.805993108484955e-05
mouse_head_joint,18.119999999999703,-8.801994858576023e-05
mouse_head_joint,18.139999999999702,-8.797012201977594e-05
mouse_head_joint,18.1599999999997,-8.78944291127226e-05
mouse_head_joint,18.1799999999997,-8.780144758091524e-05
mouse_head_joint,18.1999999999997,-8.78159918986654e-05
mouse_head_joint,18.2199999999997,-8.76287094460082e-05
mouse_head_joint,18.2399999999997,-8.7508459850838e-05
mouse_head_joint,18.2599999999997,-8.729740959001475e-05
mouse_head_joint,18.2799999999997,-8.72959281741359e-05
mouse_head_joint,18.2999999999997,-8.732234507036196e-05
mouse_head_joint,18.3199999999997,-8.710873257022911e-05
mouse_head_joint,18.339999999999698,-8.707211095249079e-05
mouse_head_joint,18.359999999999697,-8.682556326444768e-05
mouse_head_joint,18.379999999999697,-8.67110951725536e-05
mouse_head_joint,18.399999999999697,-8.675959044435189e-05
mouse_head_joint,18.419999999999696,-8.674271221309482e-05
mouse_head_joint,18.439999999999696,-8.652634756423083e-05
mouse_head_joint,18.459999999999695,-8.634613225133592e-05
mouse_head_joint,18.479999999999695,-8.632905182714978e-05
mouse_head_joint,18.499999999999694,-8.617403785837752e-05
mouse_head_joint,18.519999999999694,-8.618566252938109e-05
mouse_head_joint,18.539999999999694,-8.608764534923097e-05
mouse_head_joint,18.559999999999693,-8.596364272595025e-05
mouse_head_joint,18.579999999999693,-8.57938423308724e-05
mouse_head_joint,18.599999999999692,-8.570496704507491e-05
mouse_head_joint,18.619999999999692,-8.562004342316243e-05
mouse_head_joint,18.63999999999969,-8.557614768722743e-05
mouse_head_joint,18.65999999999969,-8.553307249137276e-05
mouse_head_joint,18.67999999999969,-8.550227734094307e-05
mouse_head_joint,18.69999999999969,-8.52616335684786e-05
mouse_head_joint,18.71999999999969,-8.515372992334846e-05
mouse_head_joint,18.73999999999969,-8.512094249812918e-05
mouse_head_joint,18.75999999999969,-8.519578078036716e-05
mouse_head_joint,18.77999999999969,-8.488024336106292e-05
mouse_head_joint,18.799999999999688,-8.491954628198073e-05
mouse_head_joint,18.819999999999688,-8.470790859060884e-05
mouse_head_joint,18.839999999999687,-8.466143630947442e-05
mouse_head_joint,18.859999999999687,-8.466735809697923e-05
mouse_head_joint,18.879999999999686,-8.45746614723808e-05
mouse_head_joint,18.899999999999686,-8.451733179093424e-05
mouse_head_joint,18.919999999999686,-8.429238561369345e-05
mouse_head_joint,18.939999999999685,-8.430333184428207e-05
mouse_head_joint,18.959999999999685,-8.423027169346398e-05
mouse_head_joint,18.979999999999684,-8.409179811152967e-05
mouse_head_joint,18.999999999999684,-8.39161599017757e-05
mouse_head_joint,19.019999999999683,-8.402803300988637e-05
mouse_head_joint,19.039999999999683,-8.387680837174116e-05
mouse_head_joint,19.059999999999683,-8.378534619524203e-05
mouse_head_joint,19.079999999999682,-8.365137153631963e-05
mouse_head_joint,19.09999999999968,-8.367377715323698e-05
mouse_head_joint,19.11999999999968,-8.348989275308583e-05
mouse_head_joint,19.13999999999968,-8.337046403639192e-05
mouse_head_joint,19.15999999999968,-8.327258026952222e-05
mouse_head_joint,19.17999999999968,-8.322048573550234e-05
mouse_head_joint,19.19999999999968,-8.32424930106157e-05
mouse_head_joint,19.21999999999968,-8.315488002708094e-05
mouse_head_joint,19.23999999999968,-8.299498688568718e-05
mouse_head_joint,19.25999999999968,-8.299752424445472e-05
mouse_head_joint,19.279999999999678,-8.289981674014513e-05
mouse_head_joint,19.299999999999677,-8.273292662952514e-05
mouse_head_joint,19.319999999999677,-8.279694464796705e-05
mouse_head_joint,19.339999999999677,-8.252920692530807e-05
mouse_head_joint,19.359999999999676,-8.253175683581304e-05
mouse_head_joint,19.379999999999676,-8.24994205217422e-05
mouse_head_joint,19.399999999999675,-8.232021092702269e-05
mouse_head_joint,19.419999999999675,-8.238424967821345e-05
mouse_head_joint,19.439999999999674,-8.231244905321233e-05
mouse_head_joint,19.459999999999674,-8.218424069816876e-05
mouse_head_joint,19.479999999999674,-8.201978600030913e-05
mouse_head_joint,19.499999999999673,-8.202927586520303e-05
mouse_head_joint,19.519999999999673,-8.197873427562286e-05
mouse_head_joint,19.539999999999672,-8.199032543476648e-05
mouse_head_joint,19.559999999999672,-8.182426008129795e-05
mouse_head_joint,19.57999999999967,-8.171807138879217e-05
mouse_head_joint,19.59999999999967,-8.167667583158789e-05
mouse_head_joint,19.61999999999967,-8.149063240558974e-05
mouse_head_joint,19.63999999999967,-8.142366668550949e-05
mouse_head_joint,19.65999999999967,-8.139504217208327e-05
mouse_head_joint,19.67999999999967,-8.12893329031894e-05
mouse_head_joint,19.69999999999967,-8.135013801968682e-05
mouse_head_joint,19.71999999999967,-8.111278198175143e-05
mouse_head_joint,19.739999999999668,-8.113393738540253e-05
mouse_head_joint,19.759999999999668,-8.10202733942944e-05
mouse_head_joint,19.779999999999667,-8.103767525380334e-05
mouse_head_joint,19.799999999999667,-8.080849876535012e-05
mouse_head_joint,19.819999999999666,-8.086112632543774e-05
mouse_head_joint,19.839999999999666,-8.066747438828514e-05
mouse_head_joint,19.859999999999665,-8.062544266795868e-05
mouse_head_joint,19.879999999999665,-8.057310659381756e-05
mouse_head_joint,19.899999999999665,-8.044385386973829e-05
mouse_head_joint,19.919999999999664,-8.047803859767555e-05
mouse_head_joint,19.939999999999664,-8.044052065958596e-05
mouse_head_joint,19.959999999999663,-8.026007764705412e-05
mouse_head_joint,19.979999999999663,-8.028451611519216e-05
mouse_head_joint,19.999999999999662,-8.017459080988942e-05
mouse_head_joint,20.019999999999662,-8.001444571181793e-05
mouse_head_joint,20.03999999999966,-8.002577112620202e-05
mouse_head_joint,20.05999999999966,-7.991901847148597e-05
mouse_head_joint,20.07999999999966,-7.983475760653391e-05
mouse_head_joint,20.09999999999966,-7.99079999262986e-05
mouse_head_joint,20.11999999999966,-7.966551973837e-05
mouse_head_joint,20.13999999999966,-7.962594312171944e-05
mouse_head_joint,20.15999999999966,-7.957264310576306e-05
mouse_head_joint,20.17999999999966,-7.959021129888555e-05
mouse_head_joint,20.19999999999966,-7.94523414864301e-05
mouse_head_joint,20.219999999999658,-7.950331188766313e-05
mouse_head_joint,20.239999999999657,-7.928051125993818e-05
mouse_head_joint,20.259999999999657,-7.931893371004861e-05
mouse_head_joint,20.279999999999657,-7.925201315117647e-05
mouse_head_joint,20.299999999999656,-7.920392802240883e-05
mouse_head_joint,20.319999999999656,-7.913893055189192e-05
mouse_head_joint,20.339999999999655,-7.903413096155276e-05
mouse_head_joint,20.359999999999655,-7.901162860690647e-05
mouse_head_joint,20.379999999999654,-7.895362176402188e-05
mouse_head_joint,20.399999999999654,-7.878007405448528e-05
mouse_head_joint,20.419999999999654,-7.872531356234447e-05
mouse_head_joint,20.439999999999653,-7.869165998464211e-05
mouse_head_joint,20.459999999999653,-7.880012191385788e-05
mouse_head_joint,20.479999999999652,-7.861906678119368e-05
