Name,time,Position
mouse_head_joint,0.0,0.0
mouse_head_joint,0.02,0.0
mouse_head_joint,0.04,0.0
mouse_head_joint,0.06,0.0
mouse_head_joint,0.08,0.0
mouse_head_joint,0.1,0.0
mouse_head_joint,0.12000000000000001,0.0
mouse_head_joint,0.14,0.0
mouse_head_joint,0.16,0.0
mouse_head_joint,0.18,0.0
mouse_head_joint,0.19999999999999998,8.701780469877463e-05
mouse_head_joint,0.21999999999999997,-0.0019383634625862456
mouse_head_joint,0.23999999999999996,-0.00019618625139283807
mouse_head_joint,0.25999999999999995,2.7684641790592934e-05
mouse_head_joint,0.27999999999999997,7.04142522689466e-06
mouse_head_joint,0.3,6.495466912781467e-06
mouse_head_joint,0.32,-6.79851977380963e-06
mouse_head_joint,0.34,-7.645346227214134e-06
mouse_head_joint,0.36000000000000004,-8.531858064486642e-06
mouse_head_joint,0.38000000000000006,-9.969126518072358e-06
mouse_head_joint,0.4000000000000001,-1.1259087242976307e-05
mouse_head_joint,0.4200000000000001,-1.2660964858746127e-05
mouse_head_joint,0.4400000000000001,-1.4233680885489264e-05
mouse_head_joint,0.46000000000000013,-1.592259072324964e-05
mouse_head_joint,0.48000000000000015,-1.763545362543084e-05
mouse_head_joint,0.5000000000000001,-1.9375649544350892e-05
mouse_head_joint,0.5200000000000001,-2.1159156720962358e-05
mouse_head_joint,0.5400000000000001,-2.291601324522219e-05
mouse_head_joint,0.5600000000000002,-2.4728116025052316e-05
mouse_head_joint,0.5800000000000002,-2.6501549779567313e-05
mouse_head_joint,0.6000000000000002,-2.8419063714757442e-05
mouse_head_joint,0.6200000000000002,-2.9905893860870947e-05
mouse_head_joint,0.6400000000000002,-3.158938401259803e-05
mouse_head_joint,0.6600000000000003,-3.34666350649826e-05
mouse_head_joint,0.6800000000000003,-3.5257157608548084e-05
mouse_head_joint,0.7000000000000003,-3.690995933514074e-05
mouse_head_joint,0.7200000000000003,-3.884110268259633e-05
mouse_head_joint,0.7400000000000003,-4.048848855742193e-05
mouse_head_joint,0.7600000000000003,-4.212652774793213e-05
mouse_head_joint,0.7800000000000004,-4.393629718979497e-05
mouse_head_joint,0.8000000000000004,-4.555284374863078e-05
mouse_head_joint,0.8200000000000004,-4.7177388252883645e-05
mouse_head_joint,0.8400000000000004,-4.894363781282607e-05
mouse_head_joint,0.8600000000000004,-5.054544931404337e-05
mouse_head_joint,0.8800000000000004,-5.230655139687457e-05
mouse_head_joint,0.9000000000000005,-5.4051114894093644e-05
mouse_head_joint,0.9200000000000005,-5.5587192524519935e-05
mouse_head_joint,0.9400000000000005,-5.730629238520635e-05
mouse_head_joint,0.9600000000000005,-5.88335032922771e-05
mouse_head_joint,0.9800000000000005,-6.0486403286041934e-05
mouse_head_joint,1.0000000000000004,-6.210654141547423e-05
mouse_head_joint,1.0200000000000005,-6.370275373068779e-05
mouse_head_joint,1.0400000000000005,-6.507988478698934e-05
mouse_head_joint,1.0600000000000005,-6.668370304119264e-05
mouse_head_joint,1.0800000000000005,-6.824897339718916e-05
mouse_head_joint,1.1000000000000005,-6.982558536705596e-05
mouse_head_joint,1.1200000000000006,-7.110469265558805e-05
mouse_head_joint,1.1400000000000006,-7.268672063709403e-05
mouse_head_joint,1.1600000000000006,-7.42370035462514e-05
mouse_head_joint,1.1800000000000006,-7.580430298226304e-05
mouse_head_joint,1.2000000000000006,-7.702794528174906e-05
mouse_head_joint,1.2200000000000006,-7.857123678256528e-05
mouse_head_joint,1.2400000000000007,-7.993871754141679e-05
mouse_head_joint,1.2600000000000007,-8.147080462261869e-05
mouse_head_joint,1.2800000000000007,-8.280543394434403e-05
mouse_head_joint,1.3000000000000007,-8.430127896286166e-05
mouse_head_joint,1.3200000000000007,-8.593822998115286e-05
mouse_head_joint,1.3400000000000007,-8.710854015259173e-05
mouse_head_joint,1.3600000000000008,-8.850671591709158e-05
mouse_head_joint,1.3800000000000008,-8.972639912130376e-05
mouse_head_joint,1.4000000000000008,-9.10059353245174e-05
mouse_head_joint,1.4200000000000008,-9.245218677644829e-05
mouse_head_joint,1.4400000000000008,-9.384281445168341e-05
mouse_head_joint,1.4600000000000009,-9.504527712866917e-05
mouse_head_joint,1.4800000000000009,-9.652255654124531e-05
mouse_head_joint,1.5000000000000009,-9.774844745180644e-05
mouse_head_joint,1.520000000000001,-9.896429344280477e-05
mouse_head_joint,1.540000000000001,-0.0001002591924255114
mouse_head_joint,1.560000000000001,-0.00010162270439728616
mouse_head_joint,1.580000000000001,-0.00010263702975255029
mouse_head_joint,1.600000000000001,-0.00010398019392976465
mouse_head_joint,1.620000000000001,-0.000105114403851303
mouse_head_joint,1.640000000000001,-0.00010641044958692447
mouse_head_joint,1.660000000000001,-0.0001076945396709661
mouse_head_joint,1.680000000000001,-0.0001088267358442252
mouse_head_joint,1.700000000000001,-0.00011025667707809106
mouse_head_joint,1.720000000000001,-0.00011122396489771091
mouse_head_joint,1.740000000000001,-0.00011249405622937303
mouse_head_joint,1.7600000000000011,-0.00011341814608201162
mouse_head_joint,1.7800000000000011,-0.00011450116742928174
mouse_head_joint,1.8000000000000012,-0.00011574170606820644
mouse_head_joint,1.8200000000000012,-0.00011693278267621565
mouse_head_joint,1.8400000000000012,-0.00011792984378988791
mouse_head_joint,1.8600000000000012,-0.0001191062122494202
mouse_head_joint,1.8800000000000012,-0.00012022203697803491
mouse_head_joint,1.9000000000000012,-0.00012124730609741619
mouse_head_joint,1.9200000000000013,-0.00012220654104844186
mouse_head_joint,1.9400000000000013,-0.00012348386195526473
mouse_head_joint,1.9600000000000013,-0.00012448022301647654
mouse_head_joint,1.9800000000000013,-0.00012546773389399135
mouse_head_joint,2.0000000000000013,-0.00012640285404064144
mouse_head_joint,2.0200000000000014,-0.0001274949023191141
mouse_head_joint,2.0400000000000014,-0.0001284546181095081
mouse_head_joint,2.0600000000000014,-0.00012968850348915595
mouse_head_joint,2.0800000000000014,-0.0001306297565726311
mouse_head_joint,2.1000000000000014,-0.00013169720627193016
mouse_head_joint,2.1200000000000014,-0.00013255349112384351
mouse_head_joint,2.1400000000000015,-0.0001334685050347062
mouse_head_joint,2.1600000000000015,-0.00013427062666604428
mouse_head_joint,2.1800000000000015,-0.0001353259119944994
mouse_head_joint,2.2000000000000015,-0.00013639499513296016
mouse_head_joint,2.2200000000000015,-0.00013727456015111272
mouse_head_joint,2.2400000000000015,-0.00013806991785791922
mouse_head_joint,2.2600000000000016,-0.000138932586541074
mouse_head_joint,2.2800000000000016,-0.0001398563073014003
mouse_head_joint,2.3000000000000016,-0.0001408510141525099
mouse_head_joint,2.3200000000000016,-0.0001416882557423449
mouse_head_joint,2.3400000000000016,-0.00014261253810232688
mouse_head_joint,2.3600000000000017,-0.0001433787992777269
mouse_head_joint,2.3800000000000017,-0.00014434838576704578
mouse_head_joint,2.4000000000000017,-0.00014510032935621808
mouse_head_joint,2.4200000000000017,-0.0001461565011924293
mouse_head_joint,2.4400000000000017,-0.00014678822468550123
mouse_head_joint,2.4600000000000017,-0.00014756774366908587
mouse_head_joint,2.4800000000000018,-0.00014862322850195397
mouse_head_joint,2.5000000000000018,-0.00014931048118516088
mouse_head_joint,2.520000000000002,-0.00014995111047788612
mouse_head_joint,2.540000000000002,-0.00015084867165704452
mouse_head_joint,2.560000000000002,-0.00015158860485797732
mouse_head_joint,2.580000000000002,-0.000152360228907078
mouse_head_joint,2.600000000000002,-0.00015320425543396965
mouse_head_joint,2.620000000000002,-0.0001538351782146563
mouse_head_joint,2.640000000000002,-0.00015459734115719215
mouse_head_joint,2.660000000000002,-0.00015544099627007313
mouse_head_joint,2.680000000000002,-0.00015613462959862545
mouse_head_joint,2.700000000000002,-0.0001569005192161299
mouse_head_joint,2.720000000000002,-0.00015751593640711548
mouse_head_joint,2.740000000000002,-0.00015818712324655593
mouse_head_joint,2.760000000000002,-0.00015900230311505226
mouse_head_joint,2.780000000000002,-0.00015959804886556128
mouse_head_joint,2.800000000000002,-0.00016039813462231933
mouse_head_joint,2.820000000000002,-0.0001611283248399431
mouse_head_joint,2.840000000000002,-0.0001617632415022996
mouse_head_joint,2.860000000000002,-0.00016251479459317153
mouse_head_joint,2.880000000000002,-0.0001630517290998057
mouse_head_joint,2.900000000000002,-0.00016366580887439142
mouse_head_joint,2.920000000000002,-0.00016414831055122647
mouse_head_joint,2.940000000000002,-0.0001648907873628147
mouse_head_joint,2.960000000000002,-0.00016553004985464526
mouse_head_joint,2.980000000000002,-0.00016609610677775777
mouse_head_joint,3.000000000000002,-0.00016678923708113302
mouse_head_joint,3.0200000000000022,-0.00016739229271323097
mouse_head_joint,3.0400000000000023,-0.00016795831628790836
mouse_head_joint,3.0600000000000023,-0.00016843054183102169
mouse_head_joint,3.0800000000000023,-0.00016904107258319812
mouse_head_joint,3.1000000000000023,-0.00016972959764061102
mouse_head_joint,3.1200000000000023,-0.00017019734948053866
mouse_head_joint,3.1400000000000023,-0.0001707302566620328
mouse_head_joint,3.1600000000000024,-0.00017133266947055859
mouse_head_joint,3.1800000000000024,-0.00017199726690275696
mouse_head_joint,3.2000000000000024,-0.00017258521061247478
mouse_head_joint,3.2200000000000024,-0.0001730921828055898
mouse_head_joint,3.2400000000000024,-0.0001737111760986565
mouse_head_joint,3.2600000000000025,-0.00017420593778894045
mouse_head_joint,3.2800000000000025,-0.00017460723098938757
mouse_head_joint,3.3000000000000025,-0.00017495331607264575
mouse_head_joint,3.3200000000000025,-0.0001755653401360746
mouse_head_joint,3.3400000000000025,-0.00017615729361963872
mouse_head_joint,3.3600000000000025,-0.00017651299622922778
mouse_head_joint,3.3800000000000026,-0.00017697738747557423
mouse_head_joint,3.4000000000000026,-0.00017754827326310618
mouse_head_joint,3.4200000000000026,-0.00017790001079998063
mouse_head_joint,3.4400000000000026,-0.00017847017025118816
mouse_head_joint,3.4600000000000026,-0.00017890442541279583
mouse_head_joint,3.4800000000000026,-0.00017924777222511068
mouse_head_joint,3.5000000000000027,-0.0001798072893191005
mouse_head_joint,3.5200000000000027,-0.00018028499091116146
mouse_head_joint,3.5400000000000027,-0.00018075988294086187
mouse_head_joint,3.5600000000000027,-0.0001810899579357539
mouse_head_joint,3.5800000000000027,-0.0001814894844027748
mouse_head_joint,3.6000000000000028,-0.0001820212842913449
mouse_head_joint,3.6200000000000028,-0.00018240995774654323
mouse_head_joint,3.640000000000003,-0.00018280918045832095
mouse_head_joint,3.660000000000003,-0.00018304770037946838
mouse_head_joint,3.680000000000003,-0.00018364921192670636
mouse_head_joint,3.700000000000003,-0.00018401576634730077
mouse_head_joint,3.720000000000003,-0.0001842809819194713
mouse_head_joint,3.740000000000003,-0.0001847400389198839
mouse_head_joint,3.760000000000003,-0.00018498296984414964
mouse_head_joint,3.780000000000003,-0.00018532849109220706
mouse_head_joint,3.800000000000003,-0.00018580705650794727
mouse_head_joint,3.820000000000003,-0.00018601700793663412
mouse_head_joint,3.840000000000003,-0.00018638068854581746
mouse_head_joint,3.860000000000003,-0.00018670546884624883
mouse_head_joint,3.880000000000003,-0.00018720724145993017
mouse_head_joint,3.900000000000003,-0.0001874403405839331
mouse_head_joint,3.920000000000003,-0.00018783126247257087
mouse_head_joint,3.940000000000003,-0.00018818873506187828
mouse_head_joint,3.960000000000003,-0.00018848842435836843
mouse_head_joint,3.980000000000003,-0.0001888349125165334
mouse_head_joint,4.000000000000003,-0.0001891312997877037
mouse_head_joint,4.020000000000002,-0.00018951833292124576
mouse_head_joint,4.040000000000002,-0.0001895514386802688
mouse_head_joint,4.060000000000001,-0.000189951926157228
mouse_head_joint,4.080000000000001,-0.0001903171464814335
mouse_head_joint,4.1000000000000005,-0.0001904817448723506
mouse_head_joint,4.12,-0.00019074306266908536
mouse_head_joint,4.14,-0.00019098486899071787
mouse_head_joint,4.159999999999999,-0.0001913459428992681
mouse_head_joint,4.179999999999999,-0.00019159341980135025
mouse_head_joint,4.199999999999998,-0.00019185070341620758
mouse_head_joint,4.219999999999998,-0.00019199273765213576
mouse_head_joint,4.2399999999999975,-0.00019222663075968427
mouse_head_joint,4.259999999999997,-0.00019258341453198824
mouse_head_joint,4.279999999999997,-0.00019271875513560133
mouse_head_joint,4.299999999999996,-0.00019298297566905376
mouse_head_joint,4.319999999999996,-0.0001933293323732599
mouse_head_joint,4.339999999999995,-0.00019354127678639088
mouse_head_joint,4.359999999999995,-0.00019379149651221894
mouse_head_joint,4.379999999999995,-0.000193992670233456
mouse_head_joint,4.399999999999994,-0.0001940419970676288
mouse_head_joint,4.419999999999994,-0.0001943865759024277
mouse_head_joint,4.439999999999993,-0.00019453337297292705
mouse_head_joint,4.459999999999993,-0.00019473471309083834
mouse_head_joint,4.479999999999992,-0.00019487893446612503
mouse_head_joint,4.499999999999992,-0.00019516224204441102
mouse_head_joint,4.519999999999992,-0.00019523113429098515
mouse_head_joint,4.539999999999991,-0.00019539611097485476
mouse_head_joint,4.559999999999991,-0.00019567274065401818
mouse_head_joint,4.57999999999999,-0.00019584084431834015
mouse_head_joint,4.59999999999999,-0.00019589845415346474
mouse_head_joint,4.6199999999999894,-0.0001961763295019736
mouse_head_joint,4.639999999999989,-0.00019623294100057365
mouse_head_joint,4.659999999999989,-0.00019637974063346775
mouse_head_joint,4.679999999999988,-0.00019664896809423738
mouse_head_joint,4.699999999999988,-0.00019682356345285257
mouse_head_joint,4.719999999999987,-0.0001968687864151164
mouse_head_joint,4.739999999999987,-0.0001970004685070137
mouse_head_joint,4.7599999999999865,-0.00019725325717789843
mouse_head_joint,4.779999999999986,-0.000197213670909413
mouse_head_joint,4.799999999999986,-0.00019733413225075935
mouse_head_joint,4.819999999999985,-0.000197451149190897
mouse_head_joint,4.839999999999985,-0.00019776841422114444
mouse_head_joint,4.859999999999984,-0.00019787827583606088
mouse_head_joint,4.879999999999984,-0.00019787476647525892
mouse_head_joint,4.8999999999999835,-0.0001979463634036449
mouse_head_joint,4.919999999999983,-0.00019814566192355443
mouse_head_joint,4.939999999999983,-0.00019825717204557947
mouse_head_joint,4.959999999999982,-0.00019822075599851274
mouse_head_joint,4.979999999999982,-0.00019842235317213408
mouse_head_joint,4.999999999999981,-0.00019842550497006783
mouse_head_joint,5.019999999999981,-0.00019850756569272932
mouse_head_joint,5.0399999999999805,-0.00019858645994474955
mouse_head_joint,5.05999999999998,-0.000198813372053408
mouse_head_joint,5.07999999999998,-0.00019888551614055672
mouse_head_joint,5.099999999999979,-0.0001989545665015413
mouse_head_joint,5.119999999999979,-0.0001990480623286217
mouse_head_joint,5.139999999999978,-0.00019909407984464167
mouse_head_joint,5.159999999999978,-0.0001991533563892034
mouse_head_joint,5.1799999999999775,-0.00019905207909864941
mouse_head_joint,5.199999999999977,-0.00019921861102645266
mouse_head_joint,5.219999999999977,-0.0001992396691212761
mouse_head_joint,5.239999999999976,-0.00019939966448845325
mouse_head_joint,5.259999999999976,-0.00019933037554231703
mouse_head_joint,5.279999999999975,-0.00019945867931880912
mouse_head_joint,5.299999999999975,-0.00019946935649262088
mouse_head_joint,5.3199999999999745,-0.0001993865289584562
mouse_head_joint,5.339999999999974,-0.0001994201652610883
mouse_head_joint,5.359999999999974,-0.00019955686635242387
mouse_head_joint,5.379999999999973,-0.0001994750198752726
mouse_head_joint,5.399999999999973,-0.00019961492248476986
mouse_head_joint,5.419999999999972,-0.00019965403488697575
mouse_head_joint,5.439999999999972,-0.00019969390567808887
mouse_head_joint,5.4599999999999715,-0.00019958848218948333
mouse_head_joint,5.479999999999971,-0.0001997201946810634
mouse_head_joint,5.499999999999971,-0.00019975094180235686
mouse_head_joint,5.51999999999997,-0.00019973477616286317
mouse_head_joint,5.53999999999997,-0.00019985526759747074
mouse_head_joint,5.559999999999969,-0.00019977081927713414
mouse_head_joint,5.579999999999969,-0.00019957668291592512
mouse_head_joint,5.599999999999969,-0.0001996826820729325
mouse_head_joint,5.619999999999968,-0.00019975693755469592
mouse_head_joint,5.639999999999968,-0.00019963109561071946
mouse_head_joint,5.659999999999967,-0.00019970332570729
mouse_head_joint,5.679999999999967,-0.000199560296429091
mouse_head_joint,5.699999999999966,-0.00019951759208947095
mouse_head_joint,5.719999999999966,-0.00019949382081740907
mouse_head_joint,5.739999999999966,-0.0001994711382611314
mouse_head_joint,5.759999999999965,-0.00019944608817556997
mouse_head_joint,5.779999999999965,-0.00019954629854623818
mouse_head_joint,5.799999999999964,-0.00019939906923216455
mouse_head_joint,5.819999999999964,-0.00019938359611693102
mouse_head_joint,5.839999999999963,-0.0001994660830897388
mouse_head_joint,5.859999999999963,-0.0001994288815367895
mouse_head_joint,5.879999999999963,-0.00019940590865719088
mouse_head_joint,5.899999999999962,-0.00019917374108313624
mouse_head_joint,5.919999999999962,-0.00019929210303359923
mouse_head_joint,5.939999999999961,-0.00019908259626610914
mouse_head_joint,5.959999999999961,-0.00019903375514029875
mouse_head_joint,5.9799999999999605,-0.00019905137775566573
mouse_head_joint,5.99999999999996,-0.00019899791253941146
mouse_head_joint,6.01999999999996,-0.001526682602834839
mouse_head_joint,6.039999999999959,-0.004619609439313166
mouse_head_joint,6.059999999999959,-0.006732416746798364
mouse_head_joint,6.079999999999958,-0.012308602865449103
mouse_head_joint,6.099999999999958,-0.016486983682933776
mouse_head_joint,6.1199999999999575,-0.017705621785119696
mouse_head_joint,6.139999999999957,-0.019041117133737906
mouse_head_joint,6.159999999999957,-0.020721110661729547
mouse_head_joint,6.179999999999956,-0.022689634715974627
mouse_head_joint,6.199999999999956,-0.022952294397520667
mouse_head_joint,6.219999999999955,-0.02298548062967498
mouse_head_joint,6.239999999999955,-0.023736207699210254
mouse_head_joint,6.2599999999999545,-0.02547419626318792
mouse_head_joint,6.279999999999954,-0.02748764086077138
mouse_head_joint,6.299999999999954,-0.028844612006349024
mouse_head_joint,6.319999999999953,-0.02901840071993611
mouse_head_joint,6.339999999999953,-0.03076045026711327
mouse_head_joint,6.359999999999952,-0.034371692255939834
mouse_head_joint,6.379999999999952,-0.038025977527190946
mouse_head_joint,6.3999999999999515,-0.04121814184465045
mouse_head_joint,6.419999999999951,-0.04190888994519604
mouse_head_joint,6.439999999999951,-0.04358228556147381
mouse_head_joint,6.45999999999995,-0.04901489082751809
mouse_head_joint,6.47999999999995,-0.05390739183431137
mouse_head_joint,6.499999999999949,-0.056355373947484466
mouse_head_joint,6.519999999999949,-0.05996886515939437
mouse_head_joint,6.5399999999999485,-0.06543463595619414
mouse_head_joint,6.559999999999948,-0.06891947595881831
mouse_head_joint,6.579999999999948,-0.06944189462603134
mouse_head_joint,6.599999999999947,-0.07195376872407344
mouse_head_joint,6.619999999999947,-0.07871333517593548
mouse_head_joint,6.639999999999946,-0.08173687155718667
mouse_head_joint,6.659999999999946,-0.08214158930337412
mouse_head_joint,6.6799999999999455,-0.08214588708303783
mouse_head_joint,6.699999999999945,-0.08209485647924186
mouse_head_joint,6.719999999999945,-0.08281376368748905
mouse_head_joint,6.739999999999944,-0.08650212418726344
mouse_head_joint,6.759999999999944,-0.09053071205592733
mouse_head_joint,6.779999999999943,-0.09321106417010494
mouse_head_joint,6.799999999999943,-0.09446719651994417
mouse_head_joint,6.8199999999999426,-0.09614314400516744
mouse_head_joint,6.839999999999942,-0.09758355162481092
mouse_head_joint,6.859999999999942,-0.09897775718277213
mouse_head_joint,6.879999999999941,-0.09989742007441027
mouse_head_joint,6.899999999999941,-0.10126679447623577
mouse_head_joint,6.91999999999994,-0.10253096332457456
mouse_head_joint,6.93999999999994,-0.10446218472824942
mouse_head_joint,6.95999999999994,-0.10465026320285009
mouse_head_joint,6.979999999999939,-0.10671866945791564
mouse_head_joint,6.999999999999939,-0.1127531677051028
mouse_head_joint,7.019999999999938,-0.11701028566906224
mouse_head_joint,7.039999999999938,-0.11800559190219317
mouse_head_joint,7.059999999999937,-0.11896697314340265
mouse_head_joint,7.079999999999937,-0.12162590613970536
mouse_head_joint,7.099999999999937,-0.12740174901928114
mouse_head_joint,7.119999999999936,-0.1345017471483292
mouse_head_joint,7.139999999999936,-0.14061001304949627
mouse_head_joint,7.159999999999935,-0.14200809390571756
mouse_head_joint,7.179999999999935,-0.143235777559223
mouse_head_joint,7.1999999999999345,-0.14407641844830543
mouse_head_joint,7.219999999999934,-0.14524905117567677
mouse_head_joint,7.239999999999934,-0.15219406572101235
mouse_head_joint,7.259999999999933,-0.15825005074725418
mouse_head_joint,7.279999999999933,-0.16390588301788078
mouse_head_joint,7.299999999999932,-0.1692668238446231
mouse_head_joint,7.319999999999932,-0.1718760236678225
mouse_head_joint,7.3399999999999315,-0.17665461015444883
mouse_head_joint,7.359999999999931,-0.1813269461401159
mouse_head_joint,7.379999999999931,-0.182093279238277
mouse_head_joint,7.39999999999993,-0.18300911646161389
mouse_head_joint,7.41999999999993,-0.18639143041746387
mouse_head_joint,7.439999999999929,-0.19153644613830245
mouse_head_joint,7.459999999999929,-0.1943095440621967
mouse_head_joint,7.4799999999999285,-0.1975748631969223
mouse_head_joint,7.499999999999928,-0.1997536037124492
mouse_head_joint,7.519999999999928,-0.20403473611948097
mouse_head_joint,7.539999999999927,-0.20761983486382452
mouse_head_joint,7.559999999999927,-0.20794666736177891
mouse_head_joint,7.579999999999926,-0.21047722063353902
mouse_head_joint,7.599999999999926,-0.2170632837022044
mouse_head_joint,7.6199999999999255,-0.22192612143632573
mouse_head_joint,7.639999999999925,-0.22772667963625715
mouse_head_joint,7.659999999999925,-0.23063511557380956
mouse_head_joint,7.679999999999924,-0.2320959555146338
mouse_head_joint,7.699999999999924,-0.23616343044446886
mouse_head_joint,7.719999999999923,-0.24099615633723026
mouse_head_joint,7.739999999999923,-0.24175617566803353
mouse_head_joint,7.7599999999999225,-0.24347923546083816
mouse_head_joint,7.779999999999922,-0.24439371399918297
mouse_head_joint,7.799999999999922,-0.244083963397129
mouse_head_joint,7.819999999999921,-0.2461295348567738
mouse_head_joint,7.839999999999921,-0.24685284400392238
mouse_head_joint,7.85999999999992,-0.2504189029589403
mouse_head_joint,7.87999999999992,-0.25356998334515346
mouse_head_joint,7.8999999999999195,-0.2563561598742172
mouse_head_joint,7.919999999999919,-0.2594175477919478
mouse_head_joint,7.939999999999919,-0.2606353271270656
mouse_head_joint,7.959999999999918,-0.258631701842682
mouse_head_joint,7.979999999999918,-0.2562701428397274
mouse_head_joint,7.999999999999917,-0.25762771927149153
mouse_head_joint,8.019999999999918,-0.2599527007524811
mouse_head_joint,8.039999999999917,-0.2561014169879261
mouse_head_joint,8.059999999999917,-0.2521674366389588
mouse_head_joint,8.079999999999917,-0.2496086862180169
mouse_head_joint,8.099999999999916,-0.2469708963203736
mouse_head_joint,8.119999999999916,-0.24464913796311816
mouse_head_joint,8.139999999999915,-0.24290516919306615
mouse_head_joint,8.159999999999915,-0.24607018992085106
mouse_head_joint,8.179999999999914,-0.24876308977661488
mouse_head_joint,8.199999999999914,-0.2484546750822565
mouse_head_joint,8.219999999999914,-0.2520774800019465
mouse_head_joint,8.239999999999913,-0.25571374963298066
mouse_head_joint,8.259999999999913,-0.2590287083018099
mouse_head_joint,8.279999999999912,-0.2584384125978252
mouse_head_joint,8.299999999999912,-0.2557425042019279
mouse_head_joint,8.319999999999911,-0.2529591794215884
mouse_head_joint,8.339999999999911,-0.25105040615953556
mouse_head_joint,8.35999999999991,-0.2505798323786719
mouse_head_joint,8.37999999999991,-0.25454999206887674
mouse_head_joint,8.39999999999991,-0.2565026993039776
mouse_head_joint,8.41999999999991,-0.2566913123835972
mouse_head_joint,8.439999999999909,-0.25817017549139454
mouse_head_joint,8.459999999999908,-0.2628240331356304
mouse_head_joint,8.479999999999908,-0.2677038274763772
mouse_head_joint,8.499999999999908,-0.27194238379947766
mouse_head_joint,8.519999999999907,-0.272097055609577
mouse_head_joint,8.539999999999907,-0.2691736705911856
mouse_head_joint,8.559999999999906,-0.26844639927531233
mouse_head_joint,8.579999999999906,-0.268083930479869
mouse_head_joint,8.599999999999905,-0.2677559833746672
mouse_head_joint,8.619999999999905,-0.2674521361388269
mouse_head_joint,8.639999999999905,-0.2671163734412829
mouse_head_joint,8.659999999999904,-0.2667957891565642
mouse_head_joint,8.679999999999904,-0.26648995907702044
mouse_head_joint,8.699999999999903,-0.2637532419777102
mouse_head_joint,8.719999999999903,-0.26076592988396907
mouse_head_joint,8.739999999999903,-0.26414649555109815
mouse_head_joint,8.759999999999902,-0.26561501780373753
mouse_head_joint,8.779999999999902,-0.26490381390025153
mouse_head_joint,8.799999999999901,-0.2673449731495774
mouse_head_joint,8.8199999999999,-0.26756705358431354
mouse_head_joint,8.8399999999999,-0.26431859229310195
mouse_head_joint,8.8599999999999,-0.2630188875406061
mouse_head_joint,8.8799999999999,-0.2611437529844185
mouse_head_joint,8.899999999999899,-0.25899959499058856
mouse_head_joint,8.919999999999899,-0.25857095880573056
mouse_head_joint,8.939999999999898,-0.2558411853626792
mouse_head_joint,8.959999999999898,-0.2526906809807228
mouse_head_joint,8.979999999999897,-0.25343479988244777
mouse_head_joint,8.999999999999897,-0.2557127584191621
mouse_head_joint,9.019999999999897,-0.25578752454088516
mouse_head_joint,9.039999999999896,-0.2529565185072711
mouse_head_joint,9.059999999999896,-0.24862658679159022
mouse_head_joint,9.079999999999895,-0.2523441242328426
mouse_head_joint,9.099999999999895,-0.2554033076752651
mouse_head_joint,9.119999999999894,-0.2573769603761482
mouse_head_joint,9.139999999999894,-0.2595602537911077
mouse_head_joint,9.159999999999894,-0.26071750746486977
mouse_head_joint,9.179999999999893,-0.2633985047425842
mouse_head_joint,9.199999999999893,-0.2663906799553306
mouse_head_joint,9.219999999999892,-0.267180001724606
mouse_head_joint,9.239999999999892,-0.26220468531190466
mouse_head_joint,9.259999999999891,-0.25827171347333255
mouse_head_joint,9.279999999999891,-0.25739761278470663
mouse_head_joint,9.29999999999989,-0.25466787013155034
mouse_head_joint,9.31999999999989,-0.2499541521746389
mouse_head_joint,9.33999999999989,-0.24723417441887818
mouse_head_joint,9.35999999999989,-0.24821220249349807
mouse_head_joint,9.379999999999889,-0.25047462906284146
mouse_head_joint,9.399999999999888,-0.2542967295462333
mouse_head_joint,9.419999999999888,-0.25486626655993483
mouse_head_joint,9.439999999999888,-0.25649281279967084
mouse_head_joint,9.459999999999887,-0.25822763466061716
mouse_head_joint,9.479999999999887,-0.2592271510082096
mouse_head_joint,9.499999999999886,-0.2608759466500068
mouse_head_joint,9.519999999999886,-0.2641606158711731
mouse_head_joint,9.539999999999885,-0.26812605237216935
mouse_head_joint,9.559999999999885,-0.26886431954377343
mouse_head_joint,9.579999999999885,-0.2694731600917226
mouse_head_joint,9.599999999999884,-0.2693374639031054
mouse_head_joint,9.619999999999884,-0.26798008059684975
mouse_head_joint,9.639999999999883,-0.2674567609781118
mouse_head_joint,9.659999999999883,-0.26943816616906524
mouse_head_joint,9.679999999999882,-0.26697507318694935
mouse_head_joint,9.699999999999882,-0.2611673411243638
mouse_head_joint,9.719999999999882,-0.254804622784901
mouse_head_joint,9.739999999999881,-0.25248695827399015
mouse_head_joint,9.75999999999988,-0.2508662765269758
mouse_head_joint,9.77999999999988,-0.24637244845741346
mouse_head_joint,9.79999999999988,-0.24399561685191262
mouse_head_joint,9.81999999999988,-0.2446993731520637
mouse_head_joint,9.839999999999879,-0.24303825325415218
mouse_head_joint,9.859999999999879,-0.23908115799470586
mouse_head_joint,9.879999999999878,-0.23746863570788435
mouse_head_joint,9.899999999999878,-0.23691373068791854
mouse_head_joint,9.919999999999877,-0.23529849818243154
mouse_head_joint,9.939999999999877,-0.23103437912787061
mouse_head_joint,9.959999999999877,-0.22793426629294267
mouse_head_joint,9.979999999999876,-0.22719191418635987
mouse_head_joint,9.999999999999876,-0.22875370974237086
mouse_head_joint,10.019999999999875,-0.23073822722735482
mouse_head_joint,10.039999999999875,-0.22842998964264538
mouse_head_joint,10.059999999999874,-0.22962011929705994
mouse_head_joint,10.079999999999874,-0.2338814923572432
mouse_head_joint,10.099999999999874,-0.23857222821414403
mouse_head_joint,10.119999999999873,-0.24133201616357702
mouse_head_joint,10.139999999999873,-0.24376545244311565
mouse_head_joint,10.159999999999872,-0.24253293671143172
mouse_head_joint,10.179999999999872,-0.24011319846970025
mouse_head_joint,10.199999999999871,-0.2396700698981471
mouse_head_joint,10.219999999999871,-0.24073235271054383
mouse_head_joint,10.23999999999987,-0.24235859741407229
mouse_head_joint,10.25999999999987,-0.24604858737855917
mouse_head_joint,10.27999999999987,-0.2513343962691801
mouse_head_joint,10.29999999999987,-0.25361954288648914
mouse_head_joint,10.319999999999869,-0.2515295286056167
mouse_head_joint,10.339999999999868,-0.25029082287923643
mouse_head_joint,10.359999999999868,-0.24985818950483107
mouse_head_joint,10.379999999999868,-0.24941532855786974
mouse_head_joint,10.399999999999867,-0.24945523037682626
mouse_head_joint,10.419999999999867,-0.2498686897873812
mouse_head_joint,10.439999999999866,-0.2529314478834479
mouse_head_joint,10.459999999999866,-0.25652474979674
mouse_head_joint,10.479999999999865,-0.2538670907895373
mouse_head_joint,10.499999999999865,-0.25288822388522014
mouse_head_joint,10.519999999999865,-0.2536972696235864
mouse_head_joint,10.539999999999864,-0.25055550523362236
mouse_head_joint,10.559999999999864,-0.24899750330568882
mouse_head_joint,10.579999999999863,-0.24842366662876714
mouse_head_joint,10.599999999999863,-0.25010245647028295
mouse_head_joint,10.619999999999862,-0.25249018193568595
mouse_head_joint,10.639999999999862,-0.25253197489216195
mouse_head_joint,10.659999999999862,-0.25592182464252655
mouse_head_joint,10.679999999999861,-0.26134141070986505
mouse_head_joint,10.69999999999986,-0.26359953029104943
mouse_head_joint,10.71999999999986,-0.2623366916636538
mouse_head_joint,10.73999999999986,-0.2599258628434855
mouse_head_joint,10.75999999999986,-0.2583926817481892
mouse_head_joint,10.779999999999859,-0.26119112717252513
mouse_head_joint,10.799999999999859,-0.2643713031049728
mouse_head_joint,10.819999999999858,-0.26626501467913855
mouse_head_joint,10.839999999999858,-0.26694462383046513
mouse_head_joint,10.859999999999857,-0.2675937194331608
mouse_head_joint,10.879999999999857,-0.26964970271889843
mouse_head_joint,10.899999999999856,-0.2721150776973582
mouse_head_joint,10.919999999999856,-0.27354770343789436
mouse_head_joint,10.939999999999856,-0.2733591956231134
mouse_head_joint,10.959999999999855,-0.27209717679059686
mouse_head_joint,10.979999999999855,-0.269307884768061
mouse_head_joint,10.999999999999854,-0.267119169461874
mouse_head_joint,11.019999999999854,-0.2663038052220452
mouse_head_joint,11.039999999999853,-0.2658890782078114
mouse_head_joint,11.059999999999853,-0.2662032004962649
mouse_head_joint,11.079999999999853,-0.266949222239826
mouse_head_joint,11.099999999999852,-0.27016076382672427
mouse_head_joint,11.119999999999852,-0.2721525482075142
mouse_head_joint,11.139999999999851,-0.2674448597222021
mouse_head_joint,11.159999999999851,-0.2631861455229769
mouse_head_joint,11.17999999999985,-0.26010917873434636
mouse_head_joint,11.19999999999985,-0.25869809783291053
mouse_head_joint,11.21999999999985,-0.258088734925936
mouse_head_joint,11.23999999999985,-0.25771952480569027
mouse_head_joint,11.259999999999849,-0.2589099361020235
mouse_head_joint,11.279999999999848,-0.257780450870567
mouse_head_joint,11.299999999999848,-0.25692717792519826
mouse_head_joint,11.319999999999848,-0.2606482998680413
mouse_head_joint,11.339999999999847,-0.26003758873783234
mouse_head_joint,11.359999999999847,-0.2606817256994276
mouse_head_joint,11.379999999999846,-0.2604457270149938
mouse_head_joint,11.399999999999846,-0.2602847267229542
mouse_head_joint,11.419999999999845,-0.26064087826792637
mouse_head_joint,11.439999999999845,-0.26130428138524486
mouse_head_joint,11.459999999999845,-0.26182621119609184
mouse_head_joint,11.479999999999844,-0.26154297670485516
mouse_head_joint,11.499999999999844,-0.2586584710614259
mouse_head_joint,11.519999999999843,-0.25597978830717594
mouse_head_joint,11.539999999999843,-0.2598178233230204
mouse_head_joint,11.559999999999842,-0.2623351641334608
mouse_head_joint,11.579999999999842,-0.2622866551649494
mouse_head_joint,11.599999999999842,-0.26185677128192264
mouse_head_joint,11.619999999999841,-0.2613164255767906
mouse_head_joint,11.63999999999984,-0.2621633338095437
mouse_head_joint,11.65999999999984,-0.26439598460169567
mouse_head_joint,11.67999999999984,-0.2629616879778336
mouse_head_joint,11.69999999999984,-0.258473890472497
mouse_head_joint,11.719999999999839,-0.2547849508908051
mouse_head_joint,11.739999999999839,-0.25244147806564765
mouse_head_joint,11.759999999999838,-0.24976959187685566
mouse_head_joint,11.779999999999838,-0.24510318328645653
mouse_head_joint,11.799999999999837,-0.24603879930692507
mouse_head_joint,11.819999999999837,-0.24765550520250734
mouse_head_joint,11.839999999999836,-0.25010406313783484
mouse_head_joint,11.859999999999836,-0.255190589798735
mouse_head_joint,11.879999999999836,-0.25891715409647453
mouse_head_joint,11.899999999999835,-0.2596058349828212
mouse_head_joint,11.919999999999835,-0.2630601245546682
mouse_head_joint,11.939999999999834,-0.2636661650653416
mouse_head_joint,11.959999999999834,-0.26042743295492166
mouse_head_joint,11.979999999999833,-0.25693860629492704
mouse_head_joint,11.999999999999833,-0.25521951333961646
mouse_head_joint,12.019999999999833,-0.25441982247402795
mouse_head_joint,12.039999999999832,-0.2535424900964216
mouse_head_joint,12.059999999999832,-0.2517731031997297
mouse_head_joint,12.079999999999831,-0.2518120224403564
mouse_head_joint,12.099999999999831,-0.253868096652452
mouse_head_joint,12.11999999999983,-0.25682979777657344
mouse_head_joint,12.13999999999983,-0.258111592070863
mouse_head_joint,12.15999999999983,-0.26103462085699114
mouse_head_joint,12.17999999999983,-0.26166797708324996
mouse_head_joint,12.199999999999829,-0.2603900181112051
mouse_head_joint,12.219999999999828,-0.26108405518883426
mouse_head_joint,12.239999999999828,-0.26097919515612045
mouse_head_joint,12.259999999999827,-0.2603501331213929
mouse_head_joint,12.279999999999827,-0.25895383250508
mouse_head_joint,12.299999999999827,-0.2595008094777258
mouse_head_joint,12.319999999999826,-0.26219982146899934
mouse_head_joint,12.339999999999826,-0.2636851269470979
mouse_head_joint,12.359999999999825,-0.26673785106417025
mouse_head_joint,12.379999999999825,-0.26854578151086184
mouse_head_joint,12.399999999999824,-0.26971502684853554
mouse_head_joint,12.419999999999824,-0.27005245710066816
mouse_head_joint,12.439999999999824,-0.2652878588028882
mouse_head_joint,12.459999999999823,-0.262248302969736
mouse_head_joint,12.479999999999823,-0.262296249640114
mouse_head_joint,12.499999999999822,-0.2624314959800742
mouse_head_joint,12.519999999999822,-0.2607093519438255
mouse_head_joint,12.539999999999822,-0.25935117626058624
mouse_head_joint,12.559999999999821,-0.2586693275325551
mouse_head_joint,12.57999999999982,-0.25807483870958237
mouse_head_joint,12.59999999999982,-0.256665422030129
mouse_head_joint,12.61999999999982,-0.2535129718040885
mouse_head_joint,12.63999999999982,-0.2515449939761787
mouse_head_joint,12.659999999999819,-0.2510790724354015
mouse_head_joint,12.679999999999819,-0.25194591755283735
mouse_head_joint,12.699999999999818,-0.2502204160201904
mouse_head_joint,12.719999999999818,-0.24822334723257633
mouse_head_joint,12.739999999999817,-0.25081068701539877
mouse_head_joint,12.759999999999817,-0.25325559687554566
mouse_head_joint,12.779999999999816,-0.25808243954265464
mouse_head_joint,12.799999999999816,-0.2594730728307644
mouse_head_joint,12.819999999999816,-0.25799490335333974
mouse_head_joint,12.839999999999815,-0.2627864624296796
mouse_head_joint,12.859999999999815,-0.26914305500877855
mouse_head_joint,12.879999999999814,-0.2696618985725099
mouse_head_joint,12.899999999999814,-0.26373891987549225
mouse_head_joint,12.919999999999813,-0.2572263343953418
mouse_head_joint,12.939999999999813,-0.2520700083629013
mouse_head_joint,12.959999999999813,-0.25227187489134373
mouse_head_joint,12.979999999999812,-0.2540364615732855
mouse_head_joint,12.999999999999812,-0.25375920983634526
mouse_head_joint,13.019999999999811,-0.2550982788779068
mouse_head_joint,13.03999999999981,-0.25722938242109183
mouse_head_joint,13.05999999999981,-0.25707843347670245
mouse_head_joint,13.07999999999981,-0.2576085266011212
mouse_head_joint,13.09999999999981,-0.26039560466706924
mouse_head_joint,13.11999999999981,-0.2654643834127661
mouse_head_joint,13.139999999999809,-0.2681154532301102
mouse_head_joint,13.159999999999808,-0.26616050625421295
mouse_head_joint,13.179999999999808,-0.2658749573875996
mouse_head_joint,13.199999999999807,-0.26969303339099415
mouse_head_joint,13.219999999999807,-0.2766219772766947
mouse_head_joint,13.239999999999807,-0.28018491352560826
mouse_head_joint,13.259999999999806,-0.28239928595518204
mouse_head_joint,13.279999999999806,-0.28600179948159354
mouse_head_joint,13.299999999999805,-0.28483372298829224
mouse_head_joint,13.319999999999805,-0.2797834885159505
mouse_head_joint,13.339999999999804,-0.2756745564452263
mouse_head_joint,13.359999999999804,-0.2721822960994782
mouse_head_joint,13.379999999999804,-0.27432082047728024
mouse_head_joint,13.399999999999803,-0.2747175821450849
mouse_head_joint,13.419999999999803,-0.274637446009673
mouse_head_joint,13.439999999999802,-0.2749512597319441
mouse_head_joint,13.459999999999802,-0.2744074023654077
mouse_head_joint,13.479999999999801,-0.27389576530445137
mouse_head_joint,13.499999999999801,-0.2754126662120022
mouse_head_joint,13.5199999999998,-0.2732174051480163
mouse_head_joint,13.5399999999998,-0.2761766432586379
mouse_head_joint,13.5599999999998,-0.2794662654931761
mouse_head_joint,13.5799999999998,-0.27927553342176026
mouse_head_joint,13.599999999999799,-0.27765683698845134
mouse_head_joint,13.619999999999798,-0.27769602756323764
mouse_head_joint,13.639999999999798,-0.27856143685054935
mouse_head_joint,13.659999999999798,-0.2765269068906404
mouse_head_joint,13.679999999999797,-0.27565065970157754
mouse_head_joint,13.699999999999797,-0.27678255850068023
mouse_head_joint,13.719999999999796,-0.28016864618238024
mouse_head_joint,13.739999999999796,-0.2810881653414281
mouse_head_joint,13.759999999999796,-0.2823618911547445
mouse_head_joint,13.779999999999795,-0.2830963392772343
mouse_head_joint,13.799999999999795,-0.2839938187119291
mouse_head_joint,13.819999999999794,-0.2844407902551316
mouse_head_joint,13.839999999999794,-0.28453614964948404
mouse_head_joint,13.859999999999793,-0.286293639530796
mouse_head_joint,13.879999999999793,-0.2859209706132777
mouse_head_joint,13.899999999999793,-0.28220560032191955
mouse_head_joint,13.919999999999792,-0.279079762538081
mouse_head_joint,13.939999999999792,-0.27395381637268024
mouse_head_joint,13.959999999999791,-0.2691818454426276
mouse_head_joint,13.97999999999979,-0.2652287745449584
mouse_head_joint,13.99999999999979,-0.26124062066126275
mouse_head_joint,14.01999999999979,-0.25752614623178705
mouse_head_joint,14.03999999999979,-0.25960425602998516
mouse_head_joint,14.059999999999789,-0.263246913748163
mouse_head_joint,14.079999999999789,-0.26642187339687506
mouse_head_joint,14.099999999999788,-0.26762605856464017
mouse_head_joint,14.119999999999788,-0.2654492024583277
mouse_head_joint,14.139999999999787,-0.26866946432557626
mouse_head_joint,14.159999999999787,-0.27220837591879743
mouse_head_joint,14.179999999999787,-0.2736039087123592
mouse_head_joint,14.199999999999786,-0.27333778827694033
mouse_head_joint,14.219999999999786,-0.27170078294765165
mouse_head_joint,14.239999999999785,-0.26925496051951736
mouse_head_joint,14.259999999999785,-0.26814669571168714
mouse_head_joint,14.279999999999784,-0.2685866610091896
mouse_head_joint,14.299999999999784,-0.27026360188095744
mouse_head_joint,14.319999999999784,-0.2700677764011914
mouse_head_joint,14.339999999999783,-0.27031358431843255
mouse_head_joint,14.359999999999783,-0.2725152082469817
mouse_head_joint,14.379999999999782,-0.27354449236041134
mouse_head_joint,14.399999999999782,-0.27219663610995326
mouse_head_joint,14.419999999999781,-0.2697648189598354
mouse_head_joint,14.439999999999781,-0.27001005075540263
mouse_head_joint,14.45999999999978,-0.2675125427118328
mouse_head_joint,14.47999999999978,-0.26670241244612747
mouse_head_joint,14.49999999999978,-0.26931018711500876
mouse_head_joint,14.51999999999978,-0.2664443962554133
mouse_head_joint,14.539999999999779,-0.26481892685197383
mouse_head_joint,14.559999999999778,-0.26657953506318677
mouse_head_joint,14.579999999999778,-0.26602981009846527
mouse_head_joint,14.599999999999778,-0.26355323036465084
mouse_head_joint,14.619999999999777,-0.2586429441361595
mouse_head_joint,14.639999999999777,-0.25981241696560087
mouse_head_joint,14.659999999999776,-0.26062801385745704
mouse_head_joint,14.679999999999776,-0.2630152179023728
mouse_head_joint,14.699999999999775,-0.2631917274826261
mouse_head_joint,14.719999999999775,-0.2624603732345774
mouse_head_joint,14.739999999999775,-0.26083083747992664
mouse_head_joint,14.759999999999774,-0.26308548204617654
mouse_head_joint,14.779999999999774,-0.2660008251745767
mouse_head_joint,14.799999999999773,-0.265961807098015
mouse_head_joint,14.819999999999773,-0.2659079230002943
mouse_head_joint,14.839999999999772,-0.26607533888556034
mouse_head_joint,14.859999999999772,-0.26759550008301947
mouse_head_joint,14.879999999999772,-0.2702722936304838
mouse_head_joint,14.899999999999771,-0.27018401876095766
mouse_head_joint,14.91999999999977,-0.26962158662143576
mouse_head_joint,14.93999999999977,-0.2690192240924629
mouse_head_joint,14.95999999999977,-0.2658208901210921
mouse_head_joint,14.97999999999977,-0.2585268529810971
mouse_head_joint,14.999999999999769,-0.25380598454347414
mouse_head_joint,15.019999999999769,-0.2526684116081297
mouse_head_joint,15.039999999999768,-0.2551793090004191
mouse_head_joint,15.059999999999768,-0.2541109296881521
mouse_head_joint,15.079999999999767,-0.2538714127294641
mouse_head_joint,15.099999999999767,-0.25404302802337675
mouse_head_joint,15.119999999999767,-0.25468586194480647
mouse_head_joint,15.139999999999766,-0.25439738036027926
mouse_head_joint,15.159999999999766,-0.25653389199330956
mouse_head_joint,15.179999999999765,-0.2611638771361795
mouse_head_joint,15.199999999999765,-0.26524509774726024
mouse_head_joint,15.219999999999764,-0.26950394896051133
mouse_head_joint,15.239999999999764,-0.2703699253781435
mouse_head_joint,15.259999999999764,-0.2690465609996098
mouse_head_joint,15.279999999999763,-0.2694032499422514
mouse_head_joint,15.299999999999763,-0.269759887962163
mouse_head_joint,15.319999999999762,-0.2679040397904888
mouse_head_joint,15.339999999999762,-0.269949207851214
mouse_head_joint,15.359999999999761,-0.26787121165571115
mouse_head_joint,15.379999999999761,-0.26582987397016833
mouse_head_joint,15.39999999999976,-0.26874060046625026
mouse_head_joint,15.41999999999976,-0.27225706677790384
mouse_head_joint,15.43999999999976,-0.26979745058295546
mouse_head_joint,15.45999999999976,-0.2659818156667564
mouse_head_joint,15.479999999999759,-0.26489014641834796
mouse_head_joint,15.499999999999758,-0.26419191812840914
mouse_head_joint,15.519999999999758,-0.2647246225418769
mouse_head_joint,15.539999999999758,-0.2670964514076939
mouse_head_joint,15.559999999999757,-0.26616178749891706
mouse_head_joint,15.579999999999757,-0.26458247312684335
mouse_head_joint,15.599999999999756,-0.26559665671770016
mouse_head_joint,15.619999999999756,-0.26350398325323177
mouse_head_joint,15.639999999999755,-0.26274434628270615
mouse_head_joint,15.659999999999755,-0.25963128939732094
mouse_head_joint,15.679999999999755,-0.2567759948626742
mouse_head_joint,15.699999999999754,-0.25578611590705425
mouse_head_joint,15.719999999999754,-0.25565857352206844
mouse_head_joint,15.739999999999753,-0.2544461954668682
mouse_head_joint,15.759999999999753,-0.24865694672219263
mouse_head_joint,15.779999999999752,-0.24295491734568753
mouse_head_joint,15.799999999999752,-0.24070962964963538
mouse_head_joint,15.819999999999752,-0.23968798509089417
mouse_head_joint,15.839999999999751,-0.24081790824272975
mouse_head_joint,15.85999999999975,-0.24045022139289607
mouse_head_joint,15.87999999999975,-0.23982913001577089
mouse_head_joint,15.89999999999975,-0.23917353217909998
mouse_head_joint,15.91999999999975,-0.23860851215080103
mouse_head_joint,15.939999999999749,-0.2380116117292017
mouse_head_joint,15.959999999999749,-0.237320031404761
mouse_head_joint,15.979999999999748,-0.23672323488000124
mouse_head_joint,15.999999999999748,-0.23606359565753454
mouse_head_joint,16.019999999999747,-0.23546745666226165
mouse_head_joint,16.039999999999747,-0.23480857641198583
mouse_head_joint,16.059999999999746,-0.23368894849251287
mouse_head_joint,16.079999999999746,-0.23181766239416657
mouse_head_joint,16.099999999999746,-0.23004643865668317
mouse_head_joint,16.119999999999745,-0.228195172771132
mouse_head_joint,16.139999999999745,-0.22653006725888325
mouse_head_joint,16.159999999999744,-0.22487392794751404
mouse_head_joint,16.179999999999744,-0.22313952230690237
mouse_head_joint,16.199999999999743,-0.2214149715118694
mouse_head_joint,16.219999999999743,-0.2196145430266947
mouse_head_joint,16.239999999999743,-0.21790933654139444
mouse_head_joint,16.259999999999742,-0.21629818563327063
mouse_head_joint,16.279999999999742,-0.21452758846611353
mouse_head_joint,16.29999999999974,-0.21293410246644484
mouse_head_joint,16.31999999999974,-0.2112661774094411
mouse_head_joint,16.33999999999974,-0.20960750062392286
mouse_head_joint,16.35999999999974,-0.20787576178300515
mouse_head_joint,16.37999999999974,-0.2061541771128228
mouse_head_joint,16.39999999999974,-0.20460518804934757
mouse_head_joint,16.41999999999974,-0.20298371100977253
mouse_head_joint,16.43999999999974,-0.20137119050768337
mouse_head_joint,16.459999999999738,-0.19976776007876218
mouse_head_joint,16.479999999999738,-0.1981733338085352
mouse_head_joint,16.499999999999737,-0.19658782476768621
mouse_head_joint,16.519999999999737,-0.19501122321152486
mouse_head_joint,16.539999999999736,-0.19352159663133772
mouse_head_joint,16.559999999999736,-0.19180684194004893
mouse_head_joint,16.579999999999735,-0.19041194050673038
mouse_head_joint,16.599999999999735,-0.18887000085665218
mouse_head_joint,16.619999999999735,-0.18733701868127994
mouse_head_joint,16.639999999999734,-0.18581265385114865
mouse_head_joint,16.659999999999734,-0.1842215317605147
mouse_head_joint,16.679999999999733,-0.18278969357730546
mouse_head_joint,16.699999999999733,-0.18121640680986673
mouse_head_joint,16.719999999999732,-0.17972683322393923
mouse_head_joint,16.739999999999732,-0.1782456890035391
mouse_head_joint,16.75999999999973,-0.1766996388066202
mouse_head_joint,16.77999999999973,-0.17523572887372652
mouse_head_joint,16.79999999999973,-0.17370753734170474
mouse_head_joint,16.81999999999973,-0.17247718690588876
mouse_head_joint,16.83999999999973,-0.17103745137815896
mouse_head_joint,16.85999999999973,-0.169534434904425
mouse_head_joint,16.87999999999973,-0.16811173609834995
mouse_head_joint,16.89999999999973,-0.16662643182049663
mouse_head_joint,16.919999999999728,-0.1653605877795652
mouse_head_joint,16.939999999999728,-0.163961476003049
mouse_head_joint,16.959999999999727,-0.16243211593754214
mouse_head_joint,16.979999999999727,-0.16111897873296854
mouse_head_joint,16.999999999999726,-0.15974476755197653
mouse_head_joint,17.019999999999726,-0.15824206444475308
mouse_head_joint,17.039999999999726,-0.1570194979916577
mouse_head_joint,17.059999999999725,-0.15566895433118066
mouse_head_joint,17.079999999999725,-0.15432614111527165
mouse_head_joint,17.099999999999724,-0.15299121341588773
mouse_head_joint,17.119999999999724,-0.15166381269800056
mouse_head_joint,17.139999999999723,-0.15034437632230802
mouse_head_joint,17.159999999999723,-0.1490979306215765
mouse_head_joint,17.179999999999723,-0.14779339767123822
mouse_head_joint,17.199999999999722,-0.14643167117975153
mouse_head_joint,17.21999999999972,-0.14520704790806072
mouse_head_joint,17.23999999999972,-0.14386150109639217
mouse_head_joint,17.25999999999972,-0.14258751067882702
mouse_head_joint,17.27999999999972,-0.14138430595495155
mouse_head_joint,17.29999999999972,-0.1400623470308835
mouse_head_joint,17.31999999999972,-0.13881059717459276
mouse_head_joint,17.33999999999972,-0.13756672845121898
mouse_head_joint,17.35999999999972,-0.1363913383802977
mouse_head_joint,17.37999999999972,-0.1351001795043718
mouse_head_joint,17.399999999999718,-0.13393905928483907
mouse_head_joint,17.419999999999717,-0.1327235102973825
mouse_head_joint,17.439999999999717,-0.13151564592059461
mouse_head_joint,17.459999999999717,-0.13025459331739508
mouse_head_joint,17.479999999999716,-0.1291207776509058
mouse_head_joint,17.499999999999716,-0.12787490213650266
mouse_head_joint,17.519999999999715,-0.12663688028386844
mouse_head_joint,17.539999999999715,-0.12558189112154317
mouse_head_joint,17.559999999999715,-0.1244161031134583
mouse_head_joint,17.579999999999714,-0.12319993017516317
mouse_head_joint,17.599999999999714,-0.12204846306258155
mouse_head_joint,17.619999999999713,-0.12090423622711466
mouse_head_joint,17.639999999999713,-0.11982328480336335
mouse_head_joint,17.659999999999712,-0.11857955552847343
mouse_head_joint,17.679999999999712,-0.11756812092850666
mouse_head_joint,17.69999999999971,-0.11645051945950691
mouse_head_joint,17.71999999999971,-0.11528453404825711
mouse_head_joint,17.73999999999971,-0.11418089152050293
mouse_head_joint,17.75999999999971,-0.11302912664385456
mouse_head_joint,17.77999999999971,-0.11199368581026814
mouse_head_joint,17.79999999999971,-0.11096396007315512
mouse_head_joint,17.81999999999971,-0.10983289039225586
mouse_head_joint,17.83999999999971,-0.10876231928962099
mouse_head_joint,17.859999999999708,-0.10764512641912205
mouse_head_joint,17.879999999999708,-0.10664062118534545
mouse_head_joint,17.899999999999707,-0.10564182298670133
mouse_head_joint,17.919999999999707,-0.10459693061173514
mouse_head_joint,17.939999999999706,-0.10345488649125034
mouse_head_joint,17.959999999999706,-0.10247457831626328
mouse_head_joint,17.979999999999706,-0.10144920602518503
mouse_head_joint,17.999999999999705,-0.1004807793811251
mouse_head_joint,18.019999999999705,-0.09936649754589855
mouse_head_joint,18.039999999999704,-0.09841015386993934
mouse_head_joint,18.059999999999704,-0.09745952716771455
mouse_head_joint,18.079999999999703,-0.09641521967806899
mouse_head_joint,18.099999999999703,-0.09547647128889647
mouse_head_joint,18.119999999999703,-0.09449396748848038
mouse_head_joint,18.139999999999702,-0.09351784678889885
mouse_head_joint,18.1599999999997,-0.09249919150899455
mouse_head_joint,18.1799999999997,-0.09153536746929536
mouse_head_joint,18.1999999999997,-0.09062542701219023
mouse_head_joint,18.2199999999997,-0.08962556798774912
mouse_head_joint,18.2399999999997,-0.08867972184157757
mouse_head_joint,18.2599999999997,-0.08778654993451518
mouse_head_joint,18.2799999999997,-0.08680548377224362
mouse_head_joint,18.2999999999997,-0.08596997889211266
mouse_head_joint,18.3199999999997,-0.08463330561091809
mouse_head_joint,18.339999999999698,-0.08408397102903731
mouse_head_joint,18.359999999999697,-0.08312752617002772
mouse_head_joint,18.379999999999697,-0.08217721117479826
mouse_head_joint,18.399999999999697,-0.0813677796840766
mouse_head_joint,18.419999999999696,-0.08047387838140718
mouse_head_joint,18.439999999999696,-0.07954131600559222
mouse_head_joint,18.459999999999695,-0.07865872296538612
mouse_head_joint,18.479999999999695,-0.07782585422643162
mouse_head_joint,18.499999999999694,-0.07695422296026067
mouse_head_joint,18.519999999999694,-0.07608838194053291
mouse_head_joint,18.539999999999694,-0.07514230210464401
mouse_head_joint,18.559999999999693,-0.07433049162142336
mouse_head_joint,18.579999999999693,-0.0735236813949145
mouse_head_joint,18.599999999999692,-0.07259560641315232
mouse_head_joint,18.619999999999692,-0.07179928899320309
mouse_head_joint,18.63999999999969,-0.07092491094597797
mouse_head_joint,18.65999999999969,-0.07009766959519403
mouse_head_joint,18.67999999999969,-0.06935744479177774
mouse_head_joint,18.69999999999969,-0.06854027909382765
mouse_head_joint,18.71999999999969,-0.06772857783269526
mouse_head_joint,18.73999999999969,-0.06660061210327228
mouse_head_joint,18.75999999999969,-0.06612064837839071
mouse_head_joint,18.77999999999969,-0.0652845415731047
mouse_head_joint,18.799999999999688,-0.06453312821680424
mouse_head_joint,18.819999999999688,-0.06374734004534588
mouse_head_joint,18.839999999999687,-0.06296667244494714
mouse_head_joint,18.859999999999687,-0.062190911188236164
mouse_head_joint,18.879999999999686,-0.06115190802805426
mouse_head_joint,18.899999999999686,-0.06065492764791269
mouse_head_joint,18.919999999999686,-0.059894321510020276
mouse_head_joint,18.939999999999685,-0.05898859393868783
mouse_head_joint,18.959999999999685,-0.0583884146152398
mouse_head_joint,18.979999999999684,-0.057642754694823495
mouse_head_joint,18.999999999999684,-0.056865338814963806
mouse_head_joint,19.019999999999683,-0.05616645780830698
mouse_head_joint,19.039999999999683,-0.05539911761005367
mouse_head_joint,19.059999999999683,-0.05467339673847249
mouse_head_joint,19.079999999999682,-0.05395232544536732
mouse_head_joint,19.09999999999968,-0.05302232702469212
mouse_head_joint,19.11999999999968,-0.05252480928750369
mouse_head_joint,19.13999999999968,-0.051607280692069324
mouse_head_joint,19.15999999999968,-0.051081171590873
mouse_head_joint,19.17999999999968,-0.050453869062038414
mouse_head_joint,19.19999999999968,-0.049761097972127466
mouse_head_joint,19.21999999999968,-0.04900424115036017
mouse_head_joint,19.23999999999968,-0.048355335340879435
mouse_head_joint,19.25999999999968,-0.04767670152125181
mouse_head_joint,19.279999999999678,-0.04700267091891508
mouse_head_joint,19.299999999999677,-0.04633306024406636
mouse_head_joint,19.319999999999677,-0.0456681271600754
mouse_head_joint,19.339999999999677,-0.04497474035965343
mouse_head_joint,19.359999999999676,-0.044384439480044335
mouse_head_joint,19.379999999999676,-0.04370040554795729
mouse_head_joint,19.399999999999675,-0.04282772214875408
mouse_head_joint,19.419999999999675,-0.042410414557965126
mouse_head_joint,19.439999999999674,-0.041772146609732275
mouse_head_joint,19.459999999999674,-0.041138460792427445
mouse_head_joint,19.479999999999674,-0.04054024868918127
mouse_head_joint,19.499999999999673,-0.03988356273690652
mouse_head_joint,19.519999999999673,-0.03923182785811452
mouse_head_joint,19.539999999999672,-0.03861546034519048
mouse_head_joint,19.559999999999672,-0.03803374347395039
mouse_head_joint,19.57999999999967,-0.03739543135323231
mouse_head_joint,19.59999999999967,-0.03685194265585601
mouse_head_joint,19.61999999999967,-0.03619227078395326
mouse_head_joint,19.63999999999967,-0.035626751274294044
mouse_head_joint,19.65999999999967,-0.03503517823447222
mouse_head_joint,19.67999999999967,-0.03441870432286276
mouse_head_joint,19.69999999999967,-0.03389395675363982
mouse_head_joint,19.71999999999967,-0.03331476195005578
mouse_head_joint,19.739999999999668,-0.03273948946749705
mouse_head_joint,19.759999999999668,-0.03216838683917089
mouse_head_joint,19.779999999999667,-0.03154488677502432
mouse_head_joint,19.799999999999667,-0.031010142866283452
mouse_head_joint,19.819999999999666,-0.030423275905761216
mouse_head_joint,19.839999999999666,-0.0299239801597313
mouse_head_joint,19.859999999999665,-0.029372554042212506
mouse_head_joint,19.879999999999665,-0.028825289419880384
mouse_head_joint,19.899999999999665,-0.028282072969869176
mouse_head_joint,19.919999999999664,-0.027769326528801486
mouse_head_joint,19.939999999999664,-0.027153436005420417
mouse_head_joint,19.959999999999663,-0.02667504025894374
mouse_head_joint,19.979999999999663,-0.026146811291638095
mouse_head_joint,19.999999999999662,-0.02562273729983744
mouse_head_joint,20.019999999999662,-0.024869257809887912
mouse_head_joint,20.03999999999966,-0.02461135048659635
mouse_head_joint,20.05999999999966,-0.02407256327903795
mouse_head_joint,20.07999999999966,-0.023538060289140184
mouse_head_joint,20.09999999999966,-0.02303269271199415
mouse_head_joint,20.11999999999966,-0.022530790349478913
mouse_head_joint,20.13999999999966,-0.02203294230252073
mouse_head_joint,20.15999999999966,-0.021563100372969934
mouse_head_joint,20.17999999999966,-0.021072163925499154
mouse_head_joint,20.19999999999966,-0.020584683264887715
mouse_head_joint,20.219999999999658,-0.02007697015339449
mouse_head_joint,20.239999999999657,-0.019572990991127526
mouse_head_joint,20.259999999999657,-0.019120320948816882
mouse_head_joint,20.279999999999657,-0.01864738924057896
mouse_head_joint,20.299999999999656,-0.018201287199963723
mouse_head_joint,20.319999999999656,-0.017734922279027288
mouse_head_joint,20.339999999999655,-0.01727239745051712
mouse_head_joint,20.359999999999655,-0.01676739439750552
mouse_head_joint,20.379999999999654,-0.016334499934149704
mouse_head_joint,20.399999999999654,-0.0159047955535927
mouse_head_joint,20.419999999999654,-0.01541093317006581
mouse_head_joint,20.439999999999653,-0.014987894027500559
mouse_head_joint,20.459999999999653,-0.014567663537512487
